<?xml version="1.0" encoding="utf-8"?>
<!-- Generator: Adobe Illustrator 26.4.1, SVG Export Plug-In . SVG Version: 6.00 Build 0)  -->
<svg version="1.1" id="Layer_1" xmlns="http://www.w3.org/2000/svg" xmlns:xlink="http://www.w3.org/1999/xlink" x="0px" y="0px"
	 viewBox="0 0 641.3 432.4" style="enable-background:new 0 0 641.3 432.4;" xml:space="preserve">
<style type="text/css">
	.st0{fill:#F4C77C;}
	.st1{fill:#DBA428;}
	.st2{fill:#4C3315;}
</style>
<polygon class="st0" points="318.8,0.9 5.8,60.6 8.6,64.7 70.8,93 128.1,84.5 465.9,73.1 612.8,204.5 623.2,202.7 633.5,202.4 
	637.9,197.2 639.7,190.1 637.1,186.3 635.6,182.3 631.3,178.9 629.2,173.2 622.7,167.3 622.1,162.6 617.7,158.7 617,152.5 
	610.9,147.7 609.3,142.4 603.3,138.9 603.3,131.5 596.9,128 595.2,121 590.5,119.3 586.1,120 585.6,115.7 582,110.4 579.1,108.7 
	577.9,101 570.6,99.7 569.7,94.4 565.4,90.8 561.3,82.2 555,80.5 554,72.3 548.3,67.9 546.9,61.2 538,58.3 535.2,52.3 529.5,50.3 
	527.2,41.6 523.1,38.6 518,38.1 515.9,32.9 "/>
<polygon class="st1" points="71.4,75.7 76,425.4 472.7,428.3 620,413 614.8,202.8 468.4,55.1 463.4,56.5 457.9,56 "/>
<g>
	<path class="st2" d="M159.4,426.2c0.1,0.1,0.1,0.1,0.2,0.2C159.5,426.3,159.5,426.2,159.4,426.2z"/>
	<path class="st2" d="M353.3,5.2c0-0.1-0.1-0.1-0.2-0.1C353.1,5.2,353.2,5.2,353.3,5.2z"/>
	<path class="st2" d="M481.4,73.1c0.2,0.5,0.4,0.6,0.9,0.5C482.1,73.1,481.9,73,481.4,73.1z"/>
	<path class="st2" d="M641.1,191.2c-0.1-2.5-1.3-3.5-3.3-5.5c-0.2-2.9-1.4-7.1-5.2-7.5c0-4.7-3.2-7.4-7.9-10.2c-1.5,0,0-2.6-0.4-3.7
		c-1.7-2.2-1.9-5.1-5.3-5.7c1.8-8.7-8-8.5-7-15c-3.3-2.7-3.2-4.8-7.2-5.3c0.2-2.8,1.1-7.5-2.1-8.7c-1.9-1.7-5.5-1.2-3.8-4.3
		c-1.7-5.1-6.5-9.5-12-7.1c1.6-3.8-3.5-9.7-6.1-10.3c0.3-2.4-1.6-4-2.3-6.1c-1.8-3.7-3.7-1.4-5.2-3.5c-2.4,1.3-1.1-2.1-2.1-3.4
		c-0.7-2.6-4-4.3-5.3-6.4c0.2-3.8-2.2-6.4-3.8-9.1c-1,1.5-2.5-0.7-3.4,0.4c-1.8-0.7-2.2,1.2-2.4-1.6c2.6-5.6-3-9.1-6.4-12.2
		c0.3-2-0.3-4.3-2.1-5.5c-1.2-2.8-5.3-4.2-7.7-2.5c-1-2-0.9-4.5-2.8-6.2c-1.5-1.9-3.9-3-6.4-3.5c-1.5-3.3-0.1-7.1-4.4-8.8
		c-1.4-2.5-4.1-1.8-6.7-2c1.2-2.1-1.9-3.3-2-5.3c-5.6-4.3-12.7-3.8-19.2-5.4c-3.9,0.8-11.4-3.5-12.3-0.5c0.3-2.9-5.6-0.8-7.2-2.2
		c-4.4-0.2-9.1-1-12.9-1.5c-4.1-1.1-9.7-1.1-11.5-1.9c-3.4,0.3-7.4-2.3-10.1-0.8c-1.7-2.2-5.7-0.5-8.6-2.4c-0.6,0.5-4.6-0.5-5.8-0.1
		c-1-0.4-2.9-1.4-3.8-0.4c-3.3-2.1-8.4-2.1-13.5-2.6c-2.4-2.5-10.6-0.6-5.4-0.4c1.2-0.2,2,1,3,1.5c0.6-0.4,4.6,0.8,2.8,0.1
		c-2.2,0.7-4.1-1.2-5.8-1.5c-1.4,1-2.7-1.3-4.2-1.4c-6.1-0.6-10.6-1.9-14.9-1.9c-10.4-2.3-22.6-3.5-33.8-5.4
		c-2.2-0.6-4.5,0.7-6.7-0.2c-1.4-1.1,1.8,0.8,2.8,0.4c2.6-1.1,3-0.6-0.2-0.8c-1.5-1-4.4-0.9-5.7,0c-1.5-1.9-5.4-1.7-8.2-1.8
		c-4.1-2-7.9-1-12.9-2.6c-1.9-1.1-7.3,0.7-8.5,1.8c-2.1-0.4-6.2-0.3-8.6,1.4c-7.9,0.3-17.3,1.8-23.8,4.4c-11.1,0.7-19.5,4.3-30.6,5
		c-0.5,0.6-0.3,1.2-1.4,1c-1-1.2-2.9,1.6-4.3-0.1c-2.5,1.7-5.9,0.8-8.5,2c-1.7,0.6-3.6,0.1-4.2,1.9c-0.4-2.1-2.9,0.1-4.4-0.5
		c-2.5,1-5.8,1.6-9,1.4c-2,1.1-4.1,1.3-6.2,1.4c-0.9,0.6-2.8,1.6-3.8,0.5c-2.7,1.7-4.9,0.6-8,2c-1.9,1.6-4.5-0.2-6.5,0.9
		c-3.3,1.9-7.3,0.8-10.4,2.4c-3.6-0.1-5.8,1.5-9.2,0.9c-1.8,2.2-6.1,0.7-7.7,2c-8.3,1-15,3.1-23.7,4.5c-7.3,1-11,2.6-17.1,3
		c-3.9,2.4-10.8,1.1-15.3,3.3C76.6,45.9,40,53.3,4.8,59.2c-12.3,3.7,2.1,3.6,3.5,8.4c1.3,2.1,1.6,1.1,3.7,0.8
		c2.2,2.1,5.1,1.8,6.3,3.8c1.9-1.7,1.6,1.4,3.4,1.1c2.7,1.3,4.5,2.4,7.5,3.3c8.3,4.2,17.2,7.6,25,11.1c2.7,3.4,9.1,2.5,11.7,5.7
		c1.6,0.4,1.6-1.2,1.8-1.3c-0.1,0.5,0.6,1.4,0.9,0.8c1.7,0.2,0.9,0.5,1,2.7c0.3,2.1,0.9,6.2,0,8.2c0.8,10,0.5,18.5,0.7,28.7
		c0.6,26.6,0.8,52.4,0.7,78.2c1,64.4,1.4,131.8,2.1,195.5c0.8,26.9-2.5,17.3,22.2,20.4c5.7-1.8,13.2,1.1,17.6-0.7
		c9.1,0.7,17.3-0.7,26.9,0.3c4.1-0.1,9.4,0.4,14.5-0.3c0.8,0.1,2,1.7,3.1,0.3c2.1-0.2,4.4,0.3,6.2,0c2.6,1.1,6.9-0.6,9-0.1
		c3.7,0.8,10.7-0.1,15.1,0.6c7.3-0.4,12,1.8,19,0.7c2.6,0.6,5.9,0.5,8.8-0.1c2,0.5,5.1,1.7,6.2,0c3.2,1.1,12.2,0.6,15.2,0
		c1.2,0.7,3.9,1,4.7,0.4c0.5-0.2,2.9,0.4,1.8-0.6c0.8,2.1,2.6,0.2,4.3,0.7c3.4,0.4,5.5,0.4,9,0c5.3,0.6,12.5,1.3,15.8,0
		c4.6,1.3,10.7,0.6,15.4,0.4c5.1,0.5,9.6,0.8,14.5-0.1c1.6,1,5.3,0.9,6.9-0.2c2.1,2.5,6.4-0.6,9.3,0.6c6.4-0.8,11.3,0.5,17.9-0.6
		c8.2,1.3,19.2-0.2,28.1,0.3c5.4,0.1,11.2,0.8,16.5,0c-0.7,1.1,5.1,0.6,5.2,0.1c1,0.1,2.4,1.3,3.2,0.6c19.1,0.1,38.5,0.3,55.5,0.7
		c4.2-0.3,10.3,0,15.9,0.4c1.6,0.3,3.9-0.9,6.6,0.1c1.1-1,4-0.1,3.6,1.3c2.6,3.3,1.8-3.3,4.5-2.5c10.3-0.6,19.8-2.5,29.7-3
		c6-0.5,10.9-1.3,16.9-1.4c2-1.9,6.4,0.8,8-1.3c2.3,0.6,4-0.1,6.3-0.5c2.4,0.5,5.7-0.2,8.2-0.9c1.2,1.6,1.9-0.6,3.7-0.6
		c3,1.2,6.2-1,9.2-0.6c1.6-0.5,4.4-0.1,6.3-0.1c0.7-1.5,2-0.7,2.9-0.4c0.6-1.9,3.2-0.3,4.6-0.4c3.4-1.5,6.8-0.8,10.6-0.9
		c1.2-1.9,2.9,0.5,4.7-1c0.8-1.2,3.2,1.2,3.6,0c1.4-1.4,4.5-0.3,5.9-0.9c2.3-0.6,6.3-0.1,8.7-1.1c5.6-0.3,11.4-1.3,16.9-1.5
		c-1-3.5-1.9-7.8-1.8-11.2c0.8-2.7-0.2-4.1,0.4-6.8c-0.8-1.6,1.1-3.7-0.8-4.3c0.6-4.1,0.2-7.3,0.1-11.6c1.7-0.9-1.2-4.6-0.1-7.1
		c1.2-1-0.5-2.6-0.1-3.9c2.3-1.2-1-1.3,0-3.8c0.1-0.6,0.6-0.8-0.1-1.2c-0.2-10.6-0.3-18.2-0.5-28.8c0.9-2-0.5-4.9-0.4-7.3
		c2.1-0.2-0.9-3.6,0.9-4.7c0.2-1.4-1.5-2.7-0.9-4.9c1-1.7-0.6-4.1,0.8-5.7c-1.8,0.1-1.1-4.8,0-6.6c0.5-2-1.4-1.9-1.2-3.9
		c1.4-1.6-0.7-3.6,1-5c-2.4-3.1-0.1-6.4-0.5-8.5c-1-2.6,0.6-4.9-0.3-7.3c0-2.3-1.3-5.1-0.3-6.7c0.9-8-0.5-15.9-0.5-24.1
		c0.1-3.9-0.6-5.7,0-9c0.7-0.7-0.1-1.7-0.6-2.4c1.4-0.5,1.3-2.9,0.1-2.6c-0.6-1.8,1.6-2.2,0.8-3.7c-2.1-0.4,0.1-10.4-1.2-10.4
		c0.1-3.4-0.3-6.4,0.3-9.3c-1.3-0.7-1.1-1.8-0.4-3.1c-0.5-0.4-1.3-1.4-0.1-1.4c-0.6-1.8-0.4-1.6,1.4-1.3c1.9-1.1,1.2-4.5,3.2-1.9
		c4,0.9-0.6-2.2,4.5-1.9c5.5,1.2,10.7-0.2,14.2-5C638.7,195.8,643.1,193.9,641.1,191.2z M510.5,29.6c-0.1,0.2-0.3,0.3-0.5,0.5
		C510.1,30,510.3,29.8,510.5,29.6z M510,32c-0.5-0.3-0.2-0.7-0.2-1C509.9,31.3,509.6,31.7,510,32z M509.7,30.9
		c-0.1-0.2-0.1-0.2-0.2-0.2C509.6,30.6,509.6,30.7,509.7,30.9z M506.5,29.7c0,0-0.6,1.4-0.8,1.8C505.9,31,506.2,30.4,506.5,29.7z
		 M506.2,34.5c-0.6-0.1-1-0.6-1.4-0.6C505.3,33.9,505.6,34.4,506.2,34.5z M505.4,32.6c-0.2-0.3-0.3-0.6-0.5-1
		C505.1,31.9,505.3,32.2,505.4,32.6z M503.5,33c-0.1-0.2-0.2-0.4-0.3-0.5C503.3,32.7,503.4,32.9,503.5,33z M500.5,28
		c-0.1,0.3-0.2,0.5-0.4,0.7C500.2,28.5,500.3,28.3,500.5,28z M499.3,30.3c0.8,0.9,2.3,1,3,2.2C501.7,31.3,499.7,31.3,499.3,30.3z
		 M497.1,28.7c2.1-0.3,1.8,1.1,0.9,2.4C500.3,28.9,495.7,28.1,497.1,28.7z M495.7,32.4c-0.1-0.7,0.3,0.9,0.5,1.1
		C496,33.1,495.8,32.7,495.7,32.4z M493.2,26.8c0.2,0.2,0.2,0.3,0,0.5C493.4,27.1,493.3,27,493.2,26.8c0,0.1-0.2,0.1-0.1,0.2
		C493,26.9,493.1,26.8,493.2,26.8z M492.5,27.3c0.4,0.8,1.3,0.9,1.9,1.4C493.9,28.4,492.4,27.9,492.5,27.3z M494.2,34.4
		c-0.1,0-0.1,0.1-0.2,0.2C494.1,34.5,494.1,34.5,494.2,34.4z M493.8,35.8c0,0.1-0.1,0.1-0.2,0.1C493.7,35.9,493.7,35.8,493.8,35.8z
		 M493.4,35.9c-0.3,0-0.5,0-0.8,0C492.9,35.9,493.1,35.8,493.4,35.9z M490.5,34c-0.3,0-0.6,0.5-1,0.5C489.8,34.5,490.1,34,490.5,34z
		 M488,26.8c1.6,2.3,0.4-0.2-1.1,0H488z M486,32.1c-0.1,0.1-0.2,0.1-0.4,0.1C485.7,32.1,485.8,32.1,486,32.1z M428.8,34.3
		c0.3,0.1,0.6,0.2,0.8,0.4C429.3,34.5,429,34.4,428.8,34.3z M429,35.5c-0.1-0.1-0.2-0.1-0.2-0.2C428.9,35.4,428.9,35.4,429,35.5z
		 M423.3,35.2c0.1,0.1,0.1,0.1,0,0.2C423.3,35.3,423.3,35.2,423.3,35.2z M420,36c0,0.5,0,0.8-0.1,1.1C419.9,36.9,419.9,36.6,420,36z
		 M419.9,16.7c0.2,0,0.5,0,0.7,0C420.4,16.7,420.2,16.7,419.9,16.7z M419.2,37.8c-0.7,0-1.4,0.1-2-0.1
		C417.8,37.9,418.5,37.7,419.2,37.8z M415.4,15.3C419.2,15.2,419.2,15.4,415.4,15.3C415.4,15.4,415.4,15.4,415.4,15.3z M415.8,37.3
		c-0.1,0-0.1,0-0.1-0.1C415.7,37.2,415.8,37.2,415.8,37.3z M415.3,36.4c-0.1,0.3-0.2,0.6-0.3,0.9C415.1,36.9,415.2,36.7,415.3,36.4z
		 M415,16.2c-0.4,0.1-0.4-1.2-1.1-1.3C414.7,15,414.6,15.8,415,16.2z M408.5,33.5c-0.3,0-0.9,0.2-1.4-0.1
		C407.6,33.6,408.2,33.4,408.5,33.5z M407.7,34.4c0,0.1,0.6-0.6,0.6-0.4C407.5,34.8,405.9,34.3,407.7,34.4z M406.2,33.6
		c-0.1,0.4-0.1,0.9-0.2,1.4C406,34.4,406.1,34,406.2,33.6z M353.3,5.9c0.4,0.3,0.8,1.3,1.3,1.1C354.2,7.2,353.5,6.2,353.3,5.9z
		 M344.6,5.1c0,0.2,0,0.3,0.2,0.6C344.6,5.5,344.6,5.3,344.6,5.1z M323.7,2.4c0,0-0.1,0.1-0.2,0.2C323.6,2.5,323.6,2.4,323.7,2.4z
		 M299.3,6.2c0.6-0.4,1,1,1.6,0.2C300.2,7.3,299.9,5.8,299.3,6.2C298.7,6.9,298.7,6.6,299.3,6.2z M294.7,7c-0.2,0.1-0.3,0.2-0.5,0.2
		C294.4,7.1,294.5,7,294.7,7z M292.6,8.1c0,0.2-0.4-0.4-0.6-0.4C292.2,7.8,292.4,8,292.6,8.1z M289,7.1c0.8,0.6,2.1,0.1,2,1.5
		C290.9,7.3,289.7,8,289,7.1z M288.6,8.1c-0.6,0-1.2,0.2-1.8-0.4C287.4,8.3,288,8,288.6,8.1z M226.6,43.6c-0.6,0-0.5,0.5-0.3,0.9
		C225.9,44.1,226.1,43.5,226.6,43.6z M221.8,43.5c0.9-0.5,2.9,0,3.3,0.3C224.4,43.7,222.8,43.2,221.8,43.5z M220.2,43.8
		c0,0.1-0.1,0.2-0.1,0.2C220.1,43.9,220.2,43.9,220.2,43.8z M199.8,51.4c0.2,0.1-0.6,0.7-0.8,1C198.9,52.1,199.6,51.7,199.8,51.4z
		 M198.6,48.5c-0.5-0.2-0.9-0.1-1.4-0.1C197.7,48.4,198.1,48.2,198.6,48.5z M198.8,52.3c-0.2,0-0.3-0.1-0.5-0.1
		C198.5,52.2,198.6,52.3,198.8,52.3z M197.2,49c0-0.1,0-0.2,0-0.3C197.2,48.8,197.2,48.9,197.2,49z M197.2,47.6
		c-0.6-0.4-0.8,0-1.1,0.3C196.3,47.5,196.6,47.2,197.2,47.6z M195.2,47.1c0.1,0,0.2,0,0.3,0C195,47.2,194.4,48,195.2,47.1z
		 M144.7,49.8c-0.2,0-0.5,0-0.7-0.1C144.3,49.8,144.5,49.8,144.7,49.8z M144.1,49.7c-0.3,0-0.5-0.1-0.6-0.2
		C143.7,49.6,143.9,49.7,144.1,49.7z M53.3,59.2v0.1C52.9,58.9,53,58.8,53.3,59.2z M52.5,56.9c0.7,1.2-0.1-0.6-0.6,0.9
		C52.1,57.5,52.2,57.2,52.5,56.9z M52.8,58.4c0,0,0-0.1,0-0.1C52.8,58.3,52.8,58.4,52.8,58.4z M48.6,57.6c-0.1,0-0.1,0-0.2,0
		C48.4,57.6,48.5,57.6,48.6,57.6z M27.5,62c-0.2,0-0.5,0-0.7,0.1C27,62,27.2,62,27.5,62z M23.8,62c-0.1-0.1-0.2-0.2-0.2-0.2
		C23.7,61.9,23.7,61.9,23.8,62z M23.4,59.4c-0.3,0-0.5-0.1-0.7-0.1C22.9,59.3,23.1,59.3,23.4,59.4z M22.5,58.1
		c-0.2-0.2-0.5-0.4-0.7-0.7C22,57.6,22.3,57.8,22.5,58.1z M69.8,91.9c-0.2-0.5-0.9-0.1-1.1-0.6c0.8,0.5,2.3,1.3,1.8-0.5
		C70.8,91.4,70.3,92.5,69.8,91.9z M115.5,425c0.2,0.2,0.2,0.5,0.2,0.7C115.7,425.4,115.7,425.2,115.5,425z M161.3,425.8
		C161.3,425.8,161.3,425.8,161.3,425.8C161.3,425.8,161.3,425.8,161.3,425.8z M187.9,426.4c0.1-0.1,0.1-0.1,0.1-0.2
		C188.1,426.3,188,426.3,187.9,426.4z M192,294.5c0.7,0.7,1.3,1.2,1.9,1.9c-0.8-1.1-2.7-1.9-2.4-3.6
		C191.2,293.6,192,294.1,192,294.5z M240.1,307.2c0.9,6.8-0.3,14.5,0.9,22.2c-1.9-0.4-18.5,2-15.7-1c-0.7-3.1-0.9-9-0.1-13
		c-1.2-0.5,0.3-4.8-1-5.3c-0.5-1.2,1.1-1,0.9-1.9c-1.9-1.7,0.9-9.8-2.5-9.7c-2.7,0.9,1,3.5-0.7,5c-0.4,8.4,1,15.7-0.2,24.8
		c1,0.4-0.7,2-1.9,1.5c-0.4,1.4-1.4-0.2-2.1,0c-2.4,0.2-6.6,0.6-8.7-0.1c-3.9,3.2-1.8-13.1-2.5-14.7c0.2-2.7-0.2-5.3-0.6-8.5
		c0.8-2.6-0.2-4.5,0.1-7.6c6.9-0.7,18-1.4,26.1-1c3.4-0.1,9.9-2.1,7.5,4.1C241.1,303.5,240.2,305.4,240.1,307.2z M235.4,296
		c0.2,0,0.4-0.1,0.6-0.1C235.8,296,235.6,296.1,235.4,296z M232.9,295.6c0.4,0,0.7-0.1,1-0.1C233.6,295.5,233.2,295.6,232.9,295.6z
		 M229.6,295.5c0.5-0.2,0.7,0.3,1,0.5C230.3,295.9,230.1,295.4,229.6,295.5z M226.1,296.5c-0.2-0.1-0.5-0.2-1-0.5
		C226.1,296.9,227.1,295.6,226.1,296.5z M193,307.8c-0.2-4-1.6-11,5-9.3c1.6,1,5.3-0.8,5.8,0.9c0,1.8-1.5,4.2,0.2,5.4
		c0.1,1.5-1.1,4.4,0,5.8c-0.8,6.1,0.1,11.6,0,18.1c-0.2,3.2-7.6,0.6-10.5,1.2C192.7,322.5,193.3,313.8,193,307.8z M203.2,296.4
		c0.2,0.1,0.3,0.3,0.5,0.5C203.5,296.7,203.4,296.6,203.2,296.4z M194.4,418.5c0-0.5,0-1-0.4-1.3c0.5,0.8,1.1,2.1,0.8,3.1
		C194.8,419.8,194.9,418.8,194.4,418.5z M193.5,397.3c0-0.1,0-0.3,0-0.5C193.5,397,193.5,397.2,193.5,397.3z M194,384.9
		c-0.1,0.1-0.3,0.3-0.5,0.5C193.7,385.2,193.8,385,194,384.9z M193.5,396.3c-0.1-0.5,0-1.2,0.5-1.4
		C193.8,395.3,193.4,395.7,193.5,396.3z M194,397.9c0.1,0.1-0.2,8.2,0.1,8.2C193.6,406.1,193.9,397.6,194,397.9z M193.9,411.8
		c1.1-1.3-0.3-3.5,0.5-5.3c0.1,3-0.5,7.2-0.4,10.7C193.7,417.2,194,411.9,193.9,411.8z M193.1,369.3c0.6-0.7,1.2-1.3,1.7-1.8
		C194.3,368,193.8,368.6,193.1,369.3z M193.1,375.4c-0.2,0.2-0.3,0.4-0.5,0.5C192.7,375.7,192.9,375.6,193.1,375.4z M195.5,425.4
		c-1.1,0.8-1-0.7,0-0.8C195.5,424.6,195.5,425.4,195.5,425.4z M202,367.8c0.1-0.2,0.2-0.3,0.4-0.4
		C202.3,367.5,202.2,367.6,202,367.8z M201,365.9c-9.8,0-6.7,0.9-6.6-9c-0.9-7.7-0.6-14.7-0.8-21.9c-1-4.2,7.6-1.5,10.2-2.1
		c1.5,3,0.5,8.4,0.3,11.8c1.1,1.7,0.6,5.3,0.6,7.2c-0.4,1.8,1.2,4.3,0,5.8C204.3,360.8,206.9,367.4,201,365.9z M206.2,367.4
		c-0.1,0.1-0.3,0.3-0.5,0.5C205.9,367.3,207.2,367.3,206.2,367.4z M214.4,367.9c0.3-0.4,0.6-0.7,0.9-0.9
		C215,367.3,214.7,367.6,214.4,367.9z M217.1,365.9c-3.4-0.1-6.3-0.1-9.8-0.2c-0.2-4.8,0.3-9.5-0.5-14c1.5-3.8-1.1-7.9,0.6-12.4
		c-0.9-2.2-2.2-7.5,2.1-6.4c4.3-1.1,7.3,0.2,12.4-0.3c0.8,2.9,0.3,5.4,0.2,8.4c-0.5,1.2,0.9,6,0.4,8.1c-0.8,3.6,0.7,8,0,11.9
		C223.9,366.6,222,365.9,217.1,365.9z M221.6,367.9c0.1-0.2,0.3-0.4,0.5-0.5C221.9,367.5,221.8,367.7,221.6,367.9z M226.9,367.9
		c0.5-0.1,1.1-0.6,1.6-0.6C228,367.3,227.5,367.8,226.9,367.9z M230.8,367.8c0.1-0.2,0.2-0.3,0.4-0.4
		C231.1,367.5,231,367.6,230.8,367.8z M241.5,354c-1.3,15.8,4.7,10.5-14.3,11.9c-3.5-1.9-1.4-6.4-1.6-8.9c-0.9-1.2-0.3-3.3,0.4-4.7
		c-1.2-1.9-0.8-4.4-0.4-6.2c-1-4.6-0.6-8.5-0.4-13.2c4.7-0.5,9.8-0.5,15.1-0.5c2.2,1.1-0.6,5.9,0.7,7.8
		C240.9,345.1,240.6,349.2,241.5,354z M243.3,426c0.4,0,0.8-0.2,1.3,0C244.2,425.8,243.7,426,243.3,426z M316.4,382.1l0.1,0.1
		C316.5,382.2,316.5,382.2,316.4,382.1z M359.3,284c0.2,0.1,0.3,0.3,0.5,0.4C359.6,284.3,359.4,284.1,359.3,284z M366.1,286
		c0.1,0.1,0.2,0.1,0.3,0.2C366.3,286.2,366.2,286.1,366.1,286z M367.9,286.8c0.1,0.1,0.2,0.2,0.3,0.3C368,287,368,287,367.9,286.8z
		 M366.5,286.3c0.2,0.1,0.3,0.3,0.4,0.5C366.8,286.6,366.7,286.5,366.5,286.3z M368.4,427.2c0-0.1,0.3,0,0.4,0.1
		C368.7,427.3,368.5,427.2,368.4,427.2z M368.8,428.2c0.2-0.1,0.5-0.3,0.7-0.4C369.3,428,369,428.1,368.8,428.2z M369.3,287.7
		c0.1,0.1,0.2,0.2,0.3,0.3C369.4,287.9,369.3,287.8,369.3,287.7z M370.5,428.3c2.3-0.3-1.8-3,1.4-2.4
		C368.9,425.5,372.8,428,370.5,428.3z M373.1,301c-0.4,0,0-9.5-0.1-9.6C373.3,291.4,372.9,300.8,373.1,301z M370.8,288.6
		c0.8,0.7,1,1.8,2,2.5C371.8,290.5,371.6,289.4,370.8,288.6z M373,421.1c-1,0.5,0.3,3.7-0.9,4.2c0,0.9-0.2,0.5-0.1-0.1
		c1.1-2.1,0.8-7,0.9-9.6C373.2,415.6,372.9,421,373,421.1z M373.1,336c-0.1,24.7,0.8,55.5-0.4,79.4c1.4-36-0.6-77.5,0.7-114.1
		C373.2,309.5,372.8,327.6,373.1,336z M374.4,428.1c0.3-0.2,0.6-0.3,1-0.5C375.1,427.8,374.8,427.9,374.4,428.1z M384.9,424.8
		c1.1,3.3-5.9,2-7.4,1.3c-3.5,1.6-2.6-3-2.5-5.6c-1.4-1.4,1.1-4.3-0.5-5.7c-0.1-1,1.2-2.4,0.1-3.3c1.2-2.7,0.1-4.9,0-7.7
		c1.2-1.8,0.5-4.3,0.1-6.7c1.1-8.6-0.1-16.5,0.5-24.1c-0.2-6.4,0-11.7,0.2-17.9c0.7-2-1.4-4.7,0.6-7.1c-0.9-1-0.1-1.9-1.4-2.5
		c2.2-0.3-0.4-4.1,0.9-4.7c-0.8-12.7,0.7-24.9-0.6-37.3c1.2-4.1,0.7-11-0.6-15.1c-4.9-3.1-9.7-6-15.5-6.2
		c-4.8-1.3-10.4-1.6-15.4-0.6c-8.1-0.7-16.5,0.8-23.6,4.7c-1-0.5-6.4,2.9-5.9,4.7c1,0,1.3,3.7,0.9,4.1c0.2,6.4-0.2,11,0,16.7
		c-0.6,19.8-0.3,38.4-0.5,57.5c-0.1,13.6,0.1,29.9-0.4,43.2c0.6,4.9-0.7,8.9,0.1,13.1c-1.4-1.1-4.7,0.8-5.8-0.9
		c-0.1,2.3-3.3-1-2.2,1.5c1.4-0.3,0.8,0.2-0.1,0.1c-0.5-2.2,0.6-5,0.8-7.5c-1-8.1,0.2-16-0.7-23.8c-0.4-12.3,0.9-26.4-0.5-38.9
		c1.5-1.2,0.3-3.5,0.5-5.7c0.7-2.7-0.1-5.7-0.1-9.5c1.3-8.1-1.7-19.6,1.1-26c-2.5-4.3,0-10.4-1.1-14.9c0.6-5-1.1-12.9,0.5-17.5
		c-2.9-11.4,3-7.7,9.7-8.3c3.2-0.4,5.4,0.8,8.1-0.9c0.9,0.8,3.2,0.5,4.3,0.9c0.5-0.8,0.8,0,1.5,0c0.4-0.5,0.4-1.3,1-0.4
		c14.6-0.3,32.9-0.6,49.4-1.2c3,0.6,3-1.8,3.5,1.6c-0.5,3,1.2,12.4-0.4,15.2c1.2,13.6,0.5,28,0.7,40.9c0.2,19.1,0.7,37.8,0.3,53.9
		c0.4,4.1-0.1,7.5,0.4,12c-1,0.7,0.2,1.4,0,2.4c-0.6,0.4-0.5,1.3-0.5,1.9c-1.3,1.2,1.4,2.3,0,3.8c0.9,4.4,0,9,0.5,13.3
		c-1.2,1,0.4,2.4,0,3.8C384.1,422.5,384.6,424,384.9,424.8z M615.8,348.1c-0.6,4.5,0,7.3,0.6,12.1c-1.3,1.1-0.4,2.5-0.5,4.4
		c-0.2,0.8-0.9,2.5,0.4,2.8c-0.2,0.9-1.6,2.2-0.3,3c0.5,10.7,0.6,21.8,0.5,31c1,6.6,4.2,11.6-4.7,11.7c-3.7-0.1-6.4,0.6-9.6,0.5
		c-2.8-0.3-4.2,1-6.3,0.5c-8.1,1.5-15.2,1.9-23.8,2.3c-2.5,1.5-5.1-0.3-6.9,1.1c-2.8-0.5-4.4,1.4-6.3,0.1c-1.5,1.4-2.2,0.5-3.5,0.9
		c-0.8-0.6-1.9,1.3-3,0.1c-3.6,0.7-6.1,1.3-9.5,1c-8.2,1.1-13.9,2-23.3,2.3c-2.2,1.5-4.6,0.6-7.3,1c-3.2,0.5-7,0.6-10.7,0.6
		c-8,2.1-18.3,2.4-26.3,2.8c-5,1.7-1-3.5-2.2-7.1c-0.6-4.9,0.2-8.8-0.9-14.3c1.1-4.7-1.8-11.4,1-15.4c-1,1.5-2.4-10.5-0.6-9.9
		c0.8-1.9-2.1-4.9-0.1-5.6c0.4-1.3-1.2-2.4-0.8-3.9c1.4-0.8-0.3-2.2,0.4-2.9c-0.7-5.7-0.1-11.3-0.9-17.3c1.1-1-0.4-3,0-4.3
		c0.9-1.3-0.5-3.4,0.8-4.8c-0.9-4.1-1.4-7.9-1.4-12.6c1.2-0.8-0.4-1.7-0.1-2.7c0.7-0.5,0.6-1,0-1.5c0-2.2,1.5-3.4,0.1-4.7
		c1-4.4-0.4-10.3-0.4-15.3c1.4-2.5-1-6.4,0.5-9.1c-0.7-2.1,1.1-4.4-0.9-4.1c-0.2-1,1.1-2.2-0.1-3.2c1.2-3.2,0-7.2,0.1-11.4
		c-0.3-3.7,1-7.7-0.3-11.6c1-9.7-1.5-23.6,0.4-32.5c-1.2-1.3-0.7-2.3-0.4-4.2c-1.2-0.5-0.6-0.6,0-1.2c-0.8-0.5-0.5-4.7,0-5.2
		c-2.1-5.6,1.1-2.7-0.9-6.3c0.6-9.7,0.2-15.5,0-25.5c1-2.4-1-4.9-0.4-7c0.6-4.4,0.4-8.7-0.6-12.9c1.4-10.1-0.1-16.7-0.1-25.7
		c0.3-1.6,0.3-3.8-0.1-5.3c-0.2-1.5,1.2-3.3-0.4-3.7c-0.6-1.9,2-8.1,0-8.2c0-13.9-0.6-26.9-0.4-41.2c0.9-0.4,0.4-1.3-0.4-1.5
		c0.1-1.2,1-2-0.1-3c-0.1-0.2,0.3-2.7-0.4-2.7c1.6-2.3-1-4.7,0.9-6.8c-1.3-1.4-0.5-3.4-0.5-5.2c-1.4-2.6-0.1-4.2-0.6-7.3
		c-2.1-0.9,0.5-0.6,0.2-2.5c2.7,2.1,3.7,4.7,6.3,5.6c2,4.5,6.3,6.4,9.3,10.1c0-0.5-1.6-1.1-0.6,0.2c0.3,0.1,0.9-0.2,0.7,0.4
		c0.5-0.1,0.9,0.1,0.9,0.6c0.1,0.7,1.3,0,1.4,0.9c-1.6-0.6-0.2,0.2,0.5,1c-1.5-0.8,1.6,1,2.1,1.1c1.1,1.2-1.2-0.7-0.3,0.7
		c0.8-0.2,0.8,0.9,0.2,1.1c0.6,0.7,1.9,0.1,2.3,1.2c0.6-0.1,1.2,0.3,1.5,0.8c-1.5-1.4-0.8-0.4-1.4,0.6c1.4,0.8,2.8,0.9,3.8,2
		c-0.4-0.5-2.5-1.6-1.8,0.1c0.7,0.6,3.8,0.6,1.8,0.6c-0.5,1.2,1.1,0.7,1,1.4c0.7,1.7,2.8,3.1,4.2,2.2c1.2,1.2,1,1.5,0,0.1
		c-3.5-0.1-0.8,2.9,1.5,3c-0.8,1.5,1.6,3.7,0.5,1.4c3.4,1.8,4,4.4,6.9,5.4c-1.9-0.6-0.3,1.9,1.2,1.3c2.1,1.8-2.2-1.5-1,1.1
		c1-0.3,3.6,1.8,2.6,2.6c0.8,0.8,4.1,1.7,3,2.6c1.7,2.3,4.5,3.1,6,6.4c1.1,0.6,9.4,7,8.3,8.5c1.7,0.2,2.9,2.2,5.2,2.9
		c-0.2,1,0.9,4.6,1.7,3.7c3.3,2.2,7.1,5.8,8.8,9.4c2.6,1.8,5.6,3.5,6.4,6.4c2.6-0.2,2.3,2.8,3.6,3.3c1.7-0.9,1.6,2.2,3.6,2.9
		c-0.3,1.1,1.5,0,2,2.5c3.1,1.8,3.9,5,7.1,5.5c0.8,3.1,3.4,3,5.3,5.8c3.6,5.4,10.8,9.2,13.9,15.5c3,1,6.1,3.7,7.3,6.6
		c1.2,0.5,3.2,0.4,2.9,2.2c2.1,1.2,3.3,3.7,5.5,4.2c2.1,1.8,2.1,5.6,5.5,4.8c-0.5,4.4,5.8,4.9,5.9,8.3c0.8,1.3,3,2.1,1.5,3.9
		c0.3,1.6,0.2,2.5,0,4.2c0.8,2,0.7,5.5-0.6,6.7c2.3-0.2,0.5,5.3,1.8,2.7c-0.9,2.3-6,3.5-3.9,8.8c-0.5,2.3-1,4.5,0.4,6.7
		c-2.5,3.2,0,10.2-2,14.2c0.8,1.6,0.1,3.8,0.5,5.4c1.1,0.8,3.3,0.8,3.9,1.7c-1.3-0.4-3.8-2.1-4.7-1.2c-2.1-0.9-0.7-3.8-1.3-6
		c0.4-3-0.3-6.1,0.8-8.6c-1.1-1.3,0.5-3.9,0-5.6c0.1-1.6-0.8-3.5,0.6-4.3c0.8-2.2-1.9-3.4-0.1-5c0.5-15.6-6.6-21.5-10.4-3.7
		c1.2,2.9-0.2,5.9,0,9.3c0.1,3.9-0.8,8.9-1.2,12.5c0.5,3.8-6.7-1.2-4.4,6.8c0.1,9.5-0.3,22,0.1,30.6c0.4,3.6,5.6,4.5,7.6,6.8
		c2.3,1.9,1.6-1.6,4.2-0.8c2.6-1.7,8.1,4.7,8.9,1.6c1.7-0.3,0.7,4.8,0.5,5.8c1.2,0.3-0.1,1,0,1.5c1,0.1,0.3,0.6,0,1.5
		c0,2.6,0.4,5.2,0,7.6c-1.5,1.6-0.2,1.9,0.8,2.5c-0.7,1.8,0.4,3.7-1.1,5.1c0.5,4.1,1.2,9.2,0.4,12.2c0,1.6,1.3,4.8,0.1,6.2
		c-0.5,1.2,1.3,3,0,3.8c1.1,0.4,0.1,2.2,0.8,2.8c1.8-0.8,0.2,1.8,0,2.5C616.1,343.1,614,346.6,615.8,348.1z M483.4,73
		c0.1-0.1,0.1-0.1,0.2-0.2L483.4,73z M494.1,85.1c0.3,0.3,0.8,0.5,0.8,1C494.8,85.7,494.4,85.4,494.1,85.1z M494.9,85.6
		c0,0,0.8,0.1,0.9,0.4C495.7,85.6,495,85.9,494.9,85.6z M499.1,90.2c0.4,0,0.5,0.2,0.5,0.5C499.1,90.2,498.1,88.8,499.1,90.2z
		 M517,103c0,0.1,0,0.3,0,0.4C516.9,103.3,517,103.1,517,103z M566.6,157.7c0-0.1,0-0.2,0.1-0.2
		C566.6,157.5,566.6,157.6,566.6,157.7z M570.1,159.3c-0.3-0.1-0.6-0.2-0.8-0.3C569.6,159.1,569.8,159.2,570.1,159.3z M572.1,158.4
		c0.1,0.2,0,0.5,0.1,0.6C572.1,158.9,572.1,158.6,572.1,158.4z M573.2,160.8c0.4-0.8,1.1,0.5,1.4,0.1
		C574.3,161.6,573.9,160,573.2,160.8z M572.8,162.2c-0.1,0.1-0.2,0.2-0.3,0.3C572.6,162.3,572.7,162.3,572.8,162.2z M574.7,163.6
		c0.1,0.2,0.1,0.4,0.2,0.6C574.8,164,574.7,163.8,574.7,163.6z M613.4,266.2c-0.9,2.8,1.1,7,0.4,11.3c-0.8,1,0.5,3.7-0.9,4.3
		c1.4,2.5,0.2,3.6-0.4,3.1c-1.3-1.7-3.2-5.9-1.4-8.4c-0.5-5.3,1.1-13.8,0.4-18.4c1.8-1.6,2.4,3.3,2.9,4.3c-0.2,0.4-0.7,2.1-0.5,2.8
		C613.1,265.7,612.5,265.2,613.4,266.2z M603.9,281.7c-8.3,3.8-3.9-13.7-4.8-18.9c1.2-0.9,0-1-0.4-1.8c0.8-1.5,0.9-2,0-3.1
		c2.1-0.6,0.4-1.5,0.1-2.5c0.7-0.4,0.6-1.4,0.1-1.9c0.1-5.8,2.8-0.8,6.2,0.5c0.5,2-1,8.6,0.4,8.9
		C603.5,267.6,604.7,275.9,603.9,281.7z M594.2,273.1c1.2-3.9-1-36.4,3.3-20.7c-2,8.2,2.2,22.8-2.1,28.5
		C592.9,279.7,595.9,275.1,594.2,273.1z M596,282.5c9.8,0.9,7.6,7.1-0.8,0.5C595.4,283,595.7,282.8,596,282.5z M605.8,278.3
		c1.5-3.2-1.3-23.2,3.5-21.1C612.5,260.4,606.4,300.8,605.8,278.3z M606.9,257.1c0.3-0.4,0.7-0.2,1.1-0.2
		C607.6,257,607.2,256.8,606.9,257.1z M610,284.8c1.2,0,1.6,1.3,2.9,1.1C614.5,289.5,606.7,286.3,610,284.8z M614,252.9
		c0.1-0.2,0.8-0.4,0.8-0.2C614.6,252.8,614.2,252.7,614,252.9z M613.4,235.7c-0.1,0.1-0.2,0.3-0.3,0.4
		C613.2,235.9,613.4,235.7,613.4,235.7z M613.5,237.6c-0.1,0.3-0.3,0.4-0.4,0.6C613.1,237.9,613.4,237.8,613.5,237.6z M617.8,203.6
		c0.2,0.1,0.8,0.2,1,0.5C618.4,203.9,618.1,203.8,617.8,203.6z M639.1,192.8c-2,1-2.1,3.9-1.9,5.9c-3.3,1.8-6.1,4.7-9.8,2.6
		c-6.3-1.3-9.3,3.9-11.5,0.3c-9.9-10.6-20.1-19.8-29.4-29.5c-3.3-0.4-1.9-6.3-6.3-5.7c-0.6-2.2-0.5-2.6-2.7-2.7
		c0.6-2.2-1.4-2.6-2.8-2.9c-0.3-0.8-4.1-6-3.8-2.2c-0.2-2.8-2-4.8-4.6-6.2c-1-2.9-3.8-4.5-6-6.4c-0.1-1-0.9-0.8-1.6-0.8
		c0.3-1.1-0.8-0.9-1.3-1.4c0.1-1.7-1.9-3.9-3.6-3.9c-2.2-4.9-4.5-3.9-7.1-7.6c-0.9-2.3-5-2.9-3.7-4.8c-1.3-0.2-1.4,0.6-2.2-1.3
		c-3-4.4-7.2-6.7-10.8-10.7c0-1.4-2-1-1.5-2.5c-0.7-1.1-1.3,0.3-1.7-1.2c-3-0.4-3.8-5-6.5-5.6c-1.1-1.4-2.3-2.4-3.3-3.8
		c-0.4-0.1-0.9-0.7-1.4-0.5c0.1-1-0.9-2.1-1.9-2c-0.4-1.1,0.4-2.1-0.9-2.5c-1.7,1.7-1.7-2.5-2.8-1.1c-1.2-1.9-3.2-4.9-5.3-5.3
		c-1.2-1.4-2.8-3.8-4.4-4.6c0.2-0.8-1-1.1-1.4-1.2c-1-0.2-0.9-2.9-2.8-2.3c0.5-0.8-0.5-2.8-2-2.8c-1.9-1.7-3.6-5.4-6.1-4.7
		c1.1-2.9-0.8-0.9-2-2.5c-2-3-4.7-5.8-8.1-8.2c0.1-0.9,0-1.4-1-1.2c-1.3-0.3-1.5-3.1-2.5-2c-2.1-2.2-3.9-4.7-6.4-6.2
		c-1.8-3.3-7.2-4.7-2.5-0.1c-4,0.1-1.4,7.4-1.6,10.3c0,7.3-0.2,16.9,0.1,24.4c0,21.1,0.2,47.7,1.1,73.4c-0.6,9.8,0.6,19.5-0.2,28.7
		c1,2.5,0.6,3.9,0.1,7c1.4,1.3-1,5,0.9,5.2c-0.8,4.7,0,10.3,0,15.3c-0.1,1.6,0,6.3-0.3,7.9c1.6-2,0.3,1.2,0.4,2.2
		c0.4,0.3,0.5,0.9,0.4,1.4c-1.6,1.7,0.5,3.9-0.4,4.8c0.3,3.4-0.2,6.2,0.4,9.3c-0.2,4.6-0.2,11.6,0.5,15.1
		c-1.2,5.8,0.9,12.5-0.6,18.1c1.8,4.2-0.4,13.3,1,18.2c-0.3,30-0.1,55.3,0.7,79.5c-1.1,2.1,1.4,4.6,0.9,6.5
		c-1.5-0.4-1.7,1.7-0.4,0.7c0,1-0.5,3,0,3.5c-0.2,3.1-0.8,5.4,0.5,7.7c0.1,1.7-1.9,7.2,0.1,7.6c-0.9,1.1,0.3,2.8,0,4.3
		c-0.8,1.6-0.2,3.3,0.1,4.8c-0.5,3.2,0.1,11.4,1.4,13.9c0.2,1.7-0.9,0.9-1.4,1.8c1.3-0.2,1.6,0.3,0,0.1c-2.9-0.2-4.2,0.2-7-0.5
		c-5.1,1-12.5-0.6-18.4,0.4c-11.9-0.9-23.6,0-37-1c-1.7,1.5-5.2-0.5-7.1,0.4c-2.6-0.5-6.3,0.7-8.3-0.5c-4.2,0.5-3.9,1.3-3-3
		c-1.1-8.4-0.8-17.4,0.1-26.5c-1.1-4.4-0.8-9.2-0.6-13.2c-0.3-0.8-0.1-3,0.5-3.9c-1.4-1.7-0.7-3.5-0.5-5.2c-1-8.2,0.1-17.6,0.2-26.4
		c-1.2-5,0.7-10.7-1.1-15c0.9-1.6,1-2.6,0.5-4.2c0.7-0.5,0.7-1.4,0-2c-0.1-2.3,0.1-5.8,0.2-5.9c-0.4-8.5-0.6-16-0.4-26
		c-0.2-6-0.9-12.6-0.1-18.3c-0.6-0.4-0.6-1.9,0.1-2.3c0-1-0.6-1.5,0.2-2.3c-2-1.9-5.1-1.5-7.1-1.8c-4.2,0.8-10.2,0.3-15.4,1
		c-18.3-0.6-37.7,1.4-55.7,0.9c-6.8-0.3-5.8,4.5-5.6,9.8c-1.4,3.1,1.1,7.2-0.4,10c-0.2,2.7,1,6,0,8.1c0.8,41.7-0.1,84.1,0.5,124.9
		c0,2.7-17.4-0.4-22.4,0.8c-1.1-1.5-3.6,1-4.7-0.4c-1.3-0.4-2.9,1.2-3.9-0.1c-4.9,0.8-8.3,0.1-13.4,0.1c-2,0.7-5.3-0.1-7.5,0.5
		c-0.5-1-2.4,0-2.9-1c-0.8-0.3-0.5,0.9-1.2,1c-3.4-2.6-2.6-10.2-2.2-13.1c-0.6-9.8-0.6-20.2-1.2-29.3c0-24.6-1.2-52-1.5-78.1
		c0.1-12.1,1.2-18.3-12.4-21c-11.2-3.6-26-1.9-36.2,3.3c-8.5-0.1-1.5,30.2-3.6,36.5c0.7,2.4-0.1,5.5,0,8.3c1.6,3.9-0.4,8.9,1,12.9
		c-1.2,3.5,0.3,8.7-0.5,12.5c-0.3,1.2,1.4,4.4,0,5.8c1.6,14.5,0.6,27.3,0.9,41.1c1.8,28,2.4,17.6-22.5,19.3c-5.1,0-12.2-1-17.8,0.6
		c-3-1.2-5.9-0.9-9.1-0.6c-5.4-0.5-12.5-0.8-17.9,0.1c-3.6-0.8-10.8-1.1-13.6-0.5c-10.8,0.2-18.7-0.9-27.8-0.1
		c-3.7-1.5-8.7,2.2-7.1-4.1c-0.7-5.1,0.2-11.3-0.4-16.2c-0.5-29.1-0.7-57.1-1-86.6c-1.1-54.8-0.8-104.9-2.2-160.5
		c0.6-11-0.5-21.2-0.1-30.9c-1.5-1.7,1.5-5.3-0.8-6.6c0.1-3.1,1.9-7.1,0.4-9.9c-0.5-5.4,0.8-9.3,0.2-15c0.4,0.1,0.6-0.7,0-0.5
		c0.1-0.6-0.1-1.6-0.9-1.6c1.6-1.4,0.8-2.8-1.5-2.1c4.6-0.6-0.2-0.6,0-2.1c-1,0-0.3,1.9-0.5,2.5c0.2,0.6,0.9,1.2,1,0.3
		c0,0.7-0.9,1.6-1.9,1.5C50,83.9,31,74.4,13.9,67.2c-9.4-2.5,7.5-11.1,9.3-1.9c-0.6,4.1,4.3,2.4,3.4-1.1c2.3-2.2,3.5-5.1,7.4-4.3
		c8.4,1.4,3.2,2.8,7.3,5.8c0.6-1.6,1.4-2.7,1.2-4.4c-0.6-2.4,1.1-1.2,1.5-2.1c-0.6,1.2-1.9-0.4-1.5,2.2c1.8-0.5,1.6-2.6,3.3-2.5
		c-0.3-1.3,2.2-0.6,2.8-0.8c1.1-2.1,4.2-1.4,0.4-0.8c-0.3,1.2,1.6,1.5,2.6,2.1c1,1.1,1.4,2.9,2.6,4.1c2.3,0.3,4.2-4,0.9-3.3
		c-0.6,0.9-1.6,0.1-2.2-0.3c1.2,1.2,2.4,0,3.9,0.2c1-0.7,2-1.7,1.4-3.2c1.4,0.1,2.6-1.6,4.8-1.1c2.7-1.7,4.3,2.1,5.1,3.4
		c-0.2,4.9,2.2,3.2,3.2-0.2c1.6-4.4,5.6-4,9.1-2.9c1.3,1.7,2.5,6.1,4.5,3.4c2.2-1.3,1-7.8,7.8-5.3c6.3,11,3.4-4.2,11-2.4
		c2,0.9,1,5,4.8,4.7c0.1-2.4,4.6-8,5-6.9c4.5-0.6,3.8,6.1,7.2,6.2c0.9-0.2,1.7-2.2,0.4-2.2c0.6-1,1.4-1.1,1.6-2.3
		c8.3-4.7,6.6,10,13-1c2-1.4,5.7,0.5,6.5-1.5c-0.2,2.1,3.4,3.4,2.5,6.2c2.8,0.4,4.1-2,4.2-4.8c-1.3,0.9-3.2,0-4.1,1.9
		c0.6-1.4,1.9-1.7,3.2-1.5c3.3-4,8.3-1.8,8.9,3.1c3.5,2.1,5.8-6.5,10.4-5.8c0.1,1.8,2.2,0.7,3,1.9c0,1.9,1.2,3,2.2,4.2
		c1.5,0.4,1.9-1.4,1.8-2.7c2.5-3.6,6.6-4,8.4-0.7c2.2,8.4,2.8-4.4,10.1-3.5c1.6,0.9,3.4,2.3,5.3,2.8c-3.3,1.4,2.8,5.1,2.5,1.5
		c0.5-4.1,5.2-6.4,10.4-4.4c1.7,0.5,1.5,2.3,3.2,2.8c-0.1,1.5-0.1,2.5,1.7,2.1c1.1-3.7,2.4-5.7,5.9-7.9c-3.1,1.8,4-0.2,4.7,1
		c-3.1-0.9,1.6,1.5,1.9,3.5c-0.4,2.3,1,2.2,2.7,3c1-1.3,0.6-2.7,1.2-3.9c2.5-1.9,5-4.2,8.2-3.1c2.5-2.2,3.2,0.5,2.2-0.8
		c-3.6,0.2-1.1,2.5,1,2.9c-0.1,1.5,1.1,3.5,2.6,4.3c2.6-1,2.1-3.9,4.3-5.5c3.7-2.7,8.4-0.4,9.1,3.7c2.7,4.7,4.7-16.2,15.7,0.1
		c1.2-0.7,2.4-2.5,2-4.1c1-0.2,1.4-0.8,1.7-1.6c2,0.6,3.2-2.4,4.8-0.1c2.8-0.5,3,2.8,4.8,4.3c2.9,4.9,4.7-17.6,16.2-0.1
		c2.7-3.4,8.1-8.8,11.7-3.5c1.6-0.1,0.3,5,2.2,2.1c3.6-2.1,1.8-7.5,8.9-7c1.1,0,4,4.2,3.6,5.6c0.9,2.9,3.7,0.1,2.9-2
		c3.3-3.5,4.7-5.7,9.1-1.9c1.2,1.2,1.3,4,3.7,3.6c0.1-5.4,5.4-6.3,9.5-5.3c1.2,1.6,5.8,6.6,5.6,3c1.2-4,6.8-7.1,10.1-3.3
		c0.9,1.7,0.8,4.2,3.6,4c-0.7-5.6,5.5-6.7,9.2-6.5c0,1.7,2.3,1.6,2.7,3.3c1.2,1.2-0.1,1.8,1.9,2.3c2.6-0.8,0.3-3.4,2.6-4.9
		c1.3-0.3,1.4-2,2.8-1.7c0.8,1.1,4.3-0.6,4.1,1.8c1.9-0.2,1.4,3.3,3.2,3c1.5-1.4,0.4-5.4,2.6-5.7c-2.1,0.9-1,4.2-2.5,5.8
		c-2,0,1.2,1.8,1.3-0.4c1.2,0,0.3-1.7,0.2-2.2c0.7-0.4,1.7,0,1.4-1.4c1.1-0.4,1.8-1.4,3.2-0.8c0.4-0.7,0.7-1.8,1.6-1.2
		c-3-0.3,1.8,1.5,2.9,1.3c1.4,1.5,3.1,5.6,4.9,5.1c2.4-2,4.5-7.2,8.8-4.9c0.8-2.4,0.9,0.5,2.5,0c1.8,0.8,1.6,1.1,2.7,3
		c0.8,2.2,5.7-0.6,2.2-0.7c-1-2.6,4-8,6-4.6c2.7-2.7,6.9,2.8,6.9,5.5c4.6,0.2,2.3-1.7,4.2-3.2c0.2-2.5,4.4-2.8,6.6-2.8
		c3,1.1,3.4,2,6,3.5c-0.6,2.5,2.2,3,4.2,3.2c-0.2-4.2,3-6.9,6.1-6.2c1.2,1.2,2.7,1.8,3.2,2.7c1.5,2.8,3.6,6.8,4.2,1.2
		c0-0.9,0.9-3.4,1.8-2.4c-0.1-1.1,1.9-2.9,2.2-1.9c1.4,0.1,2.9,0.7,3.6,1.8c2.7,1,1.9,5.3,5.4,4.3c2-1.1,0.2-4.1,2.5-4.5
		c0.9-0.9,1.1-3,2.9-2.7c1,1.6,4.1,0.8,4.7,3.3c2.3-0.4,1,2.7,2.9,3.4c2.8-0.3,2.1-4.6,4.8-5.6c2.8-0.3,5,3.1,5.2,5.5
		c-0.8,1.9-2.5,2.7-2.8,4.8c3.8,4,6.2-10,12.6,0.3c2.1,6-2.2,7.8,0.9,11.4c0.3-1,2.8-0.9,1.4-2c0.6-0.7,1.9-0.6,2-1.8
		c2.3,0.9,5.2,2.7,5.1,5.6c1,1.5-3.6,6.9,1.5,5.4c1.1,0.8,2-1.1,2.7-1.9c2.3,0.3,5.8-0.6,5.9,2.9c2.8,2.9-1.1,6-1,7.9
		c0,5.7,9.6-8.1,8.3,8.3c-1.9,2.6,0,3.5,2.5,3.9c3.8-3,7.8,1.1,6.7,4.9c1.4,1.4-3.9,6.4-0.7,6.2c5.9-3.1,7.5-1,7.2,4.9
		c-0.1,1.9-2.8,2.8-0.8,5c2.9-0.4,7.4-6.2,9.3,0.2c1.6,2.7-0.3,5.7-2,7.7c1.3,5.4,4-1.7,6.5-0.2c5.6,4.2,0,8.5,2.1,13.1
		c3,0.2,2.3-3.8,4.7-4.7c3.4-4,8.4,3.5,6.9,6.5c0.1,1.9-2.4,3.1-1.9,5.3c2.4,1.2,5.3-4,6.8-1c2.5,0.3,2,4,1.8,6
		c-0.4,2.4-5,3.4-2.3,5.3c2.2-0.3,3.7-2,5.6-1.6c-0.7,1.5,1.8,0.4,2.2,1.3c1,2.1,3.3,5.7,0.1,7.3c-1.1,5.1,2.6,1.9,5.3,1.9
		c3.7,2.3,3.8,6,1.8,9.4c-1,1,0.4,3.3,1.9,2.6c1-3.1,3-2.5,4.5-0.1c0.7,2.5-1.5,4.6-0.4,6.8c-1.8,1.8,1.8,4,3.8,1.2
		c2,1.3,4.7,2.8,4.3,5.4c1.5,1.7-3.7,3.9-0.3,4.8c13.3-3.5-0.6,10.7,5.8,8.1C638.6,188.1,639.1,189.6,639.1,192.8z M51.8,57.9
		c-0.4,0.1-1,0.1-1.4-0.3C50.8,57.8,51.3,57.8,51.8,57.9z"/>
	<path class="st2" d="M364.3,428.5c0.5,0.4,1.7,0.5,1.9-0.2C366.1,428.4,364,428.1,364.3,428.5z"/>
	<path class="st2" d="M345.2,3.6c-0.5-0.6-0.5,0.4-0.5,0.7C345.3,4.4,345.2,4.1,345.2,3.6z"/>
	<path class="st2" d="M460,52.6c-1,1.1-1.2-0.2-2.4,0c-1.4,0.9-4.9,0.1-6.6,1.4c-2.4-1.5-4.9,0.6-7.7,0c-0.8,0.9-7.4-1.8-5.8,1.9
		c-0.2-2.5-2.6-0.6-3.9-1.9c-3.4,0.8-5.5,0.8-8.6,0.4c-16.4,2-31.7,1.5-47.3,2.9c-10.1,0.3-18.8,1-29.9,1.6
		c-1.7,0.4-4.7,0.1-5.7,0.5c-0.5,0.5-1,0.6-1.5-0.1c-1.4-0.3-2.5,0.7-3.8,0.5c-1.7-0.8-3.6,0.1-5.5,0.4c-1.5,1-2.1-1.3-2.4,0.4
		c-17.1-1.1-39.3,2.3-55.1,2.5c-32.3,2-62.2,3.5-94.2,4.9c-10.3,1.5-19.9,1-30.6,2.1c-0.4-1.7-2,1.5-3.2-0.1
		c-0.5,0.9-1.4-0.2-1.7-0.1c-0.9,0.4-1.3,1.7-2.1,0.5c-4.5,0.3-11.9-0.2-15.2,1.9c-4.6-2.4-15.7,0.7-22.1,0
		c-1.8,1.8-4.8-0.6-6.2,0.6c-4.6,0.2-7.1,1.1-10.4,0.5c-4.8,0.5-9,1.1-13.9,1c-2.3,0.6-4.4-0.9-5.5,2.2c2.5,0.7,0,5.4,1.5,6.7
		c0.4,2-0.8,4,1.8,3.9c0,0.1,0.2-4.1,0-5c0.9-1.2-0.4-5.3,2.6-4c3.3,0.2,5.7-1.2,8.8-0.9c0.6,0,2.4,0.7,3.2,0
		c13.4-0.9,27.2-1.2,40-2.4c19.8-0.6,39.6-2,60.9-3.2c0.8,1.1,1.8-0.3,1.6-0.9c0.3,0.9,1.9,1.2,2.5,0.4c4.1,0.3,8.1,0,12.4-1.1
		c4.3,1.1,8.8,0.2,12.2-0.7c4.1-0.4,8.1,1.2,12.4-0.6c1.1,1.1,3.2-0.1,4.4,0c0.7,1,1.5-0.1,2.3,0c1.6,1,4.3-1.2,5.9,0
		c6.4-1.2,14.3-0.5,20-1.4c13.3-0.7,25-0.7,36.1-2c11.2,0,22.3-1.1,34.3-2c14.3-0.2,30.2-1.5,43.2-2.4c12.8,0,21.1-1.3,31.8-1.8
		c8.1-1.2,19-1.2,28-2.4c2.4-0.5,6.2,1.1,8-0.8c0.8,0.9,5.5,0.9,6.4,0C452.9,56.5,468.6,55.8,460,52.6z M122.1,74.6
		c0.3-0.4,0.8-0.7,1.4-1.3C122.9,73.9,122.5,74.2,122.1,74.6z M129.3,73.4c-0.2,0,0.4-0.5,0.5-0.5C129.6,73.1,129.5,73.2,129.3,73.4
		z M135.1,72.9c0.1-0.2,0.3-0.4,0.4-0.5C135.4,72.6,135.2,72.7,135.1,72.9z M183.8,69.8c0.3,1.6-0.6-0.4,0.3-0.3
		C184,69.5,183.9,69.7,183.8,69.8z M189.6,69.1c0,1.4-0.4-0.3,0.7-0.2C190,69,189.8,69.1,189.6,69.1z M446.5,55.7
		c0.1-0.1,0.3-0.1,0.4-0.2C446.8,55.6,446.7,55.7,446.5,55.7z"/>
	<path class="st2" d="M463,55.6c-0.5-0.1-0.2,0.6-0.3,0.9C463.2,56.6,463.4,55.8,463,55.6z"/>
	<path class="st2" d="M380.4,170.3c-5.8-2.3-4.2-17.9-3.5-22.2c-1.8-2.7-0.2-3.7-0.5-6.1c-0.9-1.2-0.3-4,0-5.4
		c1.1-1.4-1.4-3.1,0.1-4.3c-1.4-1.7,0.5-4.9-0.5-6.3c0.2-7.9-0.5-16.9-0.3-23.8c-0.4-4.9-10.1-7.9-14.5-9.4c-18.2-5.8-42-4-56.8,7.8
		c-3.9,0.9-1.6,19.8-1.3,23.6c-0.5,13,1.8,25.9,0.4,37.9c3.6,8.7-5.2,9.1-5.6,15.3c4,6.8,4.5,1.6,3.9,13.3
		c1.2,7.9-0.3,14.2,1.3,22.1c-0.6,6,0.2,14.4,1,20.9c-1.8,6.8,13.9,1.4,18,2.2c12.8-0.1,27.4-1,43.1-1.9c3,0.4,6.9-0.3,10.4-0.5
		c5.7,0.9,3.9-2.3,2.8-5.6c1.4-3.4-1-6.9,0.5-10.1c-0.5-0.6,0-2.1-1-2.8c-0.3-1,0.8-1.5,0.4-2.5c-2-2.3,2-8.1-1.4-9.5
		c1.8-2,0-5.7,0.4-8.7c0.8-5.4-0.4-9.7-0.5-14.9C378.4,176.4,383.9,176,380.4,170.3z M314.6,234.1c-3.1-1.8-9,3.1-8-3.7
		c-1.5-1.2,0.5-4.8-0.6-5.9c-0.2-1.8-0.7-3,0-4.7c-1.1-1.6-0.1-3.5,0-5.2c-1.4-0.8,1-2-0.4-2.9c-0.1-5.3-1.6-10.8-0.7-16.3
		c-1.6-2.1-0.3-1.8,0-4.2c-1.7-3.9,0.1-8.3-1.5-11.9c2.5-1.3,4.8-0.2,7.1-0.7c2.4-0.4,0,1.1,1.8,1.5c-1.5,4.9,1.4,11.9,0.1,16.8
		c-0.8,2.8,1.9,5.8-0.1,7.4c2.2,3.5-0.3,8.5,1.4,12.6C313.7,222.9,314.4,230.3,314.6,234.1z M326.9,231.5c0.1,3.2-4.3,0.7-6,2.5
		c-0.6-0.9-2.5,0.1-3-1.1c0.4-2.2-0.9-5,0-6.8c-0.5-0.9-0.5-2.4-0.8-3.4c1.1-0.4,1.2-0.9-0.1-1.4c0.9-3.4-1.3-9.5,0.1-12.8
		c-1-1.3-0.6-3.5-0.6-4.8c-1.5-1.2,0.6-2.2-0.5-3.6c0.5-1.9-0.8-5.7-0.6-7c0-1.5,0.9-2.2-0.1-3.6c1-1.9-1.6-7,0.4-8.4
		c-1-0.4-0.8-2.3-0.8-3.1c0.8-0.1,1.4,0.7,2.1-0.1c2.5,0.4,4.8,0.5,7.3,0.1c-0.7,4.9,0.7,8.8,0.3,13.7
		C326.3,203.9,324.7,219.4,326.9,231.5z M321.4,123.2c4,0,11.7,0.2,16.2-1.2c2.3,8.4,1.1,20.1,1.6,29.3c-2.5,0.5-3.5,0.2-6,0.1
		c-0.6,0.8-5.8,0.7-5.8-0.2c-1.9,1.2-10,1.3-7.9-1.4C320.2,144.9,316.4,121.4,321.4,123.2z M322.5,113.1c0.1,0,0.2-0.1,0.3-0.1
		C322.7,113.1,322.6,113.1,322.5,113.1z M337.6,109.3c0.3,0.2,0.5,0.4,0.7,0.5C338.1,109.7,337.9,109.6,337.6,109.3z M359.7,146.3
		c1.6,6.2-4.7,4.8-8.8,4.6c-1.1,0.9-5.8,0.3-7.7,0.5c-0.7-1.1-0.2-3-1.1-4c-1.1-7.6,0-12.9-0.3-21.1c-0.5-2.9-1.1-4.5,2.8-3.7
		c2.8-0.9,6.4-0.3,9.3-0.8c2.6,0.3,7.2-1.3,5.5,3c0.7,1.6-0.1,4.4,0,6.8c1,2.6,0.8,6.2-0.1,8.9C361.3,143.4,358.7,144,359.7,146.3z
		 M356.3,119.9c0,0.1-0.1,0.2-0.2,0.2C356.2,120,356.2,120,356.3,119.9z M360,118.2c0,0.1,0,0.3,0,0.4
		C360,118.5,360,118.3,360,118.2z M360,119c0,0.3,0,0.6-0.2,0.8C359.9,119.5,360,119.2,360,119z M348.8,109.5
		c0.1,0.1,0.1,0.2,0.2,0.2C348.9,109.7,348.8,109.5,348.8,109.5z M345.6,109.1c0.1,0.1,0.2,0.2,0.2,0.2
		C345.7,109.3,345.7,109.2,345.6,109.1z M342.4,108.8c-0.2-0.2-0.4-0.3-0.5-0.5C342.1,108.4,342.2,108.6,342.4,108.8z M339.9,157.9
		c-0.7,1.2-0.6,4.4,0.6,4.7c-0.7,1.6-0.2,2.7-0.5,4.6c-0.1,1.9,2.2,7.7-2.9,7.9c-6-0.5-11.8,1.4-16.9-0.4c1-2.4,0.4-3.9,0.3-6.7
		c0.1-1.5-1.3-3.5-0.2-3.5c0.6-2.9-2.5-13.4,4.4-9.1c0.1-1.5,6.3-0.6,7.2-0.2C334.9,154.3,341.7,153.7,339.9,157.9z M340.3,108.8
		c0.1,0,0.1,0,0.2,0C340.4,108.8,340.3,108.8,340.3,108.8z M338.9,109c0.2-0.2,0.4-0.2,0.6-0.2C339.3,108.8,339.1,108.9,338.9,109z
		 M318.9,115.6c0.4-0.1,0.8-0.3,1-0.5C319.7,115.3,319.4,115.5,318.9,115.6z M337.2,233c-2.1-0.1-3.9-0.3-6.2-0.4
		c-3.2,1.6-2-1.7-2.2-3.1c0.1-9.7-0.9-17.4-0.9-26.4c-0.8-7.4-0.5-16.9-1.6-24.5c3.3-1.1,9.9-2.8,9.7,2.1
		C335.9,196.1,337.5,217.5,337.2,233z M350.4,228.4c1.3,5.8-6.4,3.7-9.2,3.4c-2.8,2-0.5-8.5-1.4-8.7c0.2-1-1.2-2.2-0.2-3.1
		c0.8-2-1.1-4.2-0.4-5.4c-0.6-3.1,1.1-5.2,0-7.6c-0.5-8,0.4-15.6-0.9-23.1c0.9-7.9-3.3-6.7,9.2-6.6c2.5-0.7,0.6,6.7,1.2,8.8
		c-1,2.7,1.1,6.6,0.1,9.7C350.4,205.2,349.2,217.3,350.4,228.4z M343.2,174.5C342.5,175.3,342,174.3,343.2,174.5
		c0-0.6-0.9-0.5-0.2-1.1c-0.6-1.7-1.1-4-0.4-5.4c-0.7-3.3,0-6.8-0.5-9.7c-1.4-6.5,4.9-4,8.9-4.5c2.9,1.8,2.3-1.6,8.3,0
		c0.2,3.2,1.2,7.1,0.5,9.9C362.1,178.2,353.6,173.5,343.2,174.5z M360,174.3c-0.3,0.3-0.4,0.1-0.5-0.2
		C359.8,174.1,359.8,174.2,360,174.3z M363.4,229c0.1,1.1,0.2,4.5-1.8,2.7c-2.4-0.2-6.2,0.6-8.6,0.4c-0.2-10.6-1.3-20.3-0.7-30.4
		c-0.6-5.1-0.9-9.6-0.5-14.4c-0.8,0.5-1.1-10.3,0.2-10.2c4.2,0.6,12.3-3,9.8,3.1C362.8,195.6,362.3,214.2,363.4,229z M376.8,229
		c-0.6,3.1-6.3,2.1-8.9,2.2c-1.7,1.3-2.1-2.1-2.2-3.2c1.3-7.3-1-15.2-0.1-22.2c-0.4-7-0.7-13.6-0.8-19.4c0.8-10.5-4.1-9.5,6.4-10.4
		c4.9-0.6,3.6,7.4,3.7,12.3c0.2,1.2,0.3,4.1,0,5.3c-0.1,1.1,1.3,2.9,0,3.8c0.7,1.9,0.7,5.5,0.9,7.6c-0.6,1.4-0.5,5.3,0.5,6.7
		c-0.7,2-0.8,3.1,0,5c0.2,1.1-1.3,2.4,0,3.3C376.1,222.7,375.7,226.1,376.8,229z M378.5,174.5c-21.8-0.4-14.6,5.3-16.3-18.5
		c-0.1-13-0.3-21.1-0.6-33.5c3.4-15.7-20.9-15.2-29.2-13.6c-3.7,0.7-17.3,4.2-15.7,10.3c-1.3,17.7,1.4,35.9,0.8,52.1
		c0.1,5,1.9,5.4-3.4,5.4c-5.1,0-7.7-0.1-12.6,0.4c-0.2-3.6,4.3-3.6,4.6-7.4c1.1-2.2,0.9-4.3,0.5-6.6c0.5-2.2-0.1-7,0-8.5
		c-1-12.2-0.1-26.5-1.3-39c0.5-1.2-0.6-3.4,0.3-4.7c-0.6-2.8-2.1-5.9,1.4-7.9c1.8-0.7,3.2-1.1,4.3-2.9c2.4-0.4,4.3-2.7,6.7-2.9
		c1.2-0.4,4.8-1.1,6.9-2.4c1-0.1,3.9,1,4.3-0.9c2.2,1.1,5.3-0.6,7.7-0.5c1,1.5,2.9-0.9,3.9,0.5c2.9-1.4,9.5,1.1,11.5,0.5
		c4.5,0.8,8.2,3,12.7,3.3c4.9,4.8,9.1,1.8,7.7,11c0.4,7.9,0.3,16.5,0.6,25.3c-0.3,8.3,0,18.2,0.5,25.7c-0.6,1.7,0.6,5.1-1,6.8
		C373.3,170,377.9,170.9,378.5,174.5z"/>
	<path class="st2" d="M174,169C174,169.1,174,169.1,174,169C174,169,174,169,174,169z"/>
	<path class="st2" d="M247.6,177.5c-6.1-2.3-4.2-9.9-4.1-15.1c-1.6-1.7,1-4.1-0.8-5.9c1.3-0.7,0.6-2.3-0.1-3.2c0-1.9,1-1.8,0.5-3.8
		c-0.8-8.4,0-17.7-0.7-26.7c-1.1-7,2.7-14.7-5.3-18.6c-14.7-7.2-33.5-9.3-48.5-4.3c-7.9,1.5-21.2,6.6-20.4,14.5
		c0.6,15.4,1.5,31.7,1.3,46.3c1.5,3.8-1,9,0.9,12.4c-0.3,5.2-3.2,6.8-5.7,9.6c-1.6,2.2-1.1,5.1,1.8,5.9c3.9,2.4,0.4,13,2,17.6
		c0.5,8.2,0.2,19.4,1.4,28.4c-1.3,11.1,4,9.6,11.4,9.5c1.5-1.4,3.8,0.5,5.4-0.9c2.4-0.4,5.2,1.1,6.2-0.5c2.6,1.3,5.3,0,7.7-0.1
		c3,0.5,4.3-0.4,7.6-0.4c7.7,0.2,15.7-0.7,24.1-1.2c3.3,0.3,7.1-0.4,10.9-0.6c4.6,1.2,4.5-2.2,2.7-5.5c1.1-3.5-0.4-6.2,0-9.7
		c0.8-1.3-0.5-2.6-0.5-4.2c1.1-0.8,0-1.8-0.4-2.5c1.8-4.9,0.1-7.7,0-11.5c0.5-6.7-0.6-13.8-0.6-20.8
		C245.9,183.8,251,183,247.6,177.5z M182,241.4c-1.3-0.9-4.4-0.1-5.7,0.6c-4.8-0.5-2-8.3-2.9-11.2c-1.2-0.8,0-2.2-0.1-3.3
		c-1-2-0.2-4.7,0-6.9c-1-4.1-0.8-6.9-1-11.3c-0.8-1.3-0.4-4.2,0-5.4c0.7-1.7-2.1-3.4-0.7-3.6c1.7-2-1.1-6.4,0.2-8.3
		c-1.2-1.4,0.5-4.2-1.1-5.8c3.3-0.5,10.4-1.5,8.9,2.2c-0.3,3.5,0.7,9,1,12.9c-0.3,2.1-1.1,6.6,0.6,8.1c0.3,1.5-1.8,1.8,0,3
		C180.2,221.1,183.4,232.8,182,241.4z M193.7,239.8c-4.2,1-10.2,3.4-8.8-3.9c-1.1-1.7,0.2-4.1-0.9-6c1.9-0.6-0.9-1.8-0.2-3.6
		c-0.5-12.6-1.2-27.3-2-38.8c-0.6-4.2,6.7-0.5,9.3-2.1c-0.6,3.1,0.8,6.4-0.3,9.4C193,207.9,191.3,226.7,193.7,239.8z M227.4,170.6
		c-1.2,0.8,0,9.7-1,10.5c-4.5-0.2-16,1.8-16.6-0.1c0.4-1.9-0.8-4.4,0-6.6c-0.1-1.1-1-4.4-0.1-5.8c-0.1-1.8-1.9-8.2,2.1-7.5
		c3-0.1,5.6,0.2,8.6,0.5c1.4-0.8,2.4-2.1,3.5-0.4C228.9,160.3,225.8,167.9,227.4,170.6z M227,181.5c-0.3,0.2-0.4,0.1-0.4-0.1
		C226.8,181.3,226.9,181.4,227,181.5z M209.2,153.1c-1.7-6,0-10.5-0.5-17.1c-0.5-9-2.3-5.2,5.8-6.5c1.4-0.1,13.4-2.3,11.5,1.2
		c0.7,9.2,0.5,17.4,0.5,25.2c0.2,4.2-6.8,1.4-10,2.4C211.4,158.5,208.5,159.8,209.2,153.1z M223.2,127.3c0-0.1,0.1-0.1,0.1-0.2
		C223.3,127.2,223.3,127.3,223.2,127.3z M227,127c0-0.6,0-1.1,0-1.6C227,125.9,227.1,126.4,227,127z M226.3,121.3
		c0.3,0.5,0.5,1.1,0.9,1.7C226.8,122.4,226.6,121.8,226.3,121.3z M224.6,120.2c0.3,0.2,0.5,0.5,0.8,0.7
		C225.2,120.6,224.9,120.4,224.6,120.2z M219.2,117.4c1.8,0.9,3.4,1.6,5,2.5C222.6,119.1,221,118.3,219.2,117.4z M212.6,116.3
		c0.1,0.1,0.2,0.2,0.2,0.2C212.7,116.5,212.7,116.4,212.6,116.3z M208.9,115.5c0.2,0.1,0.3,0.3,0.5,0.5
		C209.2,115.8,209.1,115.7,208.9,115.5z M186.7,179.5c2.3-2.2-0.9-7,0.5-9.1c-0.5-2.9-1.9-11.9,4.1-7.9c1.8-1.5,5.3-0.8,7.1-0.5
		c1.6-0.6,8.4-1.5,8.7,1.2c-2.1,0.6,0,3.8-0.9,5.4c1.3,1.2,0.4,3.4,0.5,5.5c2.1,5.9-0.1,9.2-7.7,8.1c-0.5,0.9-3.1-0.3-4.3,0.1
		c-1.6,1.3-3.1,0-4.8-0.1C186.2,184.5,188.7,180,186.7,179.5z M205.9,116.2c0.1-0.1,0.6-0.2,1.6-0.2
		C206.6,116,206.1,116.1,205.9,116.2z M206.2,145.5c-0.8,4.6,2.9,15.6-4,13.2c-5,0.7-9.7-0.3-14.9,0.9c-1.9-8.6-0.9-17.1-1.1-25.7
		c-2.7-6.5,10-2.2,14.2-3.9C209.6,125.8,203.7,141.1,206.2,145.5z M205.1,116.8c0.1,0.1,0.2,0.1,0.3,0.1
		C205.3,116.9,205.2,116.9,205.1,116.8z M198.4,117c-0.1-0.1,0.7-0.9,1-1C199.1,116.3,198.7,116.6,198.4,117z M192.5,118.9
		c-0.1,0-0.2,0-0.3,0C196.1,117.1,196.6,116.8,192.5,118.9z M188,121c-0.2,0.2-0.4,0.4-0.6,0.6C190.9,118.9,193.4,118.9,188,121z
		 M204.9,228.8c-1.6,2.6,2.3,11-1.6,11.5c-10.3-0.5-7.1,1-7.5-9.3c-0.7-8.9-0.5-18.1-1.4-27.3c1.9-5.4-4.5-19.9,2.9-18.6
		c9.1-3,4.7,6,6.6,10.4C203.9,205.2,203.6,219.9,204.9,228.8z M217.3,238.4c-0.8,1.4-6.4,1.4-7.9,0.8c-4.3,1.9-2.3-4.1-2.7-6.9
		c-0.6-0.6-0.7-0.7,0.2-0.9c0.4-0.5-0.4-2-0.8-2.5c0-1.3,0.8-3.4,0.5-4.8c-1.8-2.9,0.3-5.4-0.2-8.3c-0.4-7-0.8-15.9-0.7-23
		c0.5-4.1-3-9.4,3.6-8.2c1-1.1,1.8,0.1,2.9,0c1.2-0.6,2.5-0.2,3.6,0.3c-0.6,4.4,0.9,9.7-0.6,13.7
		C217.8,211.3,215.4,224.8,217.3,238.4z M230.4,236.2c1.4,5-7.2,2.1-10.4,3.1c-0.4-10.3-0.4-19.9-1.2-29.9
		c0.6-8.8-1.7-16.3-0.1-24.9c5.8,0.5,12.1-3.2,10.1,4.5C229.6,204.2,229.7,221.3,230.4,236.2z M243.4,236.8
		c-0.6,2.4-12.7,3.1-10.3-1.8c0.1-6.6,0.4-12.8-0.8-19.2c1-7.2-1.1-15.8-0.5-22.2c-0.1-3.1,0.3-6.6-0.6-8.9c0.7-1.1,3.7-2.3,4.3-0.3
		c10-6.2,5,12.5,6.8,17.5C242.6,215.2,242.8,224.2,243.4,236.8z M245.5,181c-4.5-0.6-10.6,0.4-15.1,0.5c-1.3-1.6-0.6-4.3-1.2-5.9
		c1-9.6-0.9-22.9,0-32.4c-1-4.3-0.1-10.2-0.6-15.1c1.9-6.7-4.5-11.6-11.1-12.3c-7.1-3.1-32.5-1.1-34.1,9.9
		c0.2,16.7,0.2,33.1,1.5,47.6c-0.8,14.7,3.1,7.8-14.8,9.9c-5.8,1.7,3.7-4.1,4.1-8.5c-1.5-10.5-0.1-20.9-1.3-31.9
		c0.9-8-1-16,0.1-23.5c-1.2-0.9,0.5-2.2,0-3.5c-2.5-2.2,0.1-5.8,2.8-7.3c2.8-0.5,4.9-3.7,8.1-4.3c2.7-0.8,6-2.5,9.4-2.3
		c5.7-1.4,12.8-2.6,19.1-1.3c7.9,0.3,24.4,3.1,27.3,10.1c0.4,13.5,0.4,33.9,0.7,48c0.8,1.5-0.2,3.7-0.1,5.8c0.7,2,0.9,6.2-0.5,8.6
		C240.4,176.7,244.9,177.4,245.5,181z"/>
	<path class="st2" d="M533.7,348.7c1.2-3.4-0.4-6.7-0.7-9.6c-0.6,2.1,1.4,1.4,0.8-0.5c0-0.4-1-2-0.1-2.1c-0.4-2,0.9-10.6-0.5-9.4
		c-0.1,2-0.6-0.6,0.4-0.6c0.1-1.2-0.3-2.7,0.5-3.4c0.4-2-0.4-2-0.5-4.4c-0.1-1.8,0.6-3.4-0.5-5c-0.7-3.1,1.7-2.3,1-3.3
		c-0.6-2.3-1.1,0.8-2,0c2-0.7,2.4-5.4,0.9-6c1.9-5.2-0.7-11-1.4-16.4c-7.5-7-9.3,4.9-10.5,10.8c2.2,1.8,1.3,7.5,1.5,11.3
		c-0.7,2.4,0.9,7.2,0,9.5c-0.1,23.6,0.4,47.4,0.9,70.7c-0.9,1.6-0.5,4.7,0,6c-0.2,0.8-1.2,2.7,0,3.3c-0.3,2.7-1.1,7.5,0.3,10.5
		c2.5,0.3,6-0.7,8.9-1.1c-0.2-1.1,0.4-1.3,1-2c-0.2-1,0.2-0.9,0.5-1.4c-0.7-6.4,0.2-11.8-0.5-17.9c0.7-1.8,0.1-3.3,0-5.2
		c0.8-0.1,0.8-5.6,0.1-5.8c0.4-2.4-0.5-4.6,0.4-7.1c-1.3-0.7,1.7-7.2-1-4.7c0.7-2,1.3-3.2,0.5-5.5c-0.2-1.6,0.8-3.8,0-4.3
		c0.7-3-0.8-6.7-1-10.5C533,345.1,532.7,348.3,533.7,348.7z M533.3,303.4c-0.1,0-0.1,0.1-0.2,0.1
		C533.2,303.5,533.2,303.4,533.3,303.4z M533,303.8c0-0.1,0-0.1,0-0.1C533,303.7,533,303.7,533,303.8z M532.9,304.4
		c-0.6,1-1.3,2.5-0.1,3.3C531.6,306.9,532.2,305.4,532.9,304.4z M523.8,402.4c0.1,0,0.1,0,0.2,0
		C523.9,402.5,523.8,402.5,523.8,402.4z M524.4,400c0.1,0,0.1,0.2,0.2,0.3C524.5,400.2,524.4,400,524.4,400z M524.2,395.9
		c0.3,0.3,0.5,0.5,0.8,0.8C524.7,396.5,524.4,396.2,524.2,395.9z M525.2,396.6c0.2-0.1,0.2-0.1,0.4-0.2
		C525.5,396.5,525.4,396.5,525.2,396.6z M526.3,409.2c0.1-0.1,0.1-0.1,0.2-0.1C526.4,409.1,526.3,409.2,526.3,409.2z M527.4,409.2
		c0.1-0.4,0.1-0.6,0.2-0.8C527.6,408.6,527.5,408.9,527.4,409.2z M531.8,328.3c0.1-0.2,0.3-0.2,0.5-0.2
		C532.1,328.1,532,328.2,531.8,328.3z M532.3,402.1c0.3-0.2,0.4-0.1,0.4,0C532.6,402,532.5,402,532.3,402.1z M531.7,355.4
		c0,0.1,0.1,0.1,0.2,0.2C531.8,355.5,531.8,355.5,531.7,355.4z M531.9,321.1c-0.1-0.2-0.2-0.3-0.2-0.4
		C531.8,320.8,531.8,320.9,531.9,321.1z M533.2,331.8c0-0.1,0-0.2,0.1-0.3c-0.1,0.5-0.3,0.9-0.6,1.2
		C532.8,332.4,533.2,332.2,533.2,331.8z M533.1,324.9c0-0.1,0-0.2,0.1-0.3C533.2,324.7,533.1,324.8,533.1,324.9z M531.5,353.1
		c-0.1,0.2-0.2,0.4-0.4,0.6C531.2,353.5,531.4,353.3,531.5,353.1z M533.6,400.1C533.6,400.1,533.7,400.1,533.6,400.1
		C533,400.7,532.7,400.8,533.6,400.1z M532.9,366.5v-0.1C533.1,366.4,533.1,366.4,532.9,366.5z M533.3,355.4c0,0.3,0.1,0.6-0.1,0.9
		C533.4,356,533.2,355.7,533.3,355.4z M532.6,357.9c-0.5-0.3-0.2-0.8-0.2-1.3C532.5,357.1,532.1,357.5,532.6,357.9z M531.8,352.3
		c0.3-0.2,0.5-0.5,0.8-0.8C532.3,351.8,532.1,352.1,531.8,352.3z"/>
	<path class="st2" d="M560.1,393.6c-0.5-2.7-0.3-4.7-0.1-7.3c-0.4-2-0.8-5.3,0.1-7.5c-0.2-0.7-0.6-3.3,0-4c-0.1-0.9-0.8-4.6-0.9-2
		c-0.5-1.1,0.9-2.4-0.2-3.6c1.7,3.2,0.7-6.8,0.3-7.3c1.2-1.2,0.1-4.5,0.5-6.3c1.2-0.4-1.5-0.4-0.1-1.2c0.5-1.3-1.8-1.4-0.5-2.4
		c0.1-2.2,0.1-3.6,0.5-5.6c-1.2-2.1,0.5-8.6-1.1-11.5c1.8-1.3-1-3.2,0.9-4.9c-1.4-2.1,1.4-2-0.9-3.3c1.1-2.2-0.1-5.7,0.6-7
		c0-2.4-0.9-4.7,0.4-6.8c-1.6-1.2-0.9-4.4-0.5-5.8c-1.4,0.1-1.2-1.8-0.8-2.7c-1.7-1.1-1.7-3.4-4-3.1c-1.4-2.3-3.8,1.8-3.3,2.7
		c-3,3.3,0.5,10.1-1,14c0.8,2.1,0.4,5.6,0,7.7c0.8,0.6,0.5,3.9-0.1,4.6c1.9,4.2,0.2,10.1,1.2,14.7c0,9.7,0.6,17.1,0.5,26.2
		c1.1,0.8-0.6,2.6,0,3.2c0.3,0.7,0.8,0.7,0,1.4c0.7,0.7-0.1,2.9,1.5,2.6c-2.5-0.7-0.9,10.4-0.5,11.9c-1.3,4.5,0.1,10.6,0,16.7
		c-0.7,4.1,2,1.6,3.6,2.4c1.9-1.7,5.2,2,4-3.6C560.2,400.8,559.1,396.2,560.1,393.6z M554.6,402.9c0.3,0.2,0.2,0.3,0,0.5
		C554.8,403.2,554.8,403.1,554.6,402.9z M553.2,396.1c-0.2,0.1-0.4,0.1-0.6-0.1C552.8,396.2,553,396.1,553.2,396.1z M554.1,403.2
		c-0.1,0.3-0.1,0.5-0.1,0.6C553.9,403.7,554,403.5,554.1,403.2z M554,404.4c0,0,0-0.1,0-0.1C554,404.3,554,404.4,554,404.4z
		 M554.3,393.4c-0.1,0.5-0.4,0.6-0.7,0.9C553.9,394,554.2,393.8,554.3,393.4z M553,387.1C553,387.1,553,387.2,553,387.1
		C553.1,387.5,552.9,388.5,553,387.1z M554.1,379.9c-0.6-0.4-1.1-0.8-1.6-1.2C553,379,553.6,379.5,554.1,379.9z M553.9,390.2
		c-0.3,0.2-0.4,0.4-0.6,0.5C553.4,390.6,553.6,390.4,553.9,390.2z M553.5,408.7c-0.3-0.5,0.2-1.3-0.3-1.8
		C553.4,407.4,553.8,409.5,553.5,408.7z M559.2,374.5c0-0.1,0-0.2,0-0.2C559.3,374.9,558.8,375.4,559.2,374.5z M558.8,377
		c0.1,0,0.2,0,0.3-0.1C559,377,558.9,377,558.8,377z M558.4,369.1c-0.2-0.2-0.3-0.4-0.1-0.7c-0.2,0.3,0,0.8,0.5,0.8
		C558.6,369.1,558.5,369.1,558.4,369.1z M558.4,368.3c0,0.1,0,0.2-0.1,0.2C558.3,368.4,558.4,368.4,558.4,368.3z M559,354.5
		c-0.4,0.1-0.2,0.5-0.3,0.8C558.8,354.9,558.6,354.6,559,354.5z M557.9,360.3c0.2-0.3,0.5-0.6,0.8-0.9c-0.5,0.6-0.8,1.1-1.5,0.7
		C557.5,360.1,557.7,360.2,557.9,360.3z M558.4,388.4c0.3-0.2,0.6-0.3,0.9-0.4C559,388.1,558.8,388.2,558.4,388.4z"/>
	<path class="st2" d="M542.1,198.6C542.2,198.5,542.3,198.3,542.1,198.6L542.1,198.6z"/>
	<path class="st2" d="M544,156.5c0.9-5.7-5.9-25.3-11.2-9.4c-1.6,14.6-1.4,26.3-2.5,39.5c0.9,2.6-1.1,5.3,0,8
		c-0.6,0.3-1.4,2.5-0.5,2.8c0.3,1.2-0.7,2.1-0.5,3.3c-1.2,0.1-1.3,0.7-2.3-0.5c-1.2,0-3.5,0.3-3-1.7c0.3-0.5,0.3-1.9,0.1-2.4
		c0.1-1.4,1.3-0.7,0.4-2.4c0.3-0.9,1.1-7.8-0.6-4.6c2.5-11.6,0.6-20.3,1.3-32.1c0.6-2.9,0-6.4,0.5-9.7c0-2.5-1.7-4.5-0.4-6.7
		c-0.2-2.8-0.1-5.7-2.5-7.5c0.6-1.6-2.6-2-1.4-3.1c-6.8-5.5-10.8-0.3-14,6.1c-0.4,5.5-0.1,9.7-0.4,15.1c0,5.5-0.2,11.2-0.6,17.8
		c1.5,1.9-1.1,5,0.6,7.1c-0.3,1.5-1.1,2.9,0,3.9c-0.9-0.2-0.7,3.5-0.1,3.5c-5.5,2.8-7.2-2.7-6.7,8.8c-1.2,0.8,0.6,3.4,0,4.8
		c-0.8,1.8,0.1,4-0.8,5.9c1.4,3.3-0.4,7.6,1,10.5c-2.3,1.2,0.4,3.3-0.5,5.2c1,0.7-1.7,1.8,0,2.8c-0.8,2.6,0.2,3.9,0.6,6.5
		c-0.8,2-0.9,5.2-1,8.1c0.1,2.1,0.2,4.9,2.8,6.2c2.1,3,6.5,4.4,8.4,8c3.3,0.7,2-1.3,5.2-0.9c1.2-1.1,2.9-0.9,4.1-0.8
		c0.1-2.3,0.8-0.5,1.6-0.1c5.1,2.2,11,12.5,16.1,7.8c8.8,0.8,3.5-13.3,4.4-18.7c1.3-1-0.7-0.9-0.5-1.8c1.9-1.9,0.3-4.2,0.5-6.8
		c-0.9-0.6,0.7-1.5,0.5-2.3c-1.8-1.5,1.3-4.5-1.1-5.1c1.3-1.8,0.8-3.9,0.6-5.8c0.7-1.9,0.5-5.3-0.8-6.9
		C542.6,192.7,544.2,174.7,544,156.5z M500.6,231.1c0.2,0,0.3,0,0.4,0.2C500.9,231.2,500.7,231.1,500.6,231.1z M520.2,192.8
		c-0.2-0.2-0.5-0.4-0.6-0.6C519.8,192.4,520,192.6,520.2,192.8z M511.6,186.7c0,0.2,0.4,0.7,0.2,0.8
		C511.8,187.2,511.4,186.7,511.6,186.7z M508.4,185c1.1,0.3,1.5,1,1.8,2C510.3,184.8,505.3,184.9,508.4,185z M503.8,238.1
		c-2.5,0.5-1.6-6-1.2-8.8c-0.1-0.9,0.3-2.1-0.5-2.6c0.1-1,0.8-3,0.5-4.2c0.1-6.8,0.3-14.5,0.1-22.1c1.4-1.2-0.9-3.7,1.1-4.1
		c-1.6-1.5,0.6-3.5-1-5c-0.3-1.9-0.1-1.2,1.2-4.1c1,1.4,5.7-1.2,6.5,0.4c-0.9,4.7-0.5,11.2-0.5,15.9c-0.4,7.4,0.1,15.1-0.3,21.9
		c0.1,0.9,0.6,1.4-0.5,2.5c2.4,0.8-0.2,2.1,0.4,2.7C510,235.4,510.1,239.4,503.8,238.1z M517.4,245.3c-2,1.1-3.1,1-5.6,1.7
		c-1.2-2.2-5.2-3.4-5.7-6C512.4,238.7,513.7,242.9,517.4,245.3z M521.1,204.6c0.1,5.6,0.3,19-0.9,27.6c0.3,1.7,1.2,11.5-0.3,11.7
		c-7-4.4-9.3-6-8.8-14.8c0.5-0.5,0.9-1.7,0-2.2c-0.1-2.2,0.4-4.3,0.1-6.3c-0.2-2.2,1.1-5.8-0.1-8.2c0.5-4.8,0.7-9.5,0.2-14.9
		c1.5-1.5-1.5-13.7,2.9-8.1c0.1,1.4,2.4,1.2,2.6,2.7c0.3-0.6,1.6-0.9,1.7,0c-1.4-0.7,1.8,2.9,2.9,3.6
		C520.2,198.1,520.9,203.8,521.1,204.6z M539.8,206.8c-0.1,0-0.1,0.1-0.2,0.1C539.7,206.8,539.8,206.8,539.8,206.8z M532.3,202.5
		c0.1,0,0.2,0,0.3,0.1c-0.1-0.1-0.4,0.1-0.4,0.2C532.2,202.7,532.2,202.6,532.3,202.5z M531.2,197.2c-0.1-0.1-0.4,0-0.6-0.1
		C530.8,197.1,531,197,531.2,197.2z M529.9,203.7c-0.1-0.2-0.1-0.3-0.2-0.4C529.8,203.4,529.9,203.5,529.9,203.7z M523.5,242.7
		c-1.7-1.6,0.3-4.2,0.1-6.6c-0.8-2-0.5-6.9,0.1-8.6c-0.3-1.6-1.4-4.3,0.4-5.8c-0.6-0.5-0.7-1.4,0-1.9c-1.2-3.4,0.1-6.9-0.5-9.8
		c-0.1-2.2,0.3-5.3,0.1-7.2c1.9,0.1,5.4-0.6,5.1,1.8c0.2,4,0.2,7.9,0.1,11.6c-0.3,2.3-0.2,4.1,0,6.3c0.2,1.9-0.9,3.5,0,4.7
		c0.1,2.3-0.4,4.2-0.4,6.3c0.4,1.1,0.7,3,0.1,4.4C529.2,245.9,528.3,241,523.5,242.7z M537.3,253.7c-1.9,0-3.4,2.1-4.4-1
		c-1.4-1.2-4.5-2.1-4.7-3.7c-2.2-0.2-2.5-2.1-4.7-3.3c1.4,0,2.8-1.1,4-0.2C531,246.9,535.9,250.6,537.3,253.7z M539.8,218.8
		c0.9,8.8-0.5,19.9,0.1,29.1c0.3,3.6-0.6,2.2-2.7,0.7c-1.5-0.5-7-3.9-5.9-5.5c0.1-6.5-0.9-14.6,0.4-20.8c-0.8-1.5,0-3-0.4-4.8
		c0.7-0.5-0.8-3.2,0.4-3.9c0.2-1.3-0.6-3-0.4-4.3c1.2-0.6,0-3.3,0.3-3.7c-2.1-4.6,6.4,5.3,8.4,4.1
		C540.1,213,539.9,217.2,539.8,218.8z M540.6,209.1c0.2-0.2,0.3-0.2,0.5-0.2C540.9,208.9,540.8,208.9,540.6,209.1z M541.9,205.2
		c0,0.2,0,0.3-0.2,0.4C541.9,205.5,541.9,205.3,541.9,205.2z"/>
	<path class="st2" d="M596.7,404.3c-0.1,0-0.2,0-0.3-0.1c0.2,0.1,0.3,0.2,0.5,0.2C596.8,404.4,596.7,404.3,596.7,404.3z"/>
	<path class="st2" d="M602.3,381.1c1-0.4,1-2.7-0.3-2.8c1.3-2.1,0-4.2-0.1-6c0.8-3.5,0.2-6.4,0.5-10c-1.3-9.6,0.7-14.5-0.8-23.6
		c0.2-5.5,0.9-9.9,0.2-14.7c1-1,0.2-2.2-0.6-2.8c0.1-1.2-0.7-5.7-2.2-4c-1.4-0.9-2.6,0.6-2.6,2.2c-0.1,1.4-1.7,3.2-0.5,4.3
		c0.2,3.3-0.9,6.1-0.1,8.6c0.1,3.3-1.3,6.2,0.4,9.1c-1.2,0.5-1,7.6-0.1,8c-0.9,2.5-0.9,6.5,0.1,9c-1.4,3.1-0.6,9.3,0,10.9
		c0.6,2.3-2.1,7.2,0,8.2c0,1.7-1.1,4.8,0.5,5.9c-1,2.1-0.8,6.5-0.5,8.6c-1.2,2.8,1.1,7.3-0.5,10.4c0,0.4,0.5,1.5,1,1.9
		c1.2-1,2.1,1.2,0.2,0.2c8.1,3.6,5.2-7.1,5.5-12c0.6-2.3-0.2-4.1,0-6.9C603.7,384.7,601.6,383,602.3,381.1z"/>
	<path class="st2" d="M584.2,213.6c-0.4-8.4,5.4-19.3-3.3-25.5c-9.2,4.2-5.6,16.4-7,25.4c0.4,4.5-1.2,9.7-0.6,14.4
		c-0.7,0.5-0.9,3,0,3.1c0.2,0.9-0.9,0.1-1,0.9c-0.1,0.5,0.5,0.9,0.7,0.2c-0.4,2.4-3.3,3.9-4.5,1.1c2.7-0.9-0.8-2-1.1-3
		c1.3-1.4,0.1-3.1,1-3.8c-0.7-1.7,1.1-4.4-1.8-3.6c3.2,0.3,1-2.7,1.8-4.8c1.1-1-1.3-3.5,0.9-3.8c-0.5-0.8-1.5-2.2-0.5-2.9
		c0.3-9,0.7-17.3,1.4-25.8c-1.8-1.3-0.2-4.7-2.3-5.4c0.3-3.5-5.2-4-7.3-3.7c-1.3,0.4-1.5,2.1-1.5,3.2c-0.6,0.9-4,2.2-2.9,3.1
		c0.2,12.2-0.7,25.3-0.3,37.1c-1.9,4.5-2.1,1.3-4.8,3.4c0,7.8,0.5,16.3,0,23.1c1.1,6.4-2.2,18.8,1.3,23.8c-0.4,2.9,4.8,2.3,5.4,5
		c2.3-0.3,3.4,1.7,5.2,2.6c0.3,1.8,1.3-3.2,5.1-2.6c1.6,0.9,3.6,1,5.9,2.5c0,1.4,1.5-0.1,2.5,1.1c0.6,0.4,0.2-1.2,1.1-0.8
		c4.4-3.2,4.4-6.2,4.1-11.2c-0.4-2.2,1.4-4.2,0.1-5.5c1.5-3.1,0.4-6.3,0.9-9.7c0.4-4.4,1.7-9.3,0.6-14.2
		C582.9,229.5,583.7,221.7,584.2,213.6z M565.9,228.8c0,0.5,0.1,0.9,0.2,1.3C566,229.8,565.7,229,565.9,228.8z M562.6,227.3
		c0.1,0.5-0.1,1,0,1.4C562.6,228.3,562.4,227.5,562.6,227.3z M561.5,227.3C561.4,227.3,561.4,227.2,561.5,227.3
		c-0.2-0.2-0.3-0.3-0.4-0.3C561.2,227,561.4,227.1,561.5,227.3z M559.6,226C560,226.8,559.7,226.7,559.6,226
		C559.3,225.8,559.5,226,559.6,226z M556.2,220.6c0-0.2,0-0.5-0.2-0.6C556.8,220.4,554.9,222.1,556.2,220.6z M553.5,267.4
		c0.7-2.1-1.7-4.2,0.3-6.3c-0.9-2.7-0.2-6.7,0-8.8c-0.9-2,0.6-4.5-0.4-6.2c0.1-2.3,0.3-4.8,0.1-6.7c1-4.3-1.9-13.7,1.7-15.7
		c-2.5,0.7,3.3,3.2,1.8,6.6c-0.7,5.2,0.3,11.7-0.3,16.3c1,4.6,0,9.4,0.1,15.1c-1.5,1,1.5,3.2,0.5,3
		C556.8,267.2,556.3,267.5,553.5,267.4z M563.7,274.8c-2.9-0.1-4.4-1.2-7.3-3.2c0.3-2-0.8-0.3-1.9-0.9
		C556,267,567,272.5,563.7,274.8z M566,243.9c1.4,0.5,0.2,5.6-0.1,6.8c0.3,3.7,0,6.2,0,9.3c1.2,1.2-0.9,3.1-0.5,4.7
		c1.1,6.2-1.9,6.1-6.3,2c-0.6-13.4,1.6-24.2,0-36.5c1.7-0.1-0.4-1.5,1.1-1.6c0.9,1.3,2.9,2,3.7,3.4
		C569.2,231.4,566.2,241.8,566,243.9z M577.4,238.7c0-0.1-0.1-0.2-0.1-0.3C577.4,238.5,577.4,238.6,577.4,238.7z M574.2,237.4
		c-0.5,0-0.9,0.2-1.1,0.6C572.5,237.1,573.6,237.5,574.2,237.4z M573.6,234.1c-0.1,0.2-0.5,0.5-0.5,0.7
		C573.1,234.6,573.4,234.4,573.6,234.1z M573,235.3c-0.1,0.2-0.2,0.3-0.4,0.5C572.7,235.6,572.8,235.5,573,235.3z M571.5,271.1
		c-4,3.4-4.4,1-3.2-3.2c-0.6-4.1,0.1-10.3,0.4-14.4c1.2-4.7-2.4-17.4,3.1-16.5c2.1,1.1,2.1,8.2,0.3,9.9
		C573.4,254.9,571.1,263.5,571.5,271.1z M576.2,276.7c-1.3-0.9-3.3-1.2-4.4-2.5C572.8,271,579.3,275.1,576.2,276.7z M580.7,247.2
		c-1.3,7.5-0.4,15.6-1.9,22.6c2.6,0.2-0.6-0.5,0.1,1.5c0.5,4.2-3.3-1.5-5.5-1.7c1.2-5.4,1.2-12.5,0.9-18.5c2-1.1-0.6-5.2,1-7.3
		c-0.1-2.4,1-3.8,0-6C581.8,240.2,580.6,240.1,580.7,247.2z"/>
	<path class="st2" d="M593.1,402.4c0.2-2,1-6.3-0.2-8.4c-0.5-2.4,1.2-4.5,0-6.3c0.4-3.2,0.4-6.5-0.1-9.4c1.6-1.9-0.8-2.6,0.5-4.6
		c-1.1-8.6-0.9-14.7-0.4-22.2c0.5-3-1.7-7.3-0.1-10.9c-0.8-3.7-0.7-8.2-0.4-11.7c0.8-2.5-1.6-5.3,0.3-6.7c-0.6-6.6-2.7-17.3-8-4.2
		c1.3,5.5,0.9,12.8,0.5,18c1.7,6.6-0.5,13.6,1,20.2c-1.1,1.1,0,4.3,0,5.4c-0.5,0.9-0.7,3,0.1,3.8c-1.1,1.2,0.8,3.3-0.5,4.6
		c-0.3,1.4,0.7,3,0.5,4.4c0.9,0.6,0.1,0.7-0.5,1c-0.2,1.5,0.8,3.2,0.5,4.7c0.9,1.6-1.4,3.7,0.5,5.2c-0.9,3.3-0.1,9.3,0,11.7
		c-1.1,3,0.2,5.7-0.4,8.2C586.3,409.1,596.3,407.2,593.1,402.4z"/>
	<path class="st2" d="M514.6,409.8c1.1-0.9-1.4-0.7-0.5-3c0.1-0.4,1.1-8.3-0.1-6.4c0.6-0.3-0.6-0.7-0.1-0.7c0.3,1.2,1-2.2,0.2-2.2
		c1.4-3.3-0.3-6.1,0-9.4c0.8,6.4,0.7-6.3,0.3-7.1c-0.3-11.2,0.2-19.6-0.7-29.9c1.2-17.5-0.8-38.5-0.1-59.1
		c0.9-5.5-3.5-19.5-11.4-8.8c0,2.6-1,5.9,0,8.2c0.3,2-1.5,3.6,0.4,5c-1.8-2.1-0.3,1.6-0.4,2.5c-0.7,0.2-0.6,2.3,0,2.6
		c-1.2,4.6-0.2,7.6,0,11.5c-0.5,2.9,0.1,5.3,0.1,8.4c-0.7,2.7-0.1,5.8,0.1,9.1c0.1,12.5,0,29.3,0.4,44.3
		c-0.5,12.5,1.2,25.7,0.1,38.2C504.5,414,521.6,412,514.6,409.8z M502.7,304.7c0.2-0.1,0.4-0.2,0.6-0.2
		C503.1,304.6,502.9,304.6,502.7,304.7z M502.2,300.8c0.2-0.1,0.5-0.2,0.7-0.3C502.7,300.6,502.5,300.7,502.2,300.8z M507.7,411.9
		c0.2,0,0.3,0.2,0.5,0.3C508,412.1,507.9,412,507.7,411.9z M508.6,412.4c0.1-0.1,0.2-0.2,0.3-0.3
		C508.8,412.2,508.7,412.4,508.6,412.4z M513.7,390c-0.4,0.1-0.1,0.6-0.1,0.9C513.4,390.8,513.3,390,513.7,390z M512.5,402.2
		c0.7-0.3,0.3-1.3,0.8-1.6C512.9,401,513.3,402,512.5,402.2c-0.1,1.6,1.7,2.4,1.1,4.3C513.9,404.6,512.5,403.9,512.5,402.2z
		 M512.4,412c0.1-0.2,0.2-0.3,0.4-0.3C512.7,411.7,512.5,411.8,512.4,412z M512.7,410c-0.1-0.2-0.2-0.7,0.2-0.7
		c-0.5,0.3,0,1,0.4,0.8C513.1,410.1,512.9,410.1,512.7,410z M513.6,411.3c0.4-0.2,0.6-1.3-0.2-1.2C514.3,410,514.2,411,513.6,411.3z
		"/>
	<path class="st2" d="M576.6,382.1c-2.1-1,0.3-2.8-1-3.7c-0.6-1.4,0.4-3.4,0-5.3c0.2-1.7-2.7-0.1-2-2.7c-0.2,2.9,2.6,2,2.1-0.6
		c0.4-0.6-1.3-1.6-0.7-2.8c-0.5,0-0.6-0.5-0.4-0.8c1.3,2.1,1.7-2.3-1.1-1.1c1.2,0.1,3.2-1,1.7-3.3c0.4,1.1,0.8-1.9,0.4-1.6
		c-0.9-0.3,0.9-2-1-2.4c1.1-1.4,0.3-3.2,0.5-5c1.2-2.2-0.6-5.8,0-9.2c1.3-1.2-1.5-3.7,0.5-4.7c-1.9-3.1,2.1-12.6-2.9-13.5
		c0.9,0.2,1.3,0.3,1.9,0.6c-0.5-1,1.5-0.9,0.5-1.3c-1.2-0.6,0.3-1.3-0.1-2.1c0-0.8-0.8-1.3-0.5-2.4c-0.1-1.5,0.1-3.3,0.1-0.6
		c1.1-0.4,0.8-2,0-2.8c0.1-4.6,0.6-7.9-3.1-11.2c-4.2-1.2-2.3-0.5-5.1,1.7c-0.7,3.1-1.4,6.8,0,9.5c-1.1,4.6,1,12.1-0.5,17.3
		c2.1,12.8,0.2,28.4,1.5,42.4c-0.6,1.3-0.4,2.8,0.2,3.8c0.4,1.1-1,2.7,0.4,2.9c-1.7,2.6-0.3,6.5-0.5,9.5c1.7,1.8-1.1,3.7,0,5.3
		c0.5,2.5-0.4,6,0.5,8c-0.2,1.3,2.4,1.3,3.3,1.4c1-2,2.1-0.9,4.2-1c-0.1-2.3,0.6-3.3-0.8-5.6c1.7-1.5-0.9-0.9-1-1.9
		c2.7,1.7,1.8,1.2,2.7-0.6c-0.8-1.6-0.8-2.3-2.2-3.3c1.1,1.3,2.5-0.2,1.3-1.6c0.7-0.7,0.7-3.1-0.7-2.5c-1.2-1.4,0.7,1.5,1.2-2.3
		c-1-0.7,0.5-3-1.4-2.7c0-0.3,0-1,0-1.3c1.1-0.3,0-1.9-0.9-2.1C576.9,385.4,574.6,383.3,576.6,382.1z M574.6,369.9
		c0.1-0.7-0.6-1.2-0.5-1.7C574.1,368.8,574.8,369.3,574.6,369.9z M573.1,323.8c0,0.1,0.1,0.2,0.1,0.3
		C573.1,324,573.1,323.9,573.1,323.8z M570.7,306.5c-0.2,0-0.4,0-0.6,0C570.3,306.5,570.5,306.5,570.7,306.5z M570,306.5
		c-0.2,0.2-0.4,0.4-0.5,0.5C569.7,306.8,569.8,306.6,570,306.5z M568.5,307c-0.1,0.1-0.1,0.1-0.2,0.2
		C568.3,307.1,568.4,307.1,568.5,307z M566.9,308.2c0.3-0.6,1.1-0.2,1.6,0.5C567.9,308.2,567.3,307.6,566.9,308.2z M569.4,393.9
		c-0.3,0.2-0.4,0.4-0.6,0.5C568.9,394.3,569.1,394.1,569.4,393.9z M569.8,400.1c-0.3,0.2-0.5,0.4-0.6,0.8
		C569.3,400.5,569.5,400.3,569.8,400.1z M569.4,399c0.2-0.1,0.4-0.2,0.5-0.3C569.8,398.8,569.6,398.9,569.4,399z M568.5,399
		c-0.1-0.2-0.2-0.3-0.2-0.4C568.4,398.7,568.4,398.8,568.5,399z M568.3,400.6c0,0.1,0.1,0.1,0.1,0.2
		C568.4,400.8,568.3,400.7,568.3,400.6z M569.2,397.9c0.3-0.4,0.7-0.4,1-0.1C569.9,397.6,569.6,397.5,569.2,397.9z M571.5,308.2
		c0.3,0.3,0.2,0.7,0.2,1C571.7,308.9,571.8,308.5,571.5,308.2z M572.2,310.6c0,0,0,0.1,0,0.1C572.2,310.7,572.2,310.7,572.2,310.6z
		 M572.4,311c1-0.2,1.3,0.3,1.2,1.1C573.6,311.2,573.3,310.9,572.4,311z M574.4,360.2c-0.1-0.1-0.8,0.2-0.8,0
		C573.9,360.3,574.4,359.9,574.4,360.2z M573.5,333.2c0.1,0.1,0.1,0.2,0.2,0.3C573.6,333.4,573.6,333.3,573.5,333.2z M574.7,359.3
		c-0.1,0-0.1,0.1-0.1,0.2C574.6,359.4,574.7,359.4,574.7,359.3z M574.8,332.7c0.1,0.5-0.5,0.9-0.8,1.5
		C573.9,333.7,574.6,333.2,574.8,332.7z M573.7,330.3c0.1,0.1,0.2,0.1,0.3,0.1C573.9,330.3,573.7,330.4,573.7,330.3z M574.6,332.5
		c-0.4-0.8-0.8-0.5-1.2-0.6C573.8,332,574.3,331.6,574.6,332.5z M573.1,331.3c0,0.2,0.1,0.4,0.1,0.5
		C573.2,331.7,573.1,331.5,573.1,331.3z M575.5,405.7c0-0.2-0.1-0.3-0.2-0.4C575.4,405.4,575.5,405.5,575.5,405.7z M574.5,388
		c0.1,0.2,0.2,0.4,0.3,0.6C574.7,388.4,574.5,388.3,574.5,388z M574.9,388.8c0,0.1,0.1,0.2,0.1,0.2C575,388.9,575,388.8,574.9,388.8
		z M575,387.3c-0.2-0.1-0.4-0.3-0.4-0.5C574.7,387,574.9,387.1,575,387.3z M574.1,393.5c0.2,0.3,0.4,0.5,0.5,0.8
		C574.4,394.1,574.2,393.8,574.1,393.5z M574.5,405.7c-0.2,0-0.4,0.1-0.7,0.1C574.1,405.7,574.3,405.7,574.5,405.7z M574.4,375.5
		c-0.2,0.3-0.5,1.6-0.7,0.8C575.1,374.4,574.8,377.9,574.4,375.5z"/>
	<path class="st2" d="M573,406.6c-2.1,2.3-0.7,1.5,1,2.1C576,407,574.2,407.6,573,406.6z"/>
	<path class="st2" d="M568.8,407.7c-0.3,0.9,1.1,1.5,1.5,0.5C570,407.9,569.3,407.6,568.8,407.7z"/>
	<path class="st2" d="M534.5,329.6c-0.6-0.2-0.8-0.2-0.7,0.4C534.1,330,535.1,330,534.5,329.6z"/>
	<path class="st2" d="M575,367.9c0.5-0.1,0.6-0.5,0-0.5C575,367.4,575,367.9,575,367.9z"/>
</g>
</svg>
