<?xml version="1.0" encoding="utf-8"?>
<!-- Generator: Adobe Illustrator 26.4.1, SVG Export Plug-In . SVG Version: 6.00 Build 0)  -->
<svg version="1.1" id="Layer_1" xmlns="http://www.w3.org/2000/svg" xmlns:xlink="http://www.w3.org/1999/xlink" x="0px" y="0px"
	 viewBox="0 0 252.8 761.2" style="enable-background:new 0 0 252.8 761.2;" xml:space="preserve">
<style type="text/css">
	.st0{fill:#796A51;}
	.st1{fill:#442E0C;}
	.st2{fill:#645135;}
	.st3{fill:#E8BD60;}
	.st4{fill:#FEDA80;}
	.st5{fill:#47310D;}
	.st6{fill:#DFA11D;}
	.st7{fill:#DFA21F;}
	.st8{fill:#FEDA7F;}
</style>
<path class="st0" d="M110.2,0v0.4c0.4,0.2,1-0.1,1.4,0.3v0.4c-0.4,0.1-0.9,0-1.3,0.1c-0.4,0-0.9,0-1.3,0c-0.1-0.6,0.4-0.7,0.7-0.8V0
	C109.7,0,110.2,0,110.2,0z"/>
<g>
	<path class="st1" d="M81.4,43.8c1.8,2.5-1.3,8.7,1.6,8.9c-1,1.2-0.4,3.6-0.5,5.8c3.8-1.7,4.9,4,7,1.5c0.7-4-1.8-8.6-0.9-13.7
		c-2.2-2,0.9-6.8-0.4-9.3c4.1-10.3,12.2-22.3,22.9-24.3c3.1-1,5.5-2.7,8.9-3.6c2.9,1.1,16.6,3.4,15.2,5.4c1.3,0.4,1.8,0.1,1.6,1.8
		c1.6,0.1,1.1,0.1,0.5,0.9c0.9-0.1,0.7,0.6,0.7,1.2c4.5,3.5,4.7,9.1,6.7,13.9c1.2,6.6,6.3,17.9,6.6,23.5c1.1,0.7,1.1-0.3,1.3,0.3
		c-1.1,0.7,1.3,1.3,1.3,2.3c5.9-2.3,5.2-7.5,5.9-11.6c-0.9-5.5-1.1-9.8-2.7-14.6c-0.9-0.3,0.5-1.1,0.1-1.9c-0.8-1.8-2.2-2.2-1.8-4.1
		c-0.7,1-1.8-1.5-0.2-0.4c0-1-0.7-1.8-1.3-2.3c-0.9-4.7-4.1-7.3-7.2-9.8c-0.4-3-3.2-2.1-4-5.7c-2.2-0.9-4.5-6-5.7-3.5
		c-0.6-2.5-4.7-1.9-6-3.6c-0.8,0.3-0.8,1.4-2.2,1c-0.2-0.7-0.7-0.4-1.3-0.2c0.3-1.1-0.7-0.5-0.8-1.3c-0.9,0.4-2.4,0.3-4.1,0
		c-2.4,0.3-4.3-0.9-6.8,0.2c-1.3,0.4-2-0.2-3.7-0.1c-1.4,0.7-3.2,0.6-4.9,0.8c-0.4-1.2-1.3,0.4-2.1,0c-1.9,0.3-1.3,2.9-3.1,1.3
		c0.9,0.5-6.2,5.9-7.7,6.7c-2.1,2.9-4.4,6.4-6.5,9.4c-0.7,3.1-4.1,7.6-3.5,9.8c-1.7-0.3-0.7,1.2-0.5,2.1c-0.6-0.1-1.5,0.9-0.5,0.8
		C80.6,34.9,83,39.8,81.4,43.8z M88.8,53.5c0,0.5,0.5,1.1,0,1.5C88.7,54.5,88,53.5,88.8,53.5z M159.4,45.3c0.1-0.1,0.1,0.3,0,0.2
		C159.4,45.6,159.4,45.3,159.4,45.3z"/>
	<path class="st1" d="M195.2,410c1.2,0,0.4-1.1-0.8-0.3c0.5-6.1-0.4-12.6,0.6-18.2c-1-6,1.7-16.6-0.3-24.5c-1.3-1.7-5,0.5-7.5,0.2
		c-1.4-0.4-0.6,1.1-1.6,0.9c-5.7,0.2-10.8,0.2-14.7,0.1c-4.4-0.9-10.1,0.4-13.5-3.8c0.2-1-0.9-0.2-1.3-0.2c-6-3.9-16.7-5.1-21-7.3
		c-3-1.3-4.7-3.7-8-2.8c-0.7-1.4-2.3-2-4.7-2c-0.4-1.4-1.2,2.4-2.9,0.2c0.3,2.4-5.1,1.2-3.2,2.1c-2.4-0.3-3.5,2.1-6,1.7
		c0.3,1.4-1.7,1.1-2.8,1.9c-6.9,0.6-12.7-1.9-18.8-3.3l0.1,0c-7.3,1.9-15.3-5.5-20.4-6.8c-1.6-0.4-2.3-2.3-4.2-2.2
		c-0.6-1.6-2.2-0.9-3.3-2.4c0.3-1.2-0.8-1.2-1.8-1.2c-1.3-0.5-1.1-2.7-2.1-1.9c-0.9-2-2.9-2.7-3.3-5.1c-2.7,0.8,0.6,1.1-0.5,3.3
		c0.8,3.8-3.2,5.2-0.3,7.8c-1.7-1-1.4,1.3-1.1,3.2c1.2,1.2,1.6,0.8,1.1,2.3c-0.8,2.5-2.9,7.4-1.5,9.3c-0.4-2.2,1.8-1.6,1.5,0.1
		c-0.6,6.4-0.7,14.3-0.5,21.6c-0.6,1,0.2,2-0.7,2.8c-0.1,0.8,1,1.2,0.7,2.1c-3.2-0.1-0.2,5.7-0.7,8.1c-1.9-2.8,0.4,3.4-0.9,3.3
		c-0.2,1.2,1,1.9,0.7,3c0.3,0.5-0.5,1.8,0.8,2.5c-1.9,9.5,3.4,20.5,4.5,31.2c0.6,15.6,2,28.3,4.3,45.6c2.3,5.1,2.4,13.1,4.7,18.5
		c0.9-1.5-0.1,2.9,0.3,4c2.4,2.7,0,7.1,2.5,10.3c-1.4,0,0.1,0.9-0.8,2.7c2.4,0.3-0.3,2.6,1.3,3c-0.9,4.8,0.5,14.9,1.7,18.1
		c-1,1.9,0.1,7.6,1,9.9c-1.2,3.5,1.5,7.7,0.6,11.4c1.6,2.4-0.2,6.3,1.7,6.1c-0.9,2.2,1.1,2.4,0.9,4.6c-0.5,8.1,1.4,17,0.8,24.2
		c2.9,14.2,4.6,28.7,4.5,43.9c0.7,8.2,0.7,12.8,2.4,20.8c2.1,7,6.5,16.4,6.3,25.9c2.1,1.3,0.9,5.7,2.9,5.9c0.1,2.4-0.3,5.4,2.1,6.8
		c-1.3-0.1,0.6,3.9,1.3,3.5c-1.3,2,1.1,0.7,1.7,2.2c2.2-2.8,8.7,2.2,11.9-0.5c0.2-2.2-0.5-2,2.5-1.9c0.4,0.8-1.1,0.4-1.4,0.5
		c0.5,1.5,1.6,1.9,2,0c1.5-0.6,5.9-0.3,6.5,1.3c-0.9-0.1-1,0.2-0.9,1c0.5,0.1,1.3-0.2,1.4,0.5c3.3,0.4,5.7,0.9,8.3-1.7
		c2.6-0.5,6.2,0.2,7.5-0.2c1.1,0.6,1.8-0.3,2.9-0.9c-0.4-0.1-0.8,0-0.7-0.5c2.1-0.3,0-2.2,0.5-2.9c-1.5-1.5,1-1.6,0.7-2.8
		c-0.9,0-0.7-0.9-0.7-1.5c0.1-0.4,1.3-1.5,0.3-1.4c-0.1-1.4,0.9-2.8,1.5-4.1c-0.1-4.8-0.3-7,0.6-11.5c-1.4-0.8,0.4-2-0.2-3.7
		c0.6-2.4-0.8-3.3,0.2-6.4c-1.2-2.9-0.9-5.7-1.2-8.4c-0.6-1.1-1.7-2-0.3-2.9c-2.2,0.7,0.6-3.8-1.7-4.5c1.1-1.9-0.3-4.3-0.4-5.8
		c1.2-2.2-1.4-5.8-0.4-7.4c-2.3-9.2-0.2-22.9-1.8-30.6c-0.3-1.4,0.8-2.3,0-3.7c0.4-0.2,1.1-0.2,0.9-0.8c-1.7,0-0.1-1.8-1-2.2
		c1.6-0.6-1.8-3.6,0.2-4c0.1-0.5-0.1-0.5-0.5-0.5c0.1-1,0.2-2.5-0.3-3c1.2-0.5,0-6.1-0.5-7.4c1.4,0.5-1.7-5,0-3
		c-1.4-8-1-14-2.8-19.9c1.2-2.6-0.8-4,0.3-4.5c0.5-1.1-0.5-1.8-0.9-2.5c1.8,0.1-0.3-2,0.4-2.7c0.1-4.8-2.5-10.1-0.3-14
		c-1.8-1.6-1.5-7.6-0.3-8.6c-1.5-2.6-0.9-5.9-0.3-7.6c0.3-1.6-1.9,0.7-0.5-1.7c-0.7,0-0.9-0.3-0.1-0.4c0.3-0.9-1-1.2,0.3-1.8
		c-1-2.3-0.8-5.2-1.1-7.6c-0.2-1.2,1.4-1.5-0.6-1.7c1-0.4,1.4-0.7,1.2-1.9c-0.3,0.5-0.5,0.7-0.9,1.2c-0.1-4,2.1-0.8,1.8,1.9
		c0.9,0.4-1.1,2.6,0.4,3.1c0.5,3.2,1.1,10,1.6,13c-0.3,2.4,0.8,8.1-0.5,9.8c1.8-0.5,1.5,6.3,2.1,6.3c-0.3,4.4-1.9,0.8,1,4.6
		c0.2,4.3-2.8,1.8,1,5.3c-0.6,0.2-0.8,0.5,0,0.7c0,1.2-0.1,4.1,0.9,4.3c-0.2,2.5-0.1,3.9,0.5,5.7c-1.6,0.9,1.6,3.7-0.1,4.7
		c1.7,1.4-0.3,5.4,1.1,6.9c-1.6,2.4,0.4,8.1,0,11c-1.2,5.5,1.8,15.9-0.7,18.5c-0.7,0.7,0.5,1.3,0.3,2.1c-1,0.6-0.2,3.2,0.4,3
		c0-1.4-0.6-3,0.5-3.1c-0.1,1.6,0.5,2.9-0.2,3.8c-2,0,0.2,1.7-1.2,2.4c0.7,1.9,0.5,4,0.7,6.6c0.6,0.6,1.5,0.1,1.2,1.5
		c-1.4,1.1,0.6,1.8,0.5,2.3c-0.8,2,0.1,5.8,1.5,7.7c-1.2,0.6,0.1,10.5,1.6,9.8c-1.8,0.4,0.7,2.2-0.6,2.7c0,1.1,0.3,4.8,1.4,6.3
		c-0.8,1-0.2,3.5,0.5,3.6c-1,2-0.2,4.3,0.3,6.4c0.3,13.2,2.2,31.7,2,42.1c-0.8,3.7,0.5,10.2,4.5,10.2c-0.2,1.5,1.1,2.2,1.7,1
		c0.9,1.3,3.1,1.4,4.3,1.9c6.4,4.9,13.9,3.7,20.8,3.1c3.8-0.9,8.5,2,9.3-0.7c0.3-0.9,1.8-2.9,0.5-2.8c0.8-1.2,0.2-1.7,0-3
		c1.4-0.4,0.2-1.1-0.1-1.9c1.7-1.6,0.4-4.2,0.3-7.1c-0.1-1.4,0.6-5.5-1.2-6.2c0.8-1,1-0.6,0-1.5c1.2-3.4-1.8-8.1,0.1-11.1
		c-1.6-1.8-0.1-4.7-0.4-7.8c-1.1-0.8,1.3-2.3-0.5-3.2c0-0.5,0.4-0.1,0.9,0c-1.1-11.2,2.1-21.4,2.9-32.6c-0.8-11.9,2.4-21.2,1.9-33.8
		c1.3-11.6-0.7-23.3,0.2-35c-0.7-3.4,0.7-7.4-0.9-10.1c0.3-0.8,1.3-3.2,0.1-1.9c-0.2-0.8,1.4-2.2-0.4-2.5c1.4-1.6,0.7-1.8-0.4-2.2
		c2.2-0.8,0.8-4.9-0.2-5.1c1.6-1.9,0.9-5.4,0.6-9.2c1.3-2.4,0.1-4.9,0.4-7.8c0.8-0.2-0.2-0.4,0.4-1.3c-1.5-0.3,1.1-1.9-0.8-1.9
		c0.8-1.4,1.3-5.7,0.3-6.2c0.5-1.5,0.7-0.9-0.1-2.4c2,0.2-0.3-0.9,0.9-1.6c0-0.5,0.1-1.1-0.4-1.3c-1-0.3,1.3-1.2-0.1-1.8
		c1-4.4,0.4-8.9,0-12.7c1.5-0.8,0-2.9,0-3.9c1.1-1.1-0.1-5.5,0.5-6.4c-2.6-2.9,2.2-2.3-0.5-3.7c0.9-4.6,2.4-9.6,1.2-14.5
		c1.6,0,0.5-0.6,0.3-0.9c1.3-0.5-0.1-1-0.5-1.4c1.9-1.6-0.6-3.9,1.4-4.9c0.2-0.6-1.2-1.4,0-1.4c-0.6-3.5,1-4.8-1.4-6.1
		c3.2-0.2,1.8-7.1,2.9-9.7c-1.2-0.3,0.3-1.6,0.2-2.5c-1.6-0.1-0.7-0.8-1.4-2.2c-0.3-2.3,1-4.3,0.3-6.6c1.7-0.2,0.5-2.3-0.1-3.8
		c1.9-2.3-0.5-11.6,1.1-15.1c-1.3-0.8,0.8,0.2,1.3-0.8c-1.5-0.5-1.4-0.5-0.9-2.4c-1.4-0.8,1.1-2.6-0.7-3.6
		C196.3,413.2,193.9,410.8,195.2,410z M51.5,387.9c0.8-0.2,0.3,0.3,0,0.9V387.9z M52.8,393.1c-0.4-0.4-0.7-0.7-1.2-1.2
		C52.5,391.7,53,392.1,52.8,393.1z M55.3,419.4c0.1-1-1-3.4-0.2-3.8C55.1,416.5,56.5,419.1,55.3,419.4z M62.1,474.6
		c0.1-1.2-1.3-3.5-0.1-3.9C61.9,471.9,62.9,474,62.1,474.6z M64.3,354.6c-1.9-0.5-10.1-4.2-4.7-4.1C61.3,351.1,68.9,353,64.3,354.6z
		 M103.4,367.1c-0.3,0.1-0.4-0.2-0.6-0.5C103.2,366.6,103.7,366.5,103.4,367.1z M102.9,365.9c-0.4,1.3-1.6-1.1-1.7,0.9
		c-0.7-1.3-2.1-0.4-3.7-0.9c-1.7,0.8-3.2-2.1-4.3-0.5c0.6-1.2-2.1-0.5-2.5-0.7c-0.5-2.3,0.4-0.7,2-1
		C93.1,363.1,104.4,366.3,102.9,365.9z M106.6,368.7h-1.4C104.8,367.7,106.7,368.1,106.6,368.7z M107.7,369c-0.4,0-0.6-0.2-0.6-0.8
		C107.6,368.5,108.7,368.7,107.7,369z M108.4,368.5c-0.1,0.1-0.1-0.3,0-0.2C108.4,368.3,108.4,368.5,108.4,368.5z M127.7,430.5
		c-0.3,1.4,0.6,3-1,3.8C127.5,433.2,125.9,429.4,127.7,430.5z M127.1,434.5v0.2C127,434.8,127,434.4,127.1,434.5z M123.6,462.8
		c-0.6,3.2-1.2-3.9-0.1-4.4C123.4,459.9,123.3,461.3,123.6,462.8z M123.9,457.7c-0.2,0.1-0.3,0.1-0.5,0.2
		C123.3,457.6,123.5,457.5,123.9,457.7z M124.3,460.7c-0.3-0.2-0.3,0.2-0.6-0.3c0.2,0.1,0.3,0.1,0.4,0.2c0,0,0.1,0,0.1,0
		C124.3,460.5,124.3,460.6,124.3,460.7c0.6,0.3,1.1-1.3,0.3-1.2c-0.3-1.1,1.1-2.2-0.5-2.5c1.5-0.6-0.4-2.1,1.2-3.4
		c0.1-2.9-3.9-0.6,0-3.1c-1.4-1.8,0.5-2.2-0.5-4.5c0.4-0.9,2.2-2,1-2.7c-0.7-1.3,1.6-3.5,0.3-3.3c-0.3-0.7,0.9-0.3,1.2-0.4
		c-0.4-1.6-0.4-2.7,0.1-4.5c0.4,2.6,0.7,5.6-0.6,7.6c0.5,5.3,0.5,10.6,0,15.2c-0.5,6.9-0.3,13-0.6,20.1c0.1,2.4-0.3,4.4,0.2,6.7
		c1.3,0.3-0.6,1.6-0.3,0.1c-1.4-2.4,0.1-7.2-0.5-10.2c-0.8,0.2-1.1-0.6-0.1-0.5c0.9-1.8,0.2-1.7-0.6-2.3c1.6,0,0.4-2.6,0-3
		C127.5,467.7,124.7,463.2,124.3,460.7z M124.8,486c0.3-0.1,0.6-0.3,0.9-0.4C125.7,486.3,125.6,486.4,124.8,486z M128.2,501.9
		c-3.2,1.2-2-9.3-1.4-10.3c-2,0.4-1.4-1.3-1-2.2c-1.7,0.6,0.2-2.9,1.1-3.2c-0.7,2.2,1,3.6,0.2,5.8c0,1.1,1.6,1.8,0.2,3
		C127.8,496.4,127.7,499.7,128.2,501.9z M142.9,641.5c0.9,0.2,0.9,1.2,0,1C142.9,642.5,142.9,641.5,142.9,641.5z M143.4,659.6
		c0-0.1-0.2-0.2-0.1-0.2C143.3,659.4,143.6,659.5,143.4,659.6z M143.3,645.4v-0.5C143.5,644.8,143.5,645.5,143.3,645.4z
		 M143.4,644.5c-1.1,0,0-0.7-0.6-1.5C144.2,642.8,143,643.7,143.4,644.5z M145.6,691.5c0-0.1-0.2-0.2-0.1-0.2
		C145.5,691.3,145.7,691.4,145.6,691.5z M146.6,688c0.8-5.4,0.5-1.6,0.3,1.7C146.5,689.2,146.2,688.7,146.6,688z M146.9,693.2
		c0.3,1.6,0.7,3.6-0.2,5C146.6,696.5,146.5,694.9,146.9,693.2z M146.6,704.2c-0.2-0.9,0.7-1.9-0.3-2.9
		C147.7,698.9,147.8,704.7,146.6,704.2z M162.4,370.9c-2.3-0.3-6-1.1-7.9,0.2c-0.7-0.8-0.8-1.3-2.3-0.4c0-2-0.2-0.6-0.9-0.2
		c-0.9-1.6,2.9-1.8,2.6-0.4c1.4-0.9,3.9-1.5,4.7-0.4c1.3,0.2,0.4-0.4,0.8-1.3C160.3,369.8,163.9,368.7,162.4,370.9z M162.7,369.5
		c0.1-0.2,0.3-0.2,0.5-0.2C163.3,369.5,162.9,369.4,162.7,369.5z M189.5,619.2c0,0.2,0.2,0.7,0,0.7
		C189.4,619.7,189.1,619.2,189.5,619.2z M189.9,494.2c0.1,0.1,0.3,0.2,0.5,0.4C189.9,494.8,189.6,494.6,189.9,494.2z M188.9,570.7
		c-1.3-0.7-0.3-3.7-0.4-5.3C189.4,566.8,188.5,569.1,188.9,570.7z M188.1,564.4h0.5C188.7,564.9,188,564.9,188.1,564.4z
		 M189.6,492.8c-1-0.2-0.6,1.1-0.7,1.6c-1.4,1.1-0.2-0.9-0.6-1.8C187.9,490,188.9,492.1,189.6,492.8z"/>
	<path class="st1" d="M51,397.8c0,0,0-0.1,0-0.1C51,397.6,51,397.7,51,397.8z"/>
	<path class="st1" d="M124.2,460.5C124.2,460.6,124.2,460.6,124.2,460.5C124.2,460.5,124.2,460.5,124.2,460.5z"/>
</g>
<path class="st0" d="M195.8,410c-0.1-0.7-0.2-0.7-1-0.7c0-0.7,0-1.4,0-2.1c0-0.1-0.1-0.2-0.2-0.3v-0.5h0.5c-0.3-1.1-0.5-2.2-0.1-3
	c-0.1-0.4-0.2-0.6-0.2-0.9c0-0.8,0-1.7,0-2.5c0-0.1-0.1-0.2-0.2-0.3c-0.1-0.1-0.2-0.2-0.2-0.3c0.1-0.1,0.2-0.1,0.2-0.2
	c0.2-0.1,0.4-0.3,0.5-0.4c-0.1-0.6-0.5-1.2-0.1-1.8c0.1-0.1,0-0.3-0.1-0.4c-0.3-0.9-0.3-1.7,0.2-2.5c0,0,0-0.1,0-0.2
	c-0.1,0-0.3-0.1-0.4-0.1v-0.4c0-0.5-0.1-0.9-0.1-1.4c0-0.1-0.1-0.1-0.1-0.1c0.1-0.1,0.2-0.2,0.3-0.5c-0.2-0.1-0.4-0.2-0.6-0.2v-1.5
	c0.1,0,0.2,0,0.4-0.1c0-0.2,0-0.4,0-0.6c0.1-0.2,0.2-0.4,0.3-0.7c-0.3,0-0.5-0.1-0.7-0.1c0-0.1-0.1-0.2-0.1-0.3
	c0.1,0,0.3-0.1,0.4-0.1c0,0,0.1-0.1,0.1-0.1c-0.1-0.8,0.5-1.5,0.1-2.4c-0.2-0.5-0.1-1.2,0-1.8c0.2-0.9,0.5-1.7,0.3-2.6
	c-0.1,0-0.2,0-0.4-0.1v-1.1c0.1,0.1,0.2,0.1,0.4,0.2v-7c0.2,0.1,0.4,0.2,0.7,0.3c0.1-0.6,0.1-1,0.1-1.5c0.2,0,0.2,0,0.4,0
	c0.1,0.5,0,1,0.3,1.4c0.3,0.5-0.3,1-0.2,1.6c0.2,0.1,0.3,0.1,0.6,0.3c-0.2,0.4-0.4,0.8-0.7,1.3h1.1v0.4c-0.2,0.1-0.3,0.1-0.4,0.2
	c0.1,0.5,0.1,0.9,0.2,1.3c0.1,0.3,0,0.6,0.2,0.9c0.1,0.3,0,0.7,0,1.1c0,0.8-0.1,1.5-0.1,2.3c0,0.1,0.1,0.2,0.2,0.3
	c-0.2,0.5-0.4,1-0.8,1.6c0,0.1,0.1,0.4,0.2,0.7c-0.2,0.1-0.4,0.3-0.7,0.5c0.4,0.1,0.7,0.1,1,0.2c-0.2,0.3-0.4,0.6-0.6,0.8
	c0.1,0.4,0.2,0.9,0.2,1.2c-0.1,0.5-0.2,1.1-0.4,1.7c0.1,0.4,0.3,1,0.4,1.5c-0.2,0.1-0.3,0.1-0.6,0.3c0.1,0.2,0.2,0.3,0.3,0.5
	c-0.6,0.6-0.1,1.2,0.2,1.8c0.1,0.1,0.1,0.4,0,0.5c-0.4,0.7-0.4,1.4-0.6,2.1c0,0.1,0,0.1,0,0.2c0.2,0.1,0.3,0.2,0.6,0.3
	c-0.2,0.3-0.4,0.6-0.7,0.9c0.4,0.1,0.6,0.1,0.8,0.2c0,0.1,0,0.2,0,0.3c-0.2,0.1-0.3,0.1-0.5,0.2c0.1,0.6,0.3,1.2,0.4,1.8
	c-0.3,0.3-0.7,0.7-1.1,1.1c0.5,0,0.8,0.1,1.1,0.1v1.1l-0.4,0.5c0.1,0.8,0.2,1.5,0.3,2.5c0.1,0.1,0.3,0.3,0.5,0.5
	c-0.2,0.2-0.4,0.4-0.6,0.7c0.1,0.2,0.2,0.5,0.3,0.9c-0.4,0.1-0.8,0.3-1.2,0.5c0.3,0.2,0.6,0.4,0.9,0.6v1.4c-0.2,0.1-0.4,0.1-0.7,0.2
	C196,410.2,195.9,410.1,195.8,410L195.8,410z"/>
<path class="st2" d="M195.8,410l0.2,0.2v0.7c-0.1,0.1-0.2,0.1-0.2,0.2c0,0.5,0,0.9,0,1.4c0.2,0.1,0.3,0.2,0.5,0.3
	c-0.1,0.5-0.2,1-0.3,1.5c0.3,0.4,0.7,0.5,0.4,1.2c0,0-0.2,0.1-0.4,0.3c0.1,0.5,0.2,0.9,0.3,1.3c-0.2,0-0.5,0.1-0.9,0.2
	c0.3,0.4,0.6,0.7,0.9,1.1c-0.3,0.2-0.6,0.5-1,0.9c0.4,0.1,0.7,0.1,0.9,0.2v0.3c-0.1,0-0.3,0.1-0.5,0.2c0,0.5,0.2,1,0.5,1.5
	c-0.2,0.6-0.4,1.3-0.7,2c0.3,0.7,0.3,1.4,0,2.2c0,0,0,0,0,0c-0.1,0.1-0.1,0.1-0.2,0.2l0.1,0.1c0.1-0.1,0.1-0.1,0.1-0.2
	c0.1,0,0.3,0,0.5,0c-0.1,0.4-0.2,0.8-0.4,1.1c-0.2,0.3-0.2,0.5,0,0.8c0.1,0.3,0.1,0.6,0.1,0.9c0,0.5,0,1,0,1.6
	c-0.1,0-0.3,0.1-0.5,0.2c0.1,0.1,0.1,0.2,0.2,0.3c-0.2,0.1-0.4,0.2-0.6,0.3c0.2,0.3,0.4,0.4,0.6,0.6c-0.2,0.5-0.5,1-0.1,1.6
	c-0.1,0.9,0.6,1.8,0.1,2.8c-0.2,0.3,0.1,0.9-0.2,1.1c0.1,0.5,0.1,1,0.2,1.5c-0.2,0.1-0.4,0.3-0.6,0.4c0.2,0.7,0.5,1.4,0.1,2.1
	c-0.1,0.1,0,0.2,0,0.4c0.1,0.2,0.1,0.5,0.2,0.7h-0.9c-0.1,0.2-0.2,0.4-0.3,0.6c0.2,0.1,0.3,0.1,0.5,0.2v1.4c0.1,0.4,0.2,0.8,0.2,1.2
	c-0.1,0.1-0.2,0.2-0.2,0.3c0,0.2,0,0.5,0,0.7v1.2h-0.5c-0.1-0.1-0.2-0.2-0.3-0.2c-0.3,0-0.5,0.1-0.9,0.3c0.1-0.4,0.3-0.6,0.3-0.9
	c0-0.3-0.1-0.6-0.2-0.8c0.1-0.1,0.2-0.2,0.4-0.5h-0.6v-0.2c0.6-0.3,0-0.9,0.3-1.2c0.2,0,0.4-0.1,0.7-0.1c-0.3-0.1-0.4-0.2-0.6-0.2
	c0-0.1,0-0.3,0-0.5c0-0.1,0.1-0.3,0.1-0.4c0.2-0.6,0.2-1-0.1-1.4c0.1-0.4,0.2-0.9,0.3-1.4c-0.2,0-0.3-0.1-0.5-0.2v-1
	c0.4-0.2,1-0.1,1.3-0.7c-0.3-0.1-0.6-0.1-0.8-0.2c0.1-0.5,0.2-0.9,0.2-1.3c0-0.5-0.1-0.9-0.6-1c-0.1,0-0.1-0.2-0.1-0.5
	c0.2,0.2,0.3,0.2,0.4,0.3c0.1-0.2,0.2-0.5,0.4-0.7c-0.2-0.8-0.5-1.5-0.5-2.3c0.1,0,0.3-0.1,0.4-0.1c-0.2-1-0.2-1.9,0.1-2.9
	c0.4,0,0.2-0.4,0.2-0.5c0.1-0.6,0.1-1.1,0.1-1.9c0,0-0.1-0.1-0.1-0.3c-0.1-0.2,0.1-0.4-0.2-0.4v-0.5c0.2-0.1,0.4-0.2,0.4-0.3
	c-0.1-0.4-0.1-0.7-0.2-1c0-0.1-0.1-0.2-0.2-0.3v-0.5h0.5v-2.3c-0.1-0.1-0.3-0.2-0.5-0.3c-0.1-0.3-0.2-0.5-0.3-0.8
	c0.2-0.1,0.4-0.1,0.6-0.2c-0.2-0.1-0.4-0.1-0.6-0.2c0.2-0.1,0.4-0.2,0.6-0.4c0.1,0.1,0.1,0.3,0.1,0.4c0.4,0,0.8-0.2,1.1-0.6
	c-0.4-0.5-0.8-0.5-1.3-0.1c0-0.2,0.2-1.9,0.4-2.2c-0.2-0.1-0.3-0.2-0.5-0.3c0.1-0.2,0.2-0.3,0.3-0.5c-0.1-0.1-0.2-0.3-0.3-0.5
	c0.1-0.1,0.1-0.2,0.2-0.4c-0.1-0.1-0.1-0.1-0.2-0.2c0.1,0,0.3-0.1,0.4-0.1c0,0,0.1-0.1,0.1-0.1c0-0.3,0-0.6,0-0.9
	c-0.2-0.2-0.4-0.3-0.7-0.6h1.1c0.1-0.4,0.3-0.7,0.4-1.1c-0.3-0.2-0.6-0.4-1-0.7c0.4-0.1,0.6-0.2,0.9-0.3c-0.1-0.2-0.2-0.4-0.3-0.8
	c0.1-0.1,0.3-0.1,0.5-0.2l-0.1-0.1C195.4,410,195.6,410,195.8,410L195.8,410z"/>
<path class="st0" d="M52.4,363v0.2c-0.1,0.1-0.2,0.1-0.2,0.2c0,1.1,0,2.3,0,3.5c0,0.1,0.2,0.1,0.2,0.2v1h-0.5c0,2,0,3.9,0,5.8h0.4
	c-0.1,0.3,0.2,0.7-0.2,1c-0.1,0.1-0.1,0.3-0.1,0.4c0.4,0.7,0.2,1.5,0.2,2.3c0,0.3-0.2,0.6-0.2,0.9s0.2,0.6,0.2,0.9
	c0,0.2-0.1,0.3-0.2,0.5c0.3,0.5,0.4,1.1,0.1,1.6c-0.2,0.5,0,0.7,0.1,1.1c-0.7,0.5,0.1,1.2,0,1.8c-0.1,0-0.3,0.1-0.4,0.1
	c-0.2,0.3,0.2,0.7-0.3,0.9c-0.4,0-0.3-0.4-0.2-0.5c0.3-0.4,0.2-0.8,0.2-1.2c0-0.5,0-1,0-1.4c0-0.1-0.1-0.1-0.2-0.3
	c-0.3,0.1-0.5,0.2-0.8,0.3v3.2c0.1,0.1,0.2,0.2,0.3,0.4h0.6c0.2,0.3,0.4,0.5,0.7,0.9v0.7c-0.1,0.1-0.3,0.2-0.5,0.3v-0.4
	c-0.2,0-0.4,0-0.6-0.1c-0.1,0.2-0.3,0.4-0.3,0.6c-0.1,0.4-0.2,0.9,0,1.3c0.2,0.6,0.3,1.1,0,1.6c-0.1,0.2,0,0.5-0.1,0.8
	c0.2,0,0.3,0.1,0.5,0.1c0,0.5,0.2,1.1-0.3,1.8c0.2,0.1,0.4,0.2,0.5,0.2v1.9c-0.2-0.3-0.2-0.4-0.3-0.6h-0.6c-0.6-0.1,0.1-0.9-0.7-0.8
	c0.3-0.4,0.5-0.6,0.9-1c-0.3-0.1-0.6-0.2-0.6-0.2v-2.2c0.1-0.1,0.3-0.3,0.5-0.5c-0.3-0.8-0.7-1.5-1-2.2c0.4-0.4,0.4-0.8-0.1-1.3
	c0.3-0.1,0.4-0.1,0.5-0.1c0-0.1,0-0.1,0-0.2c-0.2-0.5-0.8-0.9-0.2-1.4c-0.1-0.4-0.3-0.9-0.2-1c0.4-0.5,0-1.2,0.4-1.6
	c0.1-0.1,0.1-0.6,0-0.7c-0.5-0.5,0-1.2-0.4-1.6c-0.1-0.1-0.1-0.5,0.1-0.8c0.1-0.2,0-0.5-0.1-1c0.1-0.3,0.4-0.7-0.1-1.2
	c0.2-0.2,0.5-0.3,0.8-0.5c-0.2-0.1-0.3-0.2-0.6-0.4c0.1-0.6-0.1-1.3,0.2-2c0.2-0.3-0.1-0.9-0.2-1.4c0.3,0,0.7-0.1,1.2-0.1
	c-0.7-0.2-0.7-0.8-1.2-1c0.2-0.9,0.5-1.7,0-2.5c0.2-0.4,0.5-0.7,0.8-1.2c-0.1-0.2-0.3-0.4-0.5-0.7c0-0.5,0-1.1,0.2-1.7
	c0.2-0.6-0.2-1.2,0.3-1.8c0.2-0.4-0.2-0.9-0.4-1.4c0-0.1,0-0.1-0.1-0.2c0.1-0.2,0.2-0.3,0.3-0.6c-0.3-0.1-0.5-0.1-0.8-0.2
	c0.2-0.6,0.4-1.2,0-1.8c-0.1-0.2,0.2-0.4,0.2-0.6c0.2-1,0.5-1.8,1.4-2.5c-0.3-0.2-0.5-0.3-0.7-0.4c0.3-0.3,0.5-0.6,0.7-0.8
	c0-0.4-0.1-0.6,0-0.9c0.4-1.3,0.4-1.3,0.8-1.5c-0.1-0.3-0.2-0.6-0.2-1c0.2-0.1,0.3-0.2,0.5-0.3c0-0.5,0-0.9,0.3-1.2
	c0.4-0.1,0.6,0.1,0.8,0.5c-0.1,0.1-0.3,0.1-0.5,0.3v0.7c-0.2,0.2-0.4,0.4-0.5,0.5c-0.2,1.6-0.7,3.1-0.8,4.6
	c-0.4,0.4-0.5,0.9-0.5,1.5c0,0.3,0,0.7-0.2,1c-0.4,0.6-0.3,1.2,0.2,1.7c0.1,0,0.2,0,0.3,0v-1.4c0.4,0,0.8,0,1.2-0.1v0.5
	c-0.4,0.2-0.5,0.6-0.5,1c0,0.3,0.1,0.6-0.2,1c-0.2,0.3,0,0.7,0,1.1C52.2,363,52.3,363,52.4,363L52.4,363z M51.7,381.7
	c-0.1-0.8,0.1-1.5-0.1-2.4c-0.4,0.4-0.6,0.6-0.9,0.9c0.2,0.3,0.4,0.5,0.6,0.7c-0.1,0.2-0.2,0.3-0.2,0.4
	C51.2,381.5,51.4,381.6,51.7,381.7z M51.6,386.8c-0.1-0.3-0.2-0.5-0.3-0.8c-0.3,0.4-0.5,0.6-0.6,0.9C51.1,387.1,51.4,387,51.6,386.8
	z"/>
<path class="st3" d="M30.6,449.4c-0.1-0.6,0.2-1.2-0.2-1.8c0.1-0.4,0.2-0.8,0.2-1.2c0-0.4,0-0.8,0-1.1c-0.8-0.5-1-1.3-1.4-2v-0.9
	c0.6-0.1,1.2-0.2,1.8-0.4c0.2-0.4,0.4-0.8,0.6-1.2c-0.3-0.7-0.7-1.3-0.7-2.2c0.5,0.1,1,0.2,1.4,0.3c0.1,0.4,0,0.8,0.5,0.9v0.2
	c-0.6,0.2,0,0.9-0.5,1.1c0.1,0.4,0.1,0.8,0.2,1.2c-0.6,0.3-0.8,1-1.4,1.4c0.4,0.7,0.2,1.4,0.3,2.3c0.2,0.2,0.5,0.4,0.8,0.7
	c-0.2,0.1-0.4,0.2-0.5,0.4v0.5c0.2,0.1,0.3,0.1,0.7,0.3c-0.3,0.2-0.5,0.3-0.7,0.4c0.2,0.3,0.4,0.5,0.5,0.8c0,0.1-0.1,0.2-0.1,0.2
	c-0.3,0-0.6,0-0.8,0.3c-0.2,0.3,0.2,0.7-0.3,0.9c-0.1-0.3-0.2-0.3-0.5-0.1c-0.1,0.1-0.3,0.1-0.5,0.1v-0.4c-0.1,0-0.3-0.1-0.3-0.1
	c0.2-0.2,0.4-0.4,0.7-0.7C30.2,449.4,30.4,449.4,30.6,449.4C30.6,449.4,30.6,449.4,30.6,449.4c0,0.1,0.1,0.2,0.1,0.2
	c0,0,0,0,0.1-0.1C30.7,449.5,30.7,449.4,30.6,449.4L30.6,449.4z"/>
<path class="st4" d="M219.3,429.5v-0.4c-0.2-0.1-0.3-0.1-0.5-0.2v-0.4h0.8c0.3,0.2,0.4,0.6,0.9,0.5c0.1,0.9-0.4,1.7-0.8,2.6h0.7
	c-0.1,0.5-0.2,1-0.4,1.6c0.1,0.1,0.3,0.3,0.5,0.5c-0.2,0.4-0.4,0.8-0.5,1.2c-0.1,0.5,0,0.9,0,1.4c-0.2,0.3-0.6,0.5-0.4,1
	c0.1,0.1,0.3,0.3,0.5,0.6c-0.1,0.1-0.2,0.3-0.3,0.4c0.1,0.3,0.1,0.5,0.2,0.8c-0.1,0-0.3,0-0.4-0.1c-0.2,0-0.4-0.1-0.5-0.2
	c-0.1-0.6-0.3-1.1-0.1-1.7c0.2-0.7,0.1-1.5,0.1-2.2c0.2-0.2,0.4-0.4,0.6-0.7c-0.3-0.1-0.4-0.2-0.6-0.3c0.1-0.6,0.1-1.2,0.2-2h-0.9
	c0.2,0.2,0.3,0.4,0.5,0.5c-0.2,0.2-0.5,0.4-0.7,0.6c-0.3-0.1-0.3-0.2-0.1-0.5c0.1-0.1,0.1-0.2,0.1-0.3c0-0.3,0-0.7,0.3-0.9
	c0.1-0.1,0.1-0.3,0.2-0.5v-0.4c0.2-0.1,0.5-0.3,0.7-0.4C219.3,429.9,219.3,429.7,219.3,429.5L219.3,429.5z"/>
<path class="st4" d="M232.2,450.3h0.2c-0.1,0.5-0.2,1.1-0.3,1.7c-0.1,0.1-0.3,0.2-0.4,0.2c-0.4,0.1-0.9,0.2-1.5,0.3
	c-0.1,0.3-0.4,0.6-0.6,1.1c-0.3-0.1-0.7-0.1-1.2-0.2c-0.1,0.2-0.3,0.4-0.6,0.9c0.1-0.4,0.1-0.6,0.1-0.9c-0.1-0.1-0.4-0.2-0.5-0.3
	c-0.2,0.1-0.3,0.1-0.3,0.1c-0.5,0.5-1.1,0.9-1.6,1.3c-0.1,0.1-0.2,0-0.4,0V454c0.4-0.1,0.7-0.2,1.1-0.4c-0.3-0.2-0.6-0.4-1-0.6
	c0.6-0.2,1-0.4,1.3-0.5c0.4-0.1,0.7-0.2,1.1-0.4c0.2-0.5-0.5-1-0.1-1.5c0.1,0.1,0.2,0.2,0.4,0.3v1.1c0.3,0,0.6,0,0.8,0
	c0.2,0,0.5,0.2,0.7,0.3C230.2,451.2,231.4,451,232.2,450.3L232.2,450.3z"/>
<path class="st4" d="M215.5,457.8c0.2,0.1,0.4,0.3,0.6,0.5h1c0-0.2,0.1-0.4,0.1-0.7h0.3c0.1,0.1,0.1,0.3,0.2,0.5
	c0.3-0.2,0.5-0.3,0.8-0.5c0.1,0,0.2,0,0.4,0c0.1,0,0.2,0.2,0.4,0.4c0.5-0.5,1-0.9,1.4-1.4c0.4-0.5,0.9-0.9,1.2-1.4
	c0.4-0.1,0.9,0.1,1.3-0.2c0.1-0.1,0.6-0.1,0.8,0.1c0.3,0.3,0.7,0.1,1,0.1c0.1,0.5-0.4,0.6-0.6,1c-0.5,0-0.9,0-1.4,0
	c-0.4,0-0.8,0.2-1.3,0.3c-0.1,0.4-0.1,1-0.9,0.9c-0.2,0.2-0.3,0.6-0.5,0.7c-0.5,0.2-1,0.4-1.6,0.5c-0.8,0.1-1,0.2-1.6,0.8
	c-0.7-0.2-1.6-0.1-2.2-0.8h0.5C215.5,458.2,215.5,458,215.5,457.8L215.5,457.8z"/>
<path class="st3" d="M239.7,436.4h-0.3c-0.2,0.7-0.5,1.3-0.7,1.9H238v-1.1c0.2-0.2,0.4-0.5,0.7-0.7v-1.1c0.4-0.4,0.8-0.8,1.2-1.2
	c0,0-0.1-0.1-0.1-0.1c0.2-0.5,0.4-0.9,0.6-1.4c0,0-0.1-0.1-0.1-0.1c0.3-0.2,0.6-0.4,0.9-0.7c-0.2-0.1-0.4-0.2-0.6-0.3
	c0.3-0.5,0.5-1,0.8-1.6c-0.1-0.1-0.2-0.2-0.2-0.3c0.1-0.5,0.2-1,0.3-1.5c0.2-0.2,0.2-0.9,0.9-0.8c0,0.2,0,0.5-0.1,0.7
	c-0.2,0.5-0.4,1-0.7,1.6c0.2,0.1,0.3,0.1,0.5,0.2c-0.1,0.4-0.2,0.9-0.3,1.3c-0.1,0-0.2,0.1-0.4,0.1c-0.1,0.8,0.2,1.7-0.5,2.5
	c0.1,0.8-0.1,1.4-0.7,1.9C240,436,239.8,436.2,239.7,436.4L239.7,436.4z"/>
<path class="st3" d="M20.8,455.4c0-0.5,0.2-0.9,0.6-1.5c0,0.6,0.1,1,0.1,1.4c0.7-0.2,1,0.9,1.7,0.5c0.3,0.4,0.5,0.7,0.7,0.9
	c0.6-0.1,1.2-0.2,1.8-0.2c0.3-0.2,0.7-0.6,1.3-0.6c0.1,0.2,0.2,0.5,0.3,0.7c-0.4,0.7-1,0.9-1.7,1c-0.6,0-1.1,0.3-1.8,0.5
	c-0.5-0.4-1-0.8-1.5-1.2c-0.3,0-0.7,0.2-1-0.5v-0.9C21.1,455.4,20.9,455.4,20.8,455.4L20.8,455.4z"/>
<path class="st3" d="M219.1,438.8c0.2,0,0.4,0.1,0.5,0.2c0.1,0,0.3,0,0.4,0.1v0.4c0.2,0.1,0.4,0.3,0.7,0.4v0.7
	c-0.2,0.2-0.5,0.5-0.7,0.6v1c-0.3,0.3-0.7,0.6-1.1,0.9c0.2,0.2,0.4,0.3,0.6,0.4c0.1,0.4,0.2,0.8,0.3,1.3h-0.7v-0.5
	c-0.2,0-0.5,0-0.7,0.1c-0.2,0-0.5,0.1-0.7,0.1c0.1-0.6,0.2-1.2,0.3-1.9c0.2,0,0.5,0,0.9-0.1c-0.1-0.3-0.2-0.6-0.3-1
	c0.2-0.1,0.4-0.2,0.5-0.2v-0.9c0.2-0.2,0.3-0.4,0.6-0.6h-0.7C218.8,439.4,218.6,439.1,219.1,438.8L219.1,438.8z"/>
<path class="st0" d="M52.7,335.9c0.1,0.1,0.2,0.2,0.3,0.2c0.1,0,0.3,0,0.5,0.1c-0.1,0.2-0.2,0.4-0.3,0.6c0.1,0,0.3,0.1,0.5,0.2
	c-0.1,0.4-0.2,0.9-0.3,1.4c-0.2,0.5-0.2,1,0,1.3c-0.1,0.5-0.1,0.9-0.2,1.3c0,0.4,0,0.8,0,1.1c-0.2,0.2-0.2,0.3-0.3,0.4h-0.6
	c-0.2-0.1-0.3-0.2-0.5-0.4c0.1-0.4,0.1-0.9,0-1.6c0.2-0.2,0.5-0.5,0.9-0.9c-0.3-0.1-0.4-0.2-0.6-0.2c-0.1-0.5-0.2-1-0.3-1.5
	c0.2-0.1,0.3-0.1,0.5-0.2v-1.6C52.4,335.9,52.5,335.9,52.7,335.9L52.7,335.9z"/>
<path class="st0" d="M192.7,465h-0.4c-0.1-0.6-0.2-1.2-0.3-1.9c0.1-0.1,0.3-0.2,0.4-0.3c0.1-0.8-0.2-1.6,0.4-2.3c-0.4,0-0.7,0-1-0.1
	c-0.1,0.2-0.1,0.3-0.2,0.5c-0.1-0.2-0.2-0.3-0.4-0.5c0.1-0.1,0.2-0.3,0.2-0.5c-0.1,0-0.3-0.1-0.4-0.2c0,0,0.1-0.1,0.1-0.1
	c0.4,0.1,0.7,0.2,1.1,0.2c0.3-0.3,0.5-1.2,0.5-2.8c0.2-0.3,0.5-0.6,0.7-0.9c0.3,0.6,0.3,0.9,0,1.7c0.1,0.1,0.2,0.2,0.3,0.4
	c0,0.1,0,0.2-0.1,0.3c-0.1,0.1-0.1,0.2-0.2,0.3c0.1,0.1,0.2,0.3,0.2,0.3c-0.1,0.7-0.2,1.4-0.4,2.2c0,0.1,0.4,0.4,0.1,0.8
	c-0.3,0.4-0.6,0.8-0.1,1.3C193.3,463.9,193.1,464.3,192.7,465L192.7,465z"/>
<path class="st3" d="M206.3,308.8h0.6c0.1,0.3,0.3,0.6,0.4,0.9c0.2,0.1,0.4,0.2,0.6,0.3v1.1c-0.2,0.2-0.6,0.5-0.4,0.9
	c0.2,0.1,0.4,0.3,0.7,0.4c-0.1,0.8,0.1,1.5,0.7,1.9c-0.1,0.5-0.2,1-0.2,1.3c0.2,0.5,0.4,0.8,0.6,1.3h-0.6c-0.3-0.2-0.3-0.2-0.6-0.3
	c-0.4-1.1-0.2-2.3-0.8-3.4c0-0.9-0.3-1.7-0.5-2.5c-0.1-0.4,0-0.9,0-1.5c-0.2,0-0.5-0.1-0.8-0.1C206.2,309,206.2,308.9,206.3,308.8
	L206.3,308.8z"/>
<path class="st2" d="M136.3,608c0.2,0.2,0.4,0.5,0.5,0.7c-0.1,0.2-0.2,0.4-0.4,0.7c0.3,0,0.5,0,0.8,0.1v-1.1
	c-0.1-0.2-0.3-0.4-0.5-0.5c0.3-0.3,0.5-0.6,0.8-0.9c-0.2-0.1-0.3-0.2-0.5-0.2c0-0.1,0-0.2,0-0.3c0.2,0,0.4,0,0.7-0.1v2.5
	c0.2,0.1,0.4,0.2,0.6,0.3c-0.2,0.5-0.9,0.3-0.7,1c-0.2,0-0.4,0-0.6,0.1c-0.1,0.2-0.3,0.4-0.5,0.7c0.3,0.3,0.5,0.5,0.7,0.8
	c-0.3,0.4-0.5,0.7-0.8,1c-0.2-0.1-0.5-0.2-0.8-0.4c0.1-0.2,0.2-0.4,0.3-0.7c-0.2-0.1-0.3-0.2-0.5-0.3v-0.3c0.2,0,0.5-0.1,0.7-0.2
	c0-0.5-0.8-0.7-0.4-1.3c0.1-0.1,0.3-0.1,0.4-0.2c0-0.5-0.6-0.6-0.5-1.1C135.7,607.7,136.1,608.1,136.3,608L136.3,608z"/>
<path class="st3" d="M11.9,444.1h0.4c0,0.2,0.1,0.4,0.1,0.7h1.3c0,0-0.1,0.1-0.1,0.1c0.3,0.2,0.5,0.4,0.7,0.5
	c-0.1,0.6-0.2,1.1-0.3,1.5c0.4,0.5,0.7,0.9,1,1.4c0.1,0.1,0.2,0.5-0.2,0.5c-0.5-0.4-1-0.7-1.2-1.3c0-0.1-0.1-0.2-0.2-0.2
	c-0.8-0.1-0.8-1-1.3-1.4c-0.3-0.2-0.2-0.8-0.4-1.1c0-0.1-0.1-0.3-0.2-0.4C11.6,444.4,11.7,444.2,11.9,444.1z"/>
<path class="st3" d="M57.7,339.7c-0.2,0.1-0.3,0.2-0.6,0.3c-0.3-0.6-1.1-1-0.8-1.9h-0.8c-0.2-0.2-0.4-0.5-0.6-0.7v-0.6
	c-0.3-0.3-0.6-0.6-0.9-0.9c0-0.4-0.1-0.6-0.1-1h-0.4c-0.1-0.1-0.2-0.2-0.2-0.3c-0.1-0.1-0.2-0.1-0.2-0.2l-0.2-0.5h1.8
	c-0.1,0.3-0.2,0.5-0.3,0.8c0.4,0.4,0.5,1.1,1.2,1.3c0.2,0.1,0.2,0.4,0.4,0.8c0.5,0,0.9,0.2,1.1,0.9c0.1,0.4,0.4,0.8,0.7,1.1
	C57.7,339.2,57.7,339.4,57.7,339.7z"/>
<path class="st0" d="M194.1,447.7h0.5c0.5,0.1,0.1,0.5,0.3,0.9c-0.3,0.2-0.5,0.4-0.9,0.7c0.2,0.3,0.4,0.5,0.6,0.8
	c-0.1,0.5,0.2,1.1-0.3,1.7c0.1,0.1,0.1,0.2,0.2,0.4c-0.1,0.2-0.1,0.5-0.2,0.8c-0.1,0.2-0.1,0.5-0.2,0.7c0.1,0.3,0.2,0.6,0.3,0.9
	c-0.2,0.1-0.4,0.1-0.5,0.2v1.1h-0.5c-0.5-0.4-0.2-0.9-0.2-1.4c0-0.2,0.1-0.5,0.2-0.7c0.4-0.4,0.1-0.7-0.1-1.1
	c0.1-0.1,0.2-0.2,0.3-0.3c0.1-0.1,0.2-0.2,0.3-0.3c-0.6-0.6-0.1-1.2,0-1.9c-0.1-0.1-0.3-0.1-0.5-0.2c0-0.1-0.1-0.4,0-0.5
	C194,449,193.9,448.3,194.1,447.7L194.1,447.7z"/>
<path class="st3" d="M2.5,376.7v0.4c0.2,0.2,0.5,0.3,0.8,0.5c-0.1,0.3-0.2,0.6-0.3,0.9c0.1,0.2,0.2,0.3,0.3,0.5
	c-0.4,0.2-0.8,0.3-1.2,0.5v2h-1c0-0.5-0.1-1,0.2-1.4c-0.4-0.6-0.1-1.2-0.3-1.9c0.4-0.1,0.8-0.2,1.2-0.4c-0.1,0-0.1-0.1-0.2-0.1
	c-0.1,0-0.1,0-0.2-0.1C1.9,377.1,2.1,376.8,2.5,376.7L2.5,376.7z"/>
<path class="st0" d="M51.5,403.3c0.4,0,0.2,0.4,0.3,0.6c0.1,0.1,0.3,0.2,0.6,0.4c-0.2,0.1-0.4,0.1-0.6,0.2c0.1,0.3,0.2,0.6,0.3,1
	c-0.1,0.1-0.3,0.4-0.5,0.6c0.3,0.9,0.7,1.8,0.5,2.8c0.2,0.2,0.4,0.4,0.6,0.6c-0.3,0.2-0.2,0.8-0.5,1h-0.2v-0.7h-0.5
	c0-0.1,0-0.3,0-0.4c-0.5-0.4-0.2-0.8,0-1.1c-0.2-0.2-0.3-0.4-0.5-0.6c0.2-0.4,0.4-0.7,0.6-1.1c-0.2-0.1-0.3-0.2-0.6-0.3
	c0.2-0.2,0.3-0.5,0.6-0.8c-0.2-0.3-0.3-0.7-0.6-1.2C51,404,50.9,403.5,51.5,403.3L51.5,403.3z"/>
<path class="st3" d="M215.7,448.7c0.5,0.2,0.1,0.6,0.2,0.9c-0.1,0-0.2,0-0.4,0.1c-0.1,0.3-0.2,0.7-0.4,1.3c0.5-0.2,0.7-0.3,1-0.4
	c0,0.2,0.1,0.3,0.1,0.4c-0.2,0-0.4,0.1-0.4,0.1c-0.5,0.4-0.9,0.7-1.2,1c-0.4,0.6,0.5,1.2,0.1,1.9c-0.1-0.2-0.1-0.3-0.2-0.5h-0.6
	c0.1-0.4-0.1-0.7,0.2-1.1c0.1-0.1-0.1-0.6-0.2-0.9c0.2-0.1,0.3-0.1,0.5-0.2c-0.1-0.2-0.2-0.4-0.3-0.6c0.3-0.2,0.5-0.5,0.7-0.6V449
	C215.1,448.9,215.4,448.8,215.7,448.7L215.7,448.7z"/>
<path class="st2" d="M73.8,567.4c0.2-0.1,0.3-0.2,0.5-0.2c0.7,0.2,0.3,0.8,0.6,1.1c0.4,0.5-0.1,0.8-0.1,1.1c0.1,0.1,0.2,0.2,0.3,0.3
	c-0.2,0.5-0.4,0.9-0.1,1.5c0.2,0.4,0.1,0.9,0.2,1.5h-0.4c-0.2-0.2-0.3-0.4-0.5-0.7c0.1-0.2,0.2-0.5,0.3-0.9
	c-0.2-0.1-0.4-0.2-0.6-0.4c0.1-0.5,0.1-1,0.2-1.6C73.7,568.8,73.7,568.1,73.8,567.4z"/>
<path class="st3" d="M17.2,451.1c0.4-0.1,0.6,0.1,0.7,0.5c0,0.1,0,0.3,0.1,0.5c0.5-0.2,0.3,0.6,0.8,0.5c0-0.1,0.1-0.3,0.2-0.4
	c0,0,0.1,0.1,0.1,0.1c0,0.8,0.2,1.4,0.8,2c0.1,0.1,0.2,0.1,0.3,0.1c0.1,0.4,0.2,0.8,0.3,1.2c-0.3-0.1-0.6-0.2-1-0.4
	c-0.1-0.3-0.3-0.6-0.6-1c-0.2-0.1-0.5-0.2-0.8-0.4v-0.8c-0.3-0.2-0.6-0.4-1-0.7C17.2,451.8,17.2,451.4,17.2,451.1L17.2,451.1z"/>
<path class="st3" d="M215.5,457.8v0.7h-0.8l-0.6-0.6v-1.2c-0.2-0.2-0.4-0.4-0.6-0.6c0.2-0.2,0.4-0.3,0.6-0.4
	c0.2,0.1,0.5,0.2,0.7,0.2v0.8C214.9,457.1,215.6,457.2,215.5,457.8L215.5,457.8z"/>
<path class="st3" d="M5.2,429.2c0,0,0.1,0,0.1,0c0.8,0.3,2.1,1.8,2.3,2.6c0,0.1,0,0.1-0.1,0.3H6.9c-0.1-0.1-0.2-0.2-0.4-0.4
	c0.2-0.7-0.6-1-0.9-1.6C5.2,429.8,5.2,429.6,5.2,429.2L5.2,429.2z"/>
<path class="st0" d="M138.2,699.1H138v-0.3c-0.2-0.2-0.5-0.3-0.8-0.5c0.1-0.2,0.2-0.4,0.3-0.7c-0.2-0.3-0.8-0.5-0.4-1.1
	c0.1,0,0.2,0,0.4-0.1c0-0.2,0.1-0.5,0.1-0.9c0.1,0.1,0.2,0.1,0.2,0.2c0.1,0,0.3,0.1,0.4,0.1c0.1,0.1,0.2,0.2,0.3,0.4
	c-0.2,0.1-0.4,0.1-0.5,0.2C138.4,697.3,138.2,698.2,138.2,699.1L138.2,699.1z"/>
<path class="st0" d="M192,473.1v-0.4c-0.3-0.2-0.9,0-0.9-0.5c0.3-0.3,0.5-0.5,0.8-0.8c-0.1-0.6-0.2-1-0.3-1.5
	c0.1-0.3,0.4-0.5,0.7-0.4c-0.1,0.2-0.1,0.4-0.2,0.7c0.2,0,0.4,0.1,0.8,0.2c-0.2,0.3-0.4,0.5-0.6,0.8c0,0.5,0,1.1,0,1.7
	C192.2,472.9,192,473,192,473.1L192,473.1z"/>
<path class="st3" d="M218.1,432.3c-0.1,0.1-0.1,0.2-0.1,0.3c-0.1,0.2-0.2,0.4,0.1,0.5c-0.1,0.9-0.4,1.4-1.4,1.9
	c0.1-0.5,0.2-1.1,0.3-1.6c0.1-0.3,0.2-0.6,0.3-1C217.5,432.3,217.8,432.3,218.1,432.3L218.1,432.3z"/>
<path class="st0" d="M190.5,492.3c-0.3-0.3-0.7-0.6-1-0.8c0.1-0.4,0.2-0.7,0.3-1c0.3-0.1,0.7-0.2,1.1-0.3c0.1,0.7-0.1,1.4-0.3,2.1
	C190.7,492.3,190.6,492.3,190.5,492.3L190.5,492.3z"/>
<path class="st2" d="M77.1,603.4h0.6c0.2,0.5,0.7,0.9,0.1,1.4c0.2,0.4,0.4,0.8,0.6,1.3c-0.2,0.2-0.4,0.3-0.6,0.4
	c-0.1-0.1-0.2-0.2-0.5-0.4c0.1-0.3,0.1-0.7,0.2-1.1C77.1,604.6,77.6,603.9,77.1,603.4z"/>
<path class="st0" d="M138.2,691.9h-0.4c-0.4-0.5,0.4-1,0.1-1.5c0.3-0.2,0.5-0.4,0.8-0.7c0,0,0.1,0,0.1,0
	C139.1,690.6,138.9,691.4,138.2,691.9L138.2,691.9z"/>
<path class="st3" d="M242.6,327.3c-0.3-0.3-0.6-0.5-1-0.8c0.1-0.7-0.5-1.3-0.1-2.1c0.1,0.1,0.2,0.2,0.4,0.3
	c-0.1,0.1-0.1,0.2-0.2,0.4c0.2,0.1,0.4,0.3,0.6,0.5C242.4,326,242.5,326.6,242.6,327.3L242.6,327.3z"/>
<path class="st0" d="M194.6,444.3V443c-0.2-0.1-0.3-0.1-0.5-0.2c0.1-0.2,0.2-0.4,0.3-0.6h0.9c0.1,0.8-0.1,1.5-0.4,2.2H194.6z"/>
<path class="st0" d="M138.2,694.8c-0.2-0.1-0.5-0.2-0.7-0.2v-1.3c0.2-0.3,0.2-0.8,0.7-0.9h0.5c-0.1,0.4-0.2,0.7-0.3,1h-0.4
	c0,0.1-0.1,0.2-0.1,0.2c0.1,0.3-0.2,0.6,0.2,0.8L138.2,694.8L138.2,694.8z"/>
<path class="st0" d="M191,489.5h-0.6c-0.1-0.1-0.3-0.2-0.4-0.3c0.1-0.6,0.2-1.1,0.2-1.6h0.7C191,488.2,191,488.8,191,489.5
	L191,489.5z"/>
<path class="st0" d="M192.2,469.3c-0.3-0.2-0.5-0.4-0.8-0.6c0.2-0.5,0.4-0.9,0.6-1.3h0.4c0.1,0.1,0.2,0.2,0.2,0.3
	c-0.1,0.5-0.3,1-0.3,1.5C192.4,469.2,192.3,469.3,192.2,469.3L192.2,469.3z"/>
<path class="st3" d="M11.4,441.2c0.2-0.1,0.4-0.2,0.7-0.3v1.7c-0.1,0.1-0.3,0.2-0.4,0.3c-0.2-0.1-0.3-0.2-0.5-0.4
	C11.2,442.1,11.3,441.6,11.4,441.2z"/>
<path class="st0" d="M196.3,412.9c-0.2-0.1-0.3-0.2-0.5-0.3c0-0.5,0-1,0-1.4c0-0.1,0.1-0.1,0.2-0.2h0.4c0.1,0.6,0.1,1.2,0,1.8
	C196.5,412.9,196.3,412.9,196.3,412.9z"/>
<path class="st3" d="M1.1,382.2h0.7v1.4H1.1c-0.1-0.2-0.1-0.5-0.2-0.7C0.9,382.7,1,382.4,1.1,382.2z"/>
<path class="st3" d="M1.1,385.6c0.2,0.1,0.5,0.1,0.7,0.2v1c-0.1,0.2-0.2,0.3-0.4,0.5c-0.2-0.5-0.4-0.9-0.6-1.4
	C0.9,385.8,1,385.7,1.1,385.6z"/>
<path class="st3" d="M213.8,454.2h0.6c0.2,0.5,0.1,0.8-0.4,1h-0.3C213.3,454.8,213.7,454.5,213.8,454.2z"/>
<path class="st0" d="M192.4,466.9c-0.5-0.1-0.6-0.5-0.4-1h0.8C193,466.4,192.9,466.7,192.4,466.9L192.4,466.9z"/>
<path class="st1" d="M51.2,409.8h0.5v0.7c-0.3,0.1-0.5-0.1-0.7-0.3C50.9,410,50.9,409.8,51.2,409.8z"/>
<path class="st1" d="M138.2,694.3c-0.5-0.1-0.1-0.5-0.2-0.8c0,0,0-0.1,0.1-0.2h0.4c0,0.2,0,0.5,0,0.7
	C138.5,694.2,138.3,694.2,138.2,694.3L138.2,694.3z"/>
<path class="st0" d="M194.6,446.5c0-0.2,0-0.5,0-0.7c0-0.1,0.1-0.2,0.2-0.3c0.5,0.1,0.1,0.5,0.2,0.8c0,0,0,0.1-0.1,0.2H194.6
	L194.6,446.5z"/>
<path class="st3" d="M11.2,439.5h0.9v0.5h-0.9V439.5z"/>
<path class="st3" d="M1.1,384.4h0.7c0,0.5-0.3,0.7-0.7,0.7V384.4z"/>
<path class="st0" d="M52.9,334.5c0.1,0.1,0.2,0.1,0.2,0.2c0.1,0.1,0.2,0.2,0.2,0.3v0.5c-0.3-0.1-0.5-0.2-0.7-0.3
	C52.7,334.9,52.8,334.7,52.9,334.5z"/>
<path class="st3" d="M102.5,104.4h0.7v0.5h-0.7V104.4z"/>
<path class="st0" d="M190.5,493.3h-0.4c-0.1-0.3,0-0.5,0.4-0.5c0.1,0.1,0.2,0.2,0.2,0.3C190.7,493.2,190.6,493.2,190.5,493.3
	L190.5,493.3z"/>
<path class="st4" d="M153.4,732.7v0.7c-0.3-0.4-0.5-0.7-0.7-0.9h0.3C153.1,732.6,153.2,732.7,153.4,732.7z"/>
<path class="st0" d="M51.5,401.9c0.3,0,0.3,0.2,0.2,0.4c-0.1,0.1-0.3,0.2-0.4,0.3C51.3,402.4,51,402,51.5,401.9z"/>
<path class="st0" d="M108.5,1.2c0,0.4-0.3,0.2-0.5,0.2V0.8C108.3,1,108.4,1.1,108.5,1.2z"/>
<path class="st3" d="M11.6,443.4c0.4,0,0.2,0.3,0.2,0.5h-0.4C11.3,443.7,11.3,443.5,11.6,443.4z"/>
<path class="st1" d="M192,474.5c0.1,0.1,0.1,0.1,0.2,0.2c0,0-0.1,0-0.1,0.1C192,474.7,192,474.7,192,474.5
	C191.9,474.6,192,474.6,192,474.5z"/>
<path class="st1" d="M190.2,560.9c0.1-0.1,0.1-0.1,0.2-0.2c0,0,0.1,0,0.1,0.1C190.4,560.9,190.4,560.9,190.2,560.9
	C190.3,560.9,190.3,560.9,190.2,560.9z"/>
<path class="st3" d="M20.5,455.4h0.2c0,0.1-0.1,0.1-0.2,0.2C20.6,455.5,20.6,455.4,20.5,455.4z"/>
<path class="st5" d="M83.1,31.5c-0.1,0.1-0.1,0.1-0.2,0.2l-0.1-0.1C82.9,31.5,83,31.5,83.1,31.5C83.1,31.4,83.1,31.4,83.1,31.5z"/>
<path class="st4" d="M232.5,450.3l0.2-0.2L232.5,450.3z"/>
<path class="st3" d="M186.2,367.1v0.6c-0.1,0.1-0.2,0.2-0.4,0.4c-0.1,0-0.2,0-0.3-0.1c-0.2-0.2-0.5-0.2-0.7-0.1
	c-0.6,0.2-3.3,0.2-3.8,0.1c-0.1,0-0.2-0.1-0.3-0.2c-0.8,0.5-1.5,0.8-2.4,0.3c-0.6,0.1-1.2,0-1.8,0.2c-0.7,0.2-1.5,0-2.2,0
	c-0.1-0.2-0.3-0.4-0.5-0.6c-0.1,0.4-0.1,0.7-0.2,1.1c-0.2-0.2-0.3-0.4-0.5-0.6h-0.9l-0.5-0.5c-0.3,0.1-0.6,0.3-0.9,0.5
	c-0.8-0.6-1.6,0.3-2.4-0.1c0-0.1-0.1-0.2-0.1-0.3c-0.1,0-0.1,0-0.2,0c-0.3,0.2-0.6,0.4-0.9,0.6c-0.2-0.3-0.3-0.6-0.5-1
	c-0.9,0.7-1.6,0.1-2.4-0.6c-0.1,0.4-0.1,0.6-0.2,1c-0.3-0.2-0.5-0.4-0.8-0.5c-0.3,0.1-0.7,0.2-1.1,0.3c-0.8-1-2.3-0.8-3.1-1.7h-0.9
	c-0.5-0.5-0.8-0.8-1.2-1.2c0.1-0.1,0.2-0.1,0.3-0.2h0.7v-0.5h-0.7v-0.5c-0.3,0-0.5,0-0.7,0.1v0.4c0,0.4-0.4,0.1-0.6,0.3
	c-0.2-0.4-0.4-0.8-1-0.8c-0.5,0-0.9-0.4-1.4-0.6c-0.3-0.2-0.6-0.4-0.9-0.6c-0.1,0.1-0.2,0.2-0.4,0.2c-0.8-0.2-1.3-0.6-1.4-1.2
	c-1.5,0.2-3-0.1-4.2-1c-0.5,0.1-1,0.2-1.4,0.3c-0.1-0.2-0.1-0.4-0.2-0.5c-0.3,0.1-0.6,0.2-0.9,0.3c-0.4-0.6-1.1-0.8-1.8-0.8
	c0,0-0.1-0.1-0.1-0.2c0.5-0.6,0.6-0.6,1.1-0.2c0.4,0.4,1.1,0.2,1.5,0.8c0.2-0.3,0.3-0.5,0.5-0.8c0.5,0.1,1.1,0.6,1.6-0.2
	c-0.1-0.1-0.2-0.3-0.3-0.5H146c-0.5-0.3-0.9-0.4-1.2-0.6c0.2-0.1,0.3-0.2,0.5-0.4c0.4,0.1,0.8,0.2,1.2,0.2c0.4,0.1,0.8-0.1,1.1,0.2
	c0.1,0.1,0.4,0,0.7,0c0.1,0.1,0.1,0.3,0.2,0.5c0.2,0,0.5,0,0.8,0c0,0.8,0.7,0.8,1.1,0.9c0.7,0.1,1.2,0.5,1.8,0.9v0.9h0.5v0.4
	c0.3,0.1,0.7,0.3,1,0.3c0.6,0,1.1,0.2,1.6,0.5c0.3-0.1,0.7-0.2,1.1-0.3c0.2,0.3,0.4,0.6,0.7,1c0.3,0,0.5,0,0.8,0
	c0,0.1,0.1,0.3,0.1,0.4h1c0.3,0.5,1,0.3,1.3,0.7c0.3,0.4,0.6,0.7,0.9,1c0.2-0.1,0.4-0.2,0.6-0.4c0.2,0.3,0.4,0.6,0.6,0.9
	c0,0,0.1,0,0.2,0.1c0.1-0.1,0.1-0.3,0.1-0.4h0.7c-0.1,0.2-0.2,0.4-0.2,0.6c0,0,0.1,0,0.1,0.1c0.2-0.1,0.5-0.2,0.8-0.4v-0.4
	c0.5-0.2,0.6,0.5,1,0.5c0.4-0.2,0.5-0.5,0.4-0.9c-0.2,0-0.4,0-0.5,0c-0.1-0.3-0.2-0.6-0.4-0.8c-0.2-0.2-0.6-0.2-0.9-0.4
	c0.8-0.3,1.3,0.2,1.9,0.6c0.1,0,0.2-0.1,0.3-0.2c0.1,0,0.1-0.1,0.4-0.2c0.1,0.1,0.2,0.3,0.4,0.5c-0.1,0.3-0.2,0.6-0.3,0.9
	c0.4,0.2,0.8,0.4,1.3,0.4c0.4,0,0.9,0.1,1.4,0.2v1.5c0.3-0.1,0.4-0.2,0.7-0.3c0.2,0.1,0.5,0.2,0.8,0.3c0.3-0.3,0.7-0.6,1.1-0.9
	c0.1,0.4,0.1,0.6,0.1,0.8c1.4,0.2,2.8,0.5,4.3,0.3c0.1-0.1,0.2-0.3,0.3-0.4c0.6,0,0.6,0.4,0.7,0.6c0.6,0.4,0.8-0.5,1.3-0.4
	c0.1-0.3,0-0.8,0.5-1c0.1,0,0.2,0,0.4,0.1c-0.2,0.3-0.4,0.6-0.6,0.9c0.2,0.1,0.4,0.2,0.7,0.4c0.1-0.2,0.4-0.5,0.6-0.9
	c0.9-0.2,1.7,0.1,2.4,0.5c0.1-0.2,0.2-0.4,0.2-0.5c0.3,0.1,0.6,0.2,1,0.3c0,0.2,0.1,0.4,0.2,0.8c0.4-0.3,0.7-0.6,1-0.9
	C185.2,366.9,185.7,367,186.2,367.1L186.2,367.1z M165.9,364.4L165.9,364.4l0.1-0.2h-0.1V364.4z"/>
<path class="st3" d="M103.7,104.4c0.3-0.5,0.8-0.1,1.2-0.3c-0.1,1.1,0.1,2,0.8,2.8c-0.2,0.1-0.4,0.2-0.6,0.3
	c0.7,0.8,0.8,1.8,1.1,2.7c0.1,0.1,0.1,0.3,0.1,0.4c-0.1,1.4,0.5,2.7,0.5,4.1c0.4,0.4,0.1,1.2,0.7,1.6c0.1,0.1,0.1,0.5,0.1,0.8
	c0.1,0.1,0.3,0.3,0.4,0.4c-0.1,0.4,0.1,0.8-0.2,1.2c-0.2,0.2,0,0.6,0.2,1c0.2,0.4,0.6,0.9,0.1,1.4c0.2,0.4,0.4,0.8,0.7,1.3
	c-0.2,0.9,0.5,1.5,0.9,2.3c0.2,0.4,0.7,1.7,0.8,2.1h-0.9c0-0.4,0-0.8-0.1-1.1c-0.1-0.1-0.2-0.2-0.2-0.2c-0.6-0.2-1.2-0.3-1.7-0.4
	c0-0.2,0.1-0.3,0.1-0.5c0.3,0.1,0.5,0.2,0.8,0.4c0-0.3,0.1-0.6,0.1-0.8c-0.2-0.2-0.4-0.4-0.5-0.6c0.2-0.4,0.4-0.7,0.1-1.2
	c-0.3-0.4-0.2-1.1-0.3-1.7c-0.3-0.4-0.6-0.9-0.9-1.4c0.1-0.4,0.5-0.6,0.1-1.1c-0.2-0.2-0.1-0.6-0.1-0.9c-0.1-0.4-0.1-0.8-0.3-1.2
	c-0.1-0.2-0.4-0.4-0.7-0.7c0.8-1.2-0.3-2.3-0.3-3.5c-0.2-0.1-0.3-0.2-0.6-0.3c0.2-0.2,0.3-0.4,0.6-0.7c0.1-0.7-0.2-1.3-0.6-1.9
	c-0.5-0.8-0.9-1.5-0.4-2.4c0.2-0.4-0.2-1.2-0.8-1.5C103.8,104.5,103.8,104.4,103.7,104.4L103.7,104.4z"/>
<path class="st3" d="M131.5,146.4h0.6c0.1,0.1,0.2,0.2,0.3,0.4c0,0.2,0,0.5,0,0.8h1.1c0.2-0.3,0.4-0.6,0.7-0.9h1.2v-1.3
	c0.5-0.5,1-1,1.5-1.5v-1c0.1-0.1,0.3-0.3,0.5-0.4v-1.5c0.1,0,0.2-0.1,0.4-0.1c0-0.2,0.1-0.5,0.1-0.9c0.2-0.1,0.4-0.1,0.7-0.2
	c-0.1,0.2-0.1,0.5-0.2,0.7c-0.1,0.3-0.3,0.5-0.2,0.9c0.1,0.6-0.1,1.2-0.4,1.8c-0.2,0.6-0.3,1.1,0.1,1.7c-0.3,0.6-0.5,1.2-0.9,1.9
	c-0.5,0.1-1.1,0.2-1.8,0.4v0.9h-1.2c-0.2,0.3-0.3,0.5-0.5,0.8c-0.2-0.1-0.4-0.3-0.8-0.5h-0.9c-0.1-0.1-0.1-0.2-0.1-0.2
	c0-0.4,0.1-0.7-0.3-1C131.6,146.8,131.6,146.5,131.5,146.4L131.5,146.4z"/>
<path class="st3" d="M138.7,139.6c0.1-0.2,0.1-0.4,0.2-0.5c0.4-0.7,0.8-1.4,1.3-2.2c0.8,0.2,1.3-0.2,1.8-0.5
	c0.6-0.3,1.1-0.8,1.5-1.2c0.5-0.6,1.2-1,1.9-1.3c0.9-0.4,1.8-0.8,2.7-1.2v0.6c0.2,0.1,0.4,0.3,0.7,0.6H147c-0.2,0.6-1,0.4-1.1,1.2
	c0.2,0,0.4,0.1,0.7,0.1c0,0,0.1,0.1,0.1,0.1c-0.3,0.3-0.5,0.8-1.1,0.6c-0.1-0.1-0.1-0.3-0.2-0.5c-0.2,0.1-0.3,0.3-0.5,0.3
	c-1,0.1-1.5,1-2.4,1.2c-0.3,0.8-1.2,0.6-1.8,1.1c-0.3,0.5-0.3,1.2-0.8,1.8C139.5,139.6,139.1,139.6,138.7,139.6L138.7,139.6z"/>
<path class="st3" d="M152.6,123.8c-0.9-0.2-1.1-0.8-0.7-1.7c-0.1-0.2-0.2-0.3-0.3-0.6c0.2-0.1,0.3-0.1,0.5-0.2
	c0.2-0.5-0.2-0.3-0.4-0.5c0.1-0.8-0.3-1.7,0.7-2.4c0.1-0.3,0.1-0.6,0.2-1.2c0,0-0.2-0.3-0.2-0.5c0-0.3,0.1-0.6,0.2-0.9
	c0.1-0.2-0.2-0.6,0.2-0.7c0.5,0.1,0.1,0.5,0.3,0.6c0.2,0.2,0.3,0.3,0.5,0.5c-0.2,0.2-0.4,0.4-0.6,0.6v0.8c0.1,0.1,0.3,0.2,0.6,0.4
	c-0.3,0.3-0.5,0.6-0.7,0.8h-0.7c0.2,0.2,0.4,0.4,0.6,0.6v1.1c0.2,0.2,0.3,0.3,0.5,0.5c0,0.3,0.1,0.8-0.1,1.1c-0.3,0.5,0,0.7,0.1,1.1
	C153.2,123.7,153,123.9,152.6,123.8L152.6,123.8z"/>
<path class="st3" d="M120,140.6c0.1-0.1,0.1-0.2,0.2-0.3c0.8,0.5,1.6,1,2.4,1.5c0.3,0.2,0.8,0.2,1.2,0.4c0,0.1,0.1,0.2,0.1,0.4
	c1.1-0.1,2.1,0.2,3,0.7c0.4,0.2,0.8,0.4,0.7,1H127c-0.7-0.2-1.2-1-2.2-0.9v1c-0.2,0-0.4,0-0.4-0.1c-0.2-0.7-0.8-1.1-1.4-1.3
	c-0.4-0.1-0.6-0.6-1.2-0.6c-0.4,0-0.8-0.4-1.1-0.7C120.4,141.3,120,141.1,120,140.6L120,140.6z"/>
<path class="st3" d="M88.9,354.6c-0.1,0.1-0.2,0.2-0.3,0.2c-0.6,0-1.1,0-1.7,0c-0.2,0-0.4,0.1-0.7,0.2c-0.1,0-0.3-0.2-0.5-0.2
	c-1.1,0.1-1.9-0.6-2.9-0.8c-0.3,0-0.4-0.6-0.9-0.5c0.1-0.2,0.2-0.5,0.5-0.9c0.2,0.3,0.2,0.4,0.4,0.6c0.4,0.2,0.9-0.2,1.4,0.2
	c0.5,0.4,0.8-0.4,1.5,0c0,0,0.1,0.1,0.2,0.2c1,0.1,2,0.2,3.1,0.4C88.9,354.3,88.9,354.5,88.9,354.6L88.9,354.6z"/>
<path class="st3" d="M148.1,132.2c0.2-0.2,0.3-0.4,0.5-0.6c0.4-0.4,0.6-0.5,0.7-0.9c0-0.6,0.4-0.6,0.9-0.7c0.2-0.5,0.1-1.2,0.9-1.4
	c0.1-0.5,0.7-0.7,0.6-1.3c0-0.3,0.1-0.6,0.3-0.8c0.2-0.3,0.1-0.5,0.1-0.8h0.4c0.2,0.7,0.1,1.3-0.4,1.8v1c-0.3,0.2-0.6,0.5-0.9,0.8
	c-0.4,0.6-0.8,1.3-1.3,2.1c0,0,0,0.2,0,0.3c-0.3,0.3-0.5,0.5-0.8,0.8C148.9,132.4,148.5,132.3,148.1,132.2L148.1,132.2z"/>
<path class="st3" d="M113.6,131.2c-0.1,0.4,0.2,0.6,0.4,0.7c0.5,0.3,1,0.7,1.5,1c-0.3,1.3,0.7,1.9,1.3,2.6c0.1,0.4,0.2,0.8,0.4,1.3
	c0.3,0.1,0.8,0.3,0.7,0.8h-0.6c-0.3-0.3-0.8-0.5-0.6-1c-0.6-0.7-1.2-1.4-1.9-2.2v-0.8c-0.3-0.2-0.5-0.4-0.8-0.6v-0.8
	c-0.3-0.1-0.6-0.2-0.9-0.4v-0.7C113.3,131.2,113.4,131.2,113.6,131.2L113.6,131.2z"/>
<path class="st3" d="M110.4,127.2c0.3,0.1,0.5,0.2,0.8,0.3c0.3,0.4,0.5,0.8,0.9,1.2c0.5,0.5,0.8,1.1,0.7,1.8
	c-0.2-0.1-0.3-0.1-0.5-0.2c-0.1,0-0.3-0.1-0.4-0.1c0-0.4,0.1-0.7-0.4-1h-0.6c-0.3-0.4-0.6-0.8-0.9-1.1
	C109.9,127.8,110,127.4,110.4,127.2z"/>
<path class="st3" d="M152.6,111.3c-0.5-0.2-0.2-0.6-0.2-0.9c0-0.6,0-1.2-0.5-1.6c0-0.8-0.1-1.6-0.7-2.2c-0.1-0.1,0-0.2,0-0.3h0.6
	c0.2,0.3,0.5,0.7,0.8,1v1.3c0.2,0.2,0.5,0.4,0.7,0.7c-0.1,0.6-0.2,1.3-0.3,2C152.9,111.3,152.8,111.3,152.6,111.3L152.6,111.3z"/>
<path class="st3" d="M70.2,348.1c0,0.2,0.1,0.5-0.4,0.5c0-0.2-0.1-0.4-0.1-0.6c-0.2-0.1-0.4-0.3-0.6-0.5c-0.1,0-0.3,0.1-0.6,0.1
	c-0.2,0-0.4-0.1-0.6-0.2c-0.2-0.2-0.5-0.2-0.8-0.3c-0.1-0.5-0.4-0.8-0.8-1.2v-0.5c0.2,0,0.3,0,0.4,0c0.2,0.3,0.4,0.6,0.7,1
	c0.2-0.1,0.3-0.2,0.6-0.3c0.1,0,0.2,0.1,0.3,0.2c0.1,0,0.2,0.1,0.4,0.1c0-0.2,0.1-0.5,0.2-1c0.1,0.4,0.2,0.5,0.3,0.7
	c0,0,0.1-0.1,0.1-0.1v0.7c0.3,0.2,0.7,0.5,1,0.7c-0.1,0.2-0.2,0.3-0.3,0.5C70,348.1,70.1,348.1,70.2,348.1L70.2,348.1z"/>
<path class="st3" d="M110,357c-0.4,0.1-0.9,0.2-1.4,0.3c-0.2,0.4-0.3,0.8-0.9,0.6c-0.1-0.2-0.2-0.3-0.3-0.5
	c-0.1-0.1-0.2-0.2-0.3-0.2c0.2-0.2,0.3-0.4,0.5-0.6v-0.4c-0.2-0.1-0.3-0.2-0.8-0.5c0.6-0.1,0.8-0.1,1.1-0.2c0.2-0.1,0.4-0.3,0.8-0.6
	c0,0.3,0.1,0.4,0.1,0.5c-0.2,0-0.3,0.1-0.4,0.1v0.9c0.7,0.5,0.9-0.8,1.6-0.3C109.9,356.4,109.9,356.7,110,357L110,357z"/>
<path class="st3" d="M100.4,357.7v-0.7c0.6,0,1.2-0.2,1.8,0.1c0.2,0.1,0.6,0,0.9,0c0.2,0,0.5-0.1,0.8-0.1c-0.1,0.4-0.2,0.7-0.3,1
	c-0.3,0.1-0.6,0.2-0.8,0.2c-0.2,0-0.5-0.2-0.7-0.2c-0.5,0-1,0-1.5,0L100.4,357.7L100.4,357.7z"/>
<path class="st0" d="M164.1,365.2v0.4c-0.3,0.1-0.5,0.3-0.8,0.4c-0.1,0-0.1-0.1-0.1-0.1c0.1-0.2,0.1-0.4,0.2-0.6h-0.7
	c0,0.1-0.1,0.2-0.1,0.4c-0.1,0-0.1,0-0.2-0.1c-0.2-0.3-0.4-0.6-0.6-0.9c-0.2,0.1-0.4,0.2-0.6,0.4c-0.3-0.3-0.6-0.7-0.9-1
	c0.4,0,0.7,0,1.1,0c0.4,0,0.8-0.1,1.3-0.2c-0.1,0.3-0.1,0.6-0.2,0.9h0.7c0.1,0.5,0.5,0.1,0.7,0.2C164,365,164.1,365.1,164.1,365.2
	L164.1,365.2z"/>
<path class="st3" d="M63.4,344.3h-0.8c-0.3-0.6-1.3-0.4-1.6-1.2v-0.5c0.7-0.1,1.3,0.1,1.8,0.7c0.2,0.2,0.4,0.3,0.7,0.4V344.3
	L63.4,344.3z"/>
<path class="st3" d="M133.4,355.6c0.1-0.4,0.2-0.7,0.3-1c-0.5-0.3-0.9-0.6-1.4-1c0.9-0.3,1.6,0.4,2.2,0.1l0.4,0.4
	c-0.4,0.5-0.7,1.1-1.1,1.6C133.7,355.6,133.6,355.6,133.4,355.6z"/>
<path class="st3" d="M106.6,357.5c-0.2,0.4-0.6,0.5-1,0.5c-0.2,0-0.4,0.1-0.7,0.2c-0.1-0.1-0.3-0.1-0.4-0.2c0.1-0.5,0.2-1,0.3-1.6
	c0.3,0.4,0.5,0.7,0.7,0.9c0.4-0.1,0.7-0.2,1.2-0.4C106.6,357.2,106.6,357.3,106.6,357.5L106.6,357.5z"/>
<path class="st3" d="M79,352.7h-1.1c-0.3-0.4-0.8-0.8-1.3-1v-0.4c0.3,0,0.7,0,1-0.1c0.2,0.3,0.4,0.5,0.6,0.7c0.3,0,0.5,0.1,0.8,0.1
	C79,352,79,352.7,79,352.7z"/>
<path class="st3" d="M118.3,138.4c0.4,0.3,1.1,0.2,1.3,0.8c0.1,0.2,0.2,0.5,0.3,0.7c-0.1,0.3-0.2,0.5-0.2,0.8h-0.3
	c-0.1-0.5-0.6-1-1.3-1.5C118.2,138.8,117.9,138.5,118.3,138.4z"/>
<path class="st3" d="M152.9,114.7v-0.6c-0.2-0.2-0.5-0.4-0.7-0.7c0.2-0.5,0.3-1.1,0.5-1.6h0.8c-0.4,1-0.4,1.9,0,2.9H152.9z"/>
<path class="st3" d="M59.8,341.9h-0.6c-0.4-0.4-0.8-0.9-1.3-1.1v-0.4c0.2-0.1,0.5-0.1,0.8-0.2c0.3,0.3,0.7,0.5,1.1,1
	C59.8,341.3,59.8,341.6,59.8,341.9L59.8,341.9z"/>
<path class="st3" d="M190.5,366.6c0,0.1,0,0.2-0.1,0.2c-0.1,0-0.1,0-0.2,0h-1.6c-0.5,0-0.9,0.4-1.4,0.2v-0.7c0.6,0,1.1-0.2,1.6,0.2
	C189.6,366.3,190,366.3,190.5,366.6z"/>
<path class="st3" d="M128.2,144.2c0.2-0.4,0.6-0.3,0.9-0.1c0.3,0.1,0.5,0.2,0.8,0.4v0.6C128.8,145.2,128.4,145,128.2,144.2z"/>
<path class="st3" d="M65.1,345.5h-0.8c-0.5-0.2-0.4-0.6-0.4-1c0.1-0.1,0.2-0.2,0.3-0.3c0.2,0.3,0.4,0.6,0.6,0.8h1.3v0.5
	C66.1,345.5,65.1,345.5,65.1,345.5z"/>
<path class="st3" d="M113.1,132v0.9c-0.2,0-0.4,0-0.6,0.1c-0.1-0.4-0.2-0.8-0.4-1.2c0.2,0.1,0.4,0.1,0.6,0.2
	C112.8,131.9,112.9,132,113.1,132z"/>
<path class="st3" d="M111.8,130.2v0.9c-0.1,0-0.2,0-0.3,0.1c-0.1-0.4-0.2-0.7-0.4-1.3C111.4,130.1,111.7,130.2,111.8,130.2
	L111.8,130.2z"/>
<path class="st3" d="M152.2,125v-0.7h0.5c0.2,0,0.5-0.1,0.5,0.4C152.8,124.8,152.5,124.9,152.2,125z"/>
<path class="st3" d="M163.9,364.9c-0.2-0.1-0.6,0.2-0.7-0.2v-0.4c0.2,0,0.4,0,0.7-0.1V364.9L163.9,364.9z"/>
<path class="st3" d="M152.6,360.8v-0.4c0.2,0,0.4,0,0.7-0.1c0,0.2,0,0.3,0.1,0.5C153.1,360.8,152.9,360.8,152.6,360.8L152.6,360.8z"
	/>
<path class="st3" d="M186.7,367.1h-0.5c0-0.3-0.1-0.6,0.5-0.4V367.1z"/>
<path class="st3" d="M162.4,362.2c0.1,0.1,0.3,0.2,0.5,0.4c-0.3,0.1-0.4,0.1-0.6,0.1c0-0.2-0.1-0.3-0.1-0.4L162.4,362.2L162.4,362.2
	z"/>
<path class="st3" d="M149,133.2v0.2h-0.1L149,133.2L149,133.2z"/>
<path class="st3" d="M145.2,357.3c-0.1-0.1-0.1-0.1-0.2-0.2l0.1-0.1C145.1,357.1,145.2,357.1,145.2,357.3
	C145.2,357.2,145.2,357.3,145.2,357.3z"/>
<path class="st3" d="M152.2,125.5c-0.1-0.1-0.1-0.1-0.2-0.2c0.1,0,0.1-0.1,0.2-0.1C152.2,125.2,152.2,125.5,152.2,125.5z"/>
<path class="st3" d="M60.6,342.1c-0.1-0.1-0.2-0.2-0.2-0.2C60.4,342,60.5,342.1,60.6,342.1z"/>
<path class="st3" d="M163.2,363c0.1,0.1,0.1,0.1,0.2,0.2l-0.1,0.1C163.3,363.2,163.2,363.1,163.2,363C163.2,363,163.2,363,163.2,363
	z"/>
<path class="st3" d="M163.2,363c-0.1-0.1-0.1-0.1-0.2-0.2l0.1-0.1C163.1,362.9,163.2,362.9,163.2,363L163.2,363z"/>
<path class="st1" d="M125,352c0.1-0.1,0.1-0.1,0.2-0.2l0.1,0.1C125.2,351.9,125.2,351.9,125,352L125,352z"/>
<path class="st3" d="M110.4,357c-0.1,0.1-0.1,0.1-0.2,0.2c0-0.1-0.1-0.1-0.1-0.2C110.2,357,110.4,357,110.4,357z"/>
<path class="st2" d="M149.3,15.4c-0.4-0.3-1-0.1-1.3-0.7c-0.1-0.2-0.2-0.4-0.3-0.7c-0.2-0.1-0.6-0.2-0.8-0.4
	c-0.4-0.4-0.4-0.9-0.3-1.4c0.2,0,0.4,0,0.6,0.2c0.3,0.4,0.8,0.7,1,1.1c0.2,0.5,0.9,0.4,1,1.2C149.3,14.8,149.3,15.1,149.3,15.4
	L149.3,15.4z"/>
<path class="st2" d="M145.7,11c-0.4-0.1-0.9-0.2-1.4-0.3c-0.1-0.7-0.5-1.4-1.3-2V7.9c0.8,0,0.9,0.5,1,1.1c0.5,0.1,0.8,0.4,0.9,0.9
	c0.2,0.1,0.5,0.3,0.7,0.4C145.7,10.6,145.7,10.8,145.7,11z"/>
<path class="st0" d="M130.8,1.2c-0.1,0.2-0.1,0.5-0.2,0.7h-1.4c-0.1-0.1-0.2-0.3-0.3-0.5c-0.3,0.1-0.6,0.2-0.9,0.4V0.9
	c0.3-0.1,0.6-0.1,1.1-0.2c0,0,0.1,0.2,0.2,0.2C129.8,1,130.3,1.1,130.8,1.2z"/>
<path class="st0" d="M142.1,7.2c-0.7-0.2-1.2-0.9-1.9-1.2V5.3h0.7c0.2,0.2,0.4,0.5,0.6,0.8c0,0,0.1-0.1,0.1-0.1
	c0.3,0.1,0.5,0.2,0.8,0.4C142.2,6.6,142.2,6.9,142.1,7.2z"/>
<path class="st2" d="M150.2,16.3c-0.9,0-0.9,0-1-1C150.2,15.4,150.2,15.4,150.2,16.3z"/>
<path class="st2" d="M146.2,12h-0.4c0,0,0-0.1,0-0.2c0.1,0,0.3-0.1,0.5-0.1V12z"/>
<path class="st6" d="M88.4,53.5c0.1,0,0.2,0,0.4-0.1c0.1,0.4,0.2,0.8,0.2,1.2c-0.1,0.1-0.2,0.2-0.3,0.3C88.6,54.5,88.5,54,88.4,53.5
	z"/>
<path class="st6" d="M152.6,56.2c0-0.2,0-0.3,0-0.5c0,0,0.1,0,0.1-0.1c0,0.2,0.1,0.4,0.1,0.5C152.9,56.1,152.8,56.1,152.6,56.2z"/>
<path class="st2" d="M134.4,569.3c-0.1-0.3,0.1-0.4,0.2-0.6c0.1-0.2,0.2-0.5,0.3-0.7c-0.2-0.1-0.4-0.1-0.6-0.2
	c0.1-0.3,0.2-0.6,0.3-1c-0.2-0.2-0.4-0.3-0.5-0.4v-0.8c0.2-0.2,0.4-0.4,0.6-0.6c-0.4-0.4-0.8-0.7-1-0.9v-1.9c0.1,0,0.3-0.1,0.4-0.2
	v-1.3c-0.1-0.1-0.3-0.3-0.4-0.5v-0.8c-0.1,0-0.3,0-0.4-0.1c-0.4-0.4,0.3-0.8,0.1-1.2c-0.2-0.4-0.3-0.7-0.1-1.2
	c0.1-0.1,0.2-0.2,0.4-0.3c0-0.2,0.2-0.5-0.2-0.7c-0.1-0.1-0.2-0.2-0.2-0.2v-0.2c0.1-0.2,0.2-0.3,0.4-0.5h0.5
	c0.2,0.2,0.4,0.5,0.5,0.7h0.3v0.6c0.1,0,0.3,0.1,0.5,0.2v0.9c-0.3,0-0.3,0.2-0.2,0.4c0.1,0.2,0.2,0.5,0.2,0.6
	c-0.3,0.5-0.3,0.9,0,1.5c0.2,0.5,0.1,1,0.2,1.6h0.1c0.1,0.2,0.2,0.3,0.4,0.5c0.1-0.1,0.2-0.1,0.3-0.3v1.4c-0.1,0-0.2,0.1-0.4,0.1
	v1.3c0.1,0,0.2,0.1,0.4,0.2c-0.1,0.4,0.1,0.9-0.2,1.3c0.2,0.2,0.4,0.5,0.7,0.9v0.6c-0.2,0.1-0.3,0.2-0.6,0.4
	c0.3,0.1,0.5,0.2,0.7,0.3c-0.1,0.5,0.2,1-0.2,1.4c0.4,0.4,0.2,0.9,0.2,1.3c0,0.4,0.2,0.8-0.2,1.1c-0.1,0-0.1,0.3,0,0.3
	c0.4,0.6,0.2,1.3,0.2,1.9h-0.7v0.5h0.7c-0.1,0.1-0.1,0.2-0.1,0.3c0.2,0.4,0.2,0.8,0.1,1.3c-0.1,0.3-0.2,0.6-0.1,0.9
	c0.3,0.8,0.2,1.7,0.2,2.5c-0.1-0.1-0.3-0.1-0.5-0.2v1.3c0.2,0.1,0.3,0.1,0.6,0.3c-0.3,0.2-0.5,0.3-0.7,0.5c0.1,0.5,0.2,1.2,0.4,1.8
	h0.4c0.1,0.2,0.1,0.3,0.1,0.5c0.1,0.2,0.2,0.4-0.1,0.5c-0.1,0.1-0.2,0.1-0.2,0.2c0.1,0.1,0.2,0.2,0.2,0.3v0.5
	c-0.1,0.1-0.2,0.1-0.2,0.2c-0.1,0.8,0.2,1.7-0.2,2.5c0,0.1,0,0.2,0,0.2c0.5,0.8,0.2,1.5,0,2.3h0.5v0.5c-0.1,0.1-0.2,0.1-0.2,0.2
	c0.1,0.1,0.2,0.2,0.2,0.3c0.1,0.8,0.2,1.5,0.3,2.3c-0.2,0.2-0.4,0.3-0.7,0.5c0.2,0.4,0.4,0.8,0.6,1.3c-0.1,0.1-0.1,0.2-0.2,0.3
	c0.4,1,0.1,2.1,0.2,3.1c0.1,0.1,0.3,0.1,0.5,0.2c-0.5,0.6-0.6,1.3-0.6,2.1c0,1.3,0,1.3,0.2,1.8c-0.1,0.6-0.2,1-0.3,1.6
	c-0.2-0.2-0.5-0.4-0.6-0.6c-0.1,0.1-0.1,0.1-0.1,0.1c0,0.3,0,0.5-0.1,0.8c0.2,0.2,0.3,0.3,0.5,0.5v0.8c-0.1,0.1-0.3,0.3-0.5,0.4v0.9
	c-0.1-0.1-0.3-0.2-0.5-0.2c-0.4,0-0.2-0.3-0.3-0.5c-0.1-0.2-0.2-0.5-0.2-0.7c0-0.6,0.6-1,0.7-1.7c-0.2-0.2-0.4-0.4-0.7-0.6
	c0.1-0.3,0.2-0.6,0.3-0.9c-0.2-0.2-0.4-0.3-0.6-0.4v-0.5c0.1-0.1,0.2-0.1,0.2-0.2c0.2-0.7,0.3-1.4,0.4-2.1c-0.1,0-0.3-0.1-0.5-0.2
	c0.2-0.3,0.3-0.7,0.5-1c-0.1,0-0.2-0.1-0.4-0.1c0.1-0.6,0.2-1.2,0.2-1.8c0-0.6-0.4-1.2-0.2-1.9c0.1-0.1,0.3-0.3,0.4-0.4
	c-0.1-0.3-0.3-0.5-0.4-0.7c0.2-0.2,0.4-0.3,0.7-0.5c-0.6,0-0.9-0.4-1.2-0.8v-0.5c0.3,0.1,0.6,0.2,1,0.3c-0.1-0.5-0.2-0.9-0.3-1.2
	v-0.5c0-0.7-0.1-1.4,0.3-2.2h-0.6v-0.5h0.5v-1.6c-0.3-0.3-0.5-0.8-0.5-1.3c0.1-0.1,0.2-0.2,0.4-0.5h-1.1v-0.6c0.2,0,0.4-0.1,0.7-0.1
	c-0.2-1.2-0.4-2.3-0.7-3.6c0.1-0.5,0.2-1.1,0.4-1.7c-0.1-0.1-0.3-0.3-0.5-0.6c0.1-0.4,0.6-0.9,0-1.4c0.2-0.1,0.4-0.3,0.5-0.4
	c-0.2-0.3-0.3-0.6-0.5-0.9c0.1-0.3,0.2-0.5,0.3-0.9c-0.2-0.1-0.4-0.2-0.4-0.2c0.1-0.5,0.1-0.8,0.1-1.1c0.5-0.1,0.7-0.5,0.6-1h-0.6
	v-0.5c0.2-0.2,0.4-0.3,0.6-0.5c-0.3-0.1-0.4-0.2-0.6-0.3V570h1c-0.3-0.3-0.5-0.5-0.7-0.7C134.8,569.3,134.6,569.3,134.4,569.3
	L134.4,569.3z M135.8,574.1L135.8,574.1l-0.1,0.2h0.1V574.1z"/>
<path class="st2" d="M132.5,549.7c-0.2-0.1-0.5-0.2-0.7-0.3v-0.6c0.1,0,0.2-0.1,0.4-0.1c0-0.1,0-0.1,0-0.2c-0.4-0.4-0.4-0.9-0.4-1.4
	c0-0.4,0-0.8,0-1.2c-0.3-0.2-0.5-0.3-0.8-0.5c0.2-0.3,0.4-0.6,0.7-1c-0.3,0-0.6-0.1-0.8-0.1v-1.2c0.1,0,0.2,0,0.2-0.1
	c0.1-0.5,0.1-0.9,0-1.4h-0.7c-0.1-0.1-0.2-0.2-0.2-0.2c0.2-0.7,0.4-1.3,0.7-2.1c-0.2-0.2-0.6-0.6-0.9-1c0.1,0,0.2-0.1,0.2-0.1h0.6
	c-0.1-0.5-0.1-0.9-0.2-1.4c-0.2-0.1-0.4-0.3-0.8-0.5c0.3-0.2,0.4-0.3,0.6-0.4v-0.8c-0.1-0.1-0.3-0.3-0.5-0.4
	c-0.1-0.8,0.1-1.5-0.2-2.1c-0.1-0.2-0.1-0.6,0-0.8c0.4-0.7,0.1-1.3,0.2-2h-0.4c-0.2-0.2-0.3-0.4-0.5-0.6c0.1-0.1,0.1-0.2,0.2-0.2
	c-0.2-0.2-0.5-0.3-0.7-0.5c0,0,0.1-0.1,0.1-0.1c-0.1-0.4-0.2-0.8-0.1-1c0.3-0.4,0.1-0.7,0.2-1.1c0.7,0.2,1.2-0.3,1.8-0.5
	c0.2,0.3,0.4,0.5,0.6,0.8h0.2v0.5h-0.7c0,0,0.1-0.1,0.1-0.1c-0.2-0.1-0.3-0.2-0.6-0.4c0,0.2,0,0.3,0,0.5c0.2,0,0.3,0,0.5,0v0.5h0.9
	c0.1,0.7,0,1.4,0,2c-0.1,0.1-0.1,0.1-0.1,0.1c0,0-0.1,0-0.1-0.1c-0.1,0-0.1-0.1-0.2-0.1c0,0-0.1,0.1-0.1,0.1c0,0.5-0.2,1,0,1.4
	c0.2,0.4,0.2,0.8,0.2,1.2c-0.1,1.1,0.4,2.2,0.3,3.2c0,0.2,0,0.3,0,0.6c-0.3-0.1-0.4-0.2-0.7-0.3c0,0.2-0.1,0.4-0.1,0.7h1.1
	c-0.1,0.3-0.2,0.4-0.2,0.6c0.1,0.2,0.2,0.5,0.4,0.8v1.6c0.1,0,0.3,0.1,0.5,0.2v0.9h-0.7c0,0.3,0,0.5,0.1,0.7h0.7v0.6
	c0.2,0.1,0.4,0.2,0.6,0.4c-0.3,0.2-0.5,0.3-0.7,0.4c0.2,0.1,0.3,0.1,0.4,0.2c0,0.5-0.1,0.7-0.4,1.3c0.1,0,0.3,0.1,0.5,0.2
	c-0.1,0.3-0.2,0.5-0.4,0.8c-0.2,0-0.4,0-0.6,0.1v0.8c0.2-0.1,0.4-0.2,0.5-0.3c0.2,0,0.4,0,0.6,0c0.1,0.6,0.2,1.1,0.4,1.6
	c0.1,0,0.2,0.1,0.4,0.2c0,0.4,0,0.9-0.1,1.3c-0.1,0.4,0.3,0.7,0,1.2h-0.3c-0.1-0.1-0.2-0.2-0.3-0.2
	C132.9,549.6,132.7,549.7,132.5,549.7L132.5,549.7z M131.5,541.2c0-0.1,0-0.1,0-0.2c-0.1,0-0.3,0.1-0.4,0.1c0,0,0,0.1,0,0.1
	C131.2,541.2,131.4,541.2,131.5,541.2z"/>
<path class="st2" d="M126.7,457.8c-0.1,0.7,0.2,1.4-0.2,2c-0.1,0.2,0.1,0.5,0.2,0.8c0,0.1-0.2,0.2-0.2,0.3c-0.1,0.1-0.2,0.2-0.2,0.3
	c0,0.9,0,1.9,0,2.8h-0.5v0.5c-0.2-0.1-0.5-0.2-0.8-0.4c0.1-0.3,0.2-0.5,0.2-0.8c-0.1-0.4-0.2-0.7-0.3-1.1c-0.7-0.3-0.7-0.9-0.7-1.5
	h0.4c0.1-0.4,0.5-0.7,0.3-1.1c-0.1,0-0.2-0.1-0.4-0.1v-1.3c0.1-0.1,0.3-0.3,0.5-0.5c-0.3-0.3-0.7-0.5-1-0.6c0-0.1,0.1-0.3,0.1-0.5
	c0.2,0.1,0.4,0.2,0.5,0.3c0-0.1,0.1-0.1,0.1-0.2c-0.1-0.5,0.1-0.9-0.2-1.4c-0.2-0.3-0.1-0.9,0.2-1.3c0.1-0.1,0.3-0.2,0.4-0.3
	c-0.5-0.4-0.1-0.8,0.1-1.2c-0.6-0.1-1.1-0.3-1.7-0.4c-0.1-0.1-0.2-0.3-0.4-0.7c0.5,0.2,0.8,0.2,1,0.3c0.3-0.3,0.6-0.6,1-1v-0.6
	c-0.1,0-0.2-0.1-0.4-0.1c0-0.2,0-0.4-0.1-0.6c-0.2-0.1-0.3-0.1-0.6-0.3c0.2-0.2,0.4-0.3,0.6-0.4c0.1-0.3,0.3-0.7,0.5-1.1
	c-0.2-0.5-0.3-0.9-0.6-1.5c0.6-0.5,0.6-1.5,1.5-1.8v-0.5l-0.4-0.5V441c0.3-0.2,0.6-0.6,1.1-0.9c-0.3,0-0.6-0.1-0.8-0.1v-0.4h1.2v1.9
	c-0.2,0-0.3,0-0.6,0.1c0.2,0.1,0.3,0.1,0.3,0.1c0,0.3,0.1,0.6-0.2,0.9c0.5,1,0.2,2.1,0.2,3.2c-0.3,0-0.2,0.2-0.2,0.4
	c0,1.2,0,2.4,0,3.7c-0.1,0.1-0.3,0.2-0.5,0.3c0.1,0.3-0.1,0.6,0.3,0.6c0,0.5,0.4,0.9,0.2,1.4c-0.1,0.1-0.1,0.3-0.2,0.4
	c0.4,0.4,0.1,0.9,0.2,1.3c0,0-0.1,0-0.1,0c-0.2,0.6-0.2,1.2,0.1,1.7c-0.1,0.2-0.2,0.3-0.2,0.4c0,0.3,0,0.6,0,0.8
	C126.5,457.2,126.7,457.5,126.7,457.8L126.7,457.8z M124.8,461.2l0.2,0.2c0.1,0,0.2,0,0.4-0.1c0-0.2-0.1-0.3-0.1-0.6
	C125,461,124.9,461.1,124.8,461.2z M126.3,442.7h0.1v-0.5h-0.1V442.7z"/>
<path class="st2" d="M128.7,521.1v-0.4c-0.2,0-0.5-0.1-0.7-0.1v-0.1c0.2,0,0.4-0.1,0.6-0.1c0.3-0.5-0.2-0.8-0.5-1.2
	c0.3-0.2,0.5-0.4,0.8-0.6v-0.5c-0.1,0-0.3-0.1-0.4-0.2v-0.6c0.1,0,0.2-0.1,0.5-0.2c-0.2-0.2-0.4-0.3-0.7-0.5c0-0.6-0.5-1.4-0.2-2.2
	c0.2,0,0.4-0.1,0.8-0.1c-0.3-0.2-0.5-0.3-0.8-0.5c-0.1-0.2-0.1-0.5-0.2-0.9c0.3-0.3,0.3-0.8-0.1-1.2c0.2-0.2,0.4-0.4,0.5-0.6
	c-0.1,0-0.3-0.1-0.4-0.1c-0.4-0.6,0.8-0.9,0.3-1.6c-0.2-0.3-0.6,0.6-0.9-0.1c0.4-0.3,0.8-0.5,1.2-0.5v-1.4c-0.3,0.5-0.5,0.7-0.9,1.2
	c0-0.5,0-0.7,0-0.9c0-0.1-0.2-0.2-0.3-0.4c0.5-0.3,0.9-0.5,1.5-0.8c0,0.5,0.1,0.9,0.1,1.3c0.1,0,0.2,0,0.4,0.1
	c0,0.2-0.1,0.5-0.1,0.9c0.4,0.4,0,1,0.3,1.8c0,0,0.2,0.1,0.4,0.3c-0.2,0.3-0.3,0.6-0.5,1v1.4c0.1,0.1,0.3,0.2,0.5,0.3v2
	c0.1-0.1,0.2-0.2,0.4-0.3v2c0.3,0.2,0.3,0,0.6-0.1c-0.1,0.3-0.3,0.5-0.2,0.7c0.1,0.8-0.2,1.7,0.2,2.5c0.2,0.4,0,0.9,0,1.3v1.4
	c0.1,0,0.3,0.1,0.5,0.2v0.4h-0.4c-0.1,0.4-0.3,0.8-0.4,1.2h-0.7c0.1-0.6,0.2-1.2,0.3-1.6c-0.2-0.4-0.4-0.6-0.6-0.9
	c0.4,0,0.8-0.1,1.1-0.1c-0.6,0-0.6-0.8-1.2-0.7v-0.5C128.9,521.1,128.8,521.1,128.7,521.1L128.7,521.1z M128.6,516.1
	c0,0.5,0.4,0.7,0.7,1c0.3-0.2,0.6-0.3,0.5-0.8c-0.2,0-0.4,0-0.6,0C129,516.3,128.9,516.2,128.6,516.1L128.6,516.1z M128.2,507.4
	c0.1,0,0.1,0,0.2,0l-0.1-0.4c0,0-0.1,0-0.1,0C128.2,507.1,128.2,507.3,128.2,507.4L128.2,507.4z"/>
<path class="st2" d="M126.5,703.2v0.6c-0.1,0-0.3,0.1-0.4,0.1c-0.1,0.3-0.2,0.6-0.4,1c-1-0.2-1.8,0.4-2.7,0.2
	c-1.3-0.2-2.6-0.2-3.8-0.7c-0.4-0.1-0.9,0-1.5,0c-0.6-0.5-1.1-1-1.8-1.5c-0.8,0.3-1.7,0.5-2.4-0.3c-0.2,0.3-0.4,0.6-0.6,0.8
	c-0.1-0.1-0.3-0.1-0.3-0.2c-0.3-0.2-0.5-0.5-0.8-0.8c-0.1-0.1-0.3-0.1-0.4-0.1c0-0.2,0.1-0.4,0.2-0.6c0.2-0.2,0.2-0.5,0.4-0.8h0.7
	c0.1-0.2,0.2-0.4,0.3-0.6c0.2,0.1,0.5,0.2,0.8,0.2c0.3-0.1,0.8-0.2,1.2-0.2c0.3,0.3,0.5,0.6,0.8,0.8c1,0.1,1.9,0.2,2.8,0.2v0.8h-0.9
	c0,0.3,0,0.6-0.1,1h0.5v0.3c0.2,0.1,0.4,0.3,0.7,0.3c0.1,0,0.2-0.1,0.3-0.2h0.9c0.9,0,1.1,0.1,1.8,0.8c0.1-0.2,0.2-0.4,0.3-0.6
	c0.2,0.1,0.4,0.2,0.6,0.3c0.1-0.1,0.2-0.2,0.3-0.2c0.5,0.1,1,0.2,1.4,0.2C125.1,703.8,125.5,703.1,126.5,703.2L126.5,703.2z"/>
<path class="st2" d="M161,370.4c-0.4,0.5-0.8,0.3-1.2,0.1c-0.3-0.1-0.5-0.1-0.8,0c-0.3,0.2-0.4,0.1-0.8-0.1c-0.6,0.1-1,0.2-1.4,0.2
	c-0.2-0.2-0.3-0.3-0.4-0.5c-0.6,0.2-1.2,0.3-1.8,0.5c0,0.1-0.1,0.2-0.1,0.4h-0.3c0-0.3-0.1-0.6-0.1-0.9c-0.7-0.4-1.2,0.3-1.9,0.5v-1
	h-0.4v0.6c-0.1,0-0.2,0.1-0.4,0.1c0-0.3-0.1-0.6-0.1-0.9l0.4-0.4h2.2c0.1,0.2,0.1,0.5,0.2,0.8c0.4-0.3,0.8-0.6,1-0.8
	c0.6,0.1,1.1,0.2,1.5,0.3c0.2-0.2,0.4-0.4,0.6-0.6c0.2,0.1,0.4,0.2,0.5,0.3c0.2-0.1,0.3-0.2,0.5-0.3c0.2,0.2,0.3,0.5,0.5,0.7h0.8
	c-0.1-0.4-0.3-0.8,0-1.3c0.2,0.2,0.3,0.3,0.5,0.5c0.4,0.1,0.9,0.4,1.5,0.3l0.2,0.2v0.4c-0.3,0-0.5,0.1-0.7,0.1
	C161,370.2,161,370.3,161,370.4L161,370.4z M157.5,369.7v0.5c0.2,0,0.3-0.1,0.4-0.1c0-0.2-0.1-0.3-0.1-0.4H157.5z"/>
<path class="st2" d="M127.2,492.8c0,0.1,0.1,0.1,0.1,0.2c0.1-0.1,0.2-0.1,0.3-0.3c0.1,0.6,0,1.2,0.1,1.8c-0.2,0.1-0.3,0.3-0.5,0.4
	c-0.1,0-0.2,0.1-0.3,0.1c0.1,0.3,0.2,0.5,0.3,0.8c-0.3,0-0.5,0.1-0.8,0.1c0.3,0.2,0.5,0.4,0.8,0.5c0,0.5,0,1.1,0,1.6
	c0,0.5-0.1,1,0.1,1.5h0.4c0,0.3,0.1,0.5-0.1,0.8c-0.1,0.1-0.1,0.5,0,0.6c0.2,0.3,0.1,0.7,0.1,1c-0.4,0.1-0.7,0.2-1.2,0.3
	c0-0.2-0.1-0.4,0-0.6c0.1-0.4,0.2-0.8,0.2-1.2c0-0.3-0.3-0.7-0.4-1c-0.1-0.2-0.1-0.5-0.2-0.9c0.5-1.2,0.1-2.4-0.7-3.5
	c0.3-0.3,0.6-0.6,0.9-1c-0.3-0.2-0.4-0.3-0.7-0.4c0.4-0.3,0.7-0.5,1.1-0.8C126.9,492.8,127.1,492.8,127.2,492.8L127.2,492.8z"/>
<path class="st0" d="M132.5,549.7c0.2,0,0.5,0,0.7,0c0.1,0,0.2,0.2,0.3,0.2c-0.2,0.2-0.4,0.4-0.6,0.7c0,0.1,0.1,0.2,0.2,0.5
	c0.4,0.2,0.9,0.3,1.4,0.5v0.9c0.2,0.1,0.4,0.1,0.6,0.2c-0.2,0.1-0.4,0.2-0.5,0.2v0.3c0.1,0,0.3,0.1,0.5,0.2v2.6h-0.3
	c-0.2-0.2-0.4-0.5-0.5-0.7h-0.5c-0.1,0.2-0.3,0.3-0.4,0.5c-0.2-0.1-0.3-0.2-0.5-0.3c0.2-0.1,0.3-0.2,0.5-0.2c0-0.5-0.5-0.6-0.8-1
	c0.1-0.2,0.2-0.3,0.3-0.7c-0.2-0.1-0.4-0.2-0.6-0.2c0.2-0.3,0.2-0.4,0.4-0.6c-0.2-0.2-0.3-0.4-0.5-0.5v-1.3c0.2-0.1,0.3-0.1,0.6-0.2
	c-0.4-0.1-0.6-0.1-0.9-0.1c0-0.1-0.1-0.2-0.1-0.3C131.9,549.7,132.4,550.2,132.5,549.7z"/>
<path class="st2" d="M64.2,352.7h1.1c0.2,0.3,0.7,0.4,0.6,1c-0.2,0.7-0.9,0.7-1.5,1c-0.1-0.1-0.2-0.2-0.2-0.2
	c-0.2,0.1-0.3,0.2-0.5,0.3c-0.1-0.2-0.1-0.3-0.2-0.5h-1.8c0-0.2-0.1-0.5-0.1-0.5c-0.3-0.7-1.1-0.5-1.4-0.9V352h0.7
	c0.3,0.2,0.6,0.5,0.8,0.6c0.6,0.1,1.1,0.1,1.4,0.3C63.5,353.1,63.8,352.6,64.2,352.7z"/>
<path class="st0" d="M129.1,521.6c0.6-0.2,0.6,0.7,1.2,0.7c-0.3,0-0.6,0.1-1.1,0.1c0.2,0.3,0.4,0.5,0.6,0.9c-0.1,0.4-0.2,1-0.3,1.6
	h0.7c0.1-0.3,0.3-0.8,0.4-1.2h0.4v2.9c-0.2-0.2-0.4-0.5-0.6-0.8c-0.6,0.2-1.1,0.7-1.8,0.5c0-0.4-0.1-0.8-0.2-1.1
	c0.3-0.2,0.5-0.4,0.9-0.7c-0.4-0.2-0.7-0.3-1-0.4c0.3-0.2,0.5-0.3,0.7-0.5c-0.3-0.2-0.4-0.2-0.7-0.4c0.3-0.3,0.6-0.6,0.8-0.9
	C129.1,522.1,129.1,521.9,129.1,521.6L129.1,521.6z"/>
<path class="st2" d="M126.7,491.6h-1.1c-0.1-0.1-0.2-0.2-0.3-0.4V490c0.2-0.1,0.3-0.1,0.4-0.2c0-0.1,0-0.2-0.1-0.4
	c-0.2,0.1-0.4,0.2-0.6,0.2V488c0.2-0.2,0.5-0.4,0.9-0.7v-0.7c0.2-0.1,0.4-0.2,0.8-0.5c-0.1,0.4-0.2,0.6-0.3,0.9
	c0.3,0.5,0.2,1.3,0.2,2c-0.1,0-0.2,0-0.2,0.1c-0.1,0.6-0.2,1.1,0.2,1.6c-0.1,0.2-0.2,0.4-0.3,0.5
	C126.6,491.3,126.7,491.5,126.7,491.6L126.7,491.6z"/>
<path class="st0" d="M64.2,352.7c-0.4-0.1-0.7,0.5-1.2,0.2c-0.3-0.2-0.8-0.2-1.4-0.3c-0.2-0.1-0.5-0.4-0.8-0.6c0.2,0,0.3,0,0.6-0.1
	c-0.1-0.3-0.2-0.5-0.3-0.6c0.4,0,0.7,0,1.1,0.2c0.5,0.2,1.1,0.1,1.7-0.3C64,351.7,64.1,352.2,64.2,352.7z"/>
<path class="st2" d="M155,714.5c-0.1,0.5-0.8,0-0.9,0.5c-0.4-0.2-0.9-0.3-1.3-0.5c-0.4-0.2-1.3-0.7-1.7-1.2v-0.6
	c0,0,0.1-0.1,0.1-0.1c0.1,0,0.2-0.1,0.2,0c0.3,0.3,0.4,0.9,1,0.7c0.4,0.3,0.8,0.5,1.2,0.5c0.4,0,0.8,0.2,1.3,0.3L155,714.5
	L155,714.5z"/>
<path class="st5" d="M51.7,385.8h-0.6c-0.1-0.1-0.2-0.2-0.3-0.4v-3.2c0.2-0.1,0.5-0.2,0.8-0.3c0.1,0.1,0.2,0.2,0.2,0.3
	c0,0.5,0,1,0,1.4c0,0.4,0.1,0.8-0.2,1.2c-0.1,0.1-0.2,0.5,0.2,0.5C51.7,385.5,51.7,385.6,51.7,385.8L51.7,385.8z"/>
<path class="st2" d="M61,351.2c0.1,0.2,0.2,0.4,0.3,0.6c-0.2,0-0.4,0.1-0.6,0.1c-0.1-0.1-0.1-0.2-0.2-0.2c-0.5-0.1-1,0.1-1.5,0.2
	c-0.5-0.4-1.1-0.7-1.6-1.1c0.1-0.2,0.2-0.4,0.4-0.7c0.4,0.4,0.9,0.8,1.7,1c0-0.2,0.1-0.4,0.1-0.7c0.4,0.1,0.9,0.2,1.4,0.3V351.2
	L61,351.2z"/>
<path class="st2" d="M110.9,702.5h-0.6c0,0-0.1,0-0.1,0.1c0,0.2-0.1,0.4-0.1,0.6c-0.1-0.1-0.2-0.2-0.2-0.2c-0.6,0.1-1.1,0.1-1.6,0.2
	c-0.1,0-0.2-0.2-0.3-0.2v-0.4c0.3,0,0.6-0.1,0.9-0.1c0.1-0.4,0.4-0.7,0.3-1.2c0.2-0.1,0.5-0.2,0.7-0.2c0,0.5,0.4,0.9,1,1.1
	L110.9,702.5L110.9,702.5z"/>
<path class="st3" d="M127.2,441.5v-2.8c-0.1-0.1-0.3-0.3-0.5-0.4c0.2-1,0.4-2,0.6-3.2c0.2,0.7,0.7,1.2,0.2,1.8
	c0.1,0.5-0.2,1,0.3,1.5c-0.8,1,0.3,2-0.1,3.2C127.5,441.5,127.4,441.5,127.2,441.5L127.2,441.5z"/>
<path class="st0" d="M188.6,568.9c0.5,0.6,0.1,1.2,0.3,1.8c-0.2,0-0.3,0-0.4,0c-0.3-0.6,0.2-1.4-0.4-1.8c0.5-1.2,0.1-2.3,0.3-3.5
	c0.1,0.1,0.2,0.2,0.4,0.4C188.7,566.8,189.1,567.8,188.6,568.9z"/>
<path class="st0" d="M122.9,458.8c0.2-0.1,0.3-0.2,0.5-0.4c0.1,0.2,0.2,0.3,0.1,0.4c-0.3,0.8-0.2,1.6-0.2,2.4c0,0.3,0,0.5,0.2,0.8
	c0.2,0.2,0.1,0.6,0.1,0.9c-0.1,0.4-0.2,0.8-0.3,1.1c-0.1-0.1-0.3-0.2-0.4-0.3c0.1-0.6,0.6-1.2,0-1.8
	C123.6,460.9,122.7,459.9,122.9,458.8z"/>
<path class="st0" d="M146.8,698.2c0-0.6-0.4-1.2,0.1-1.6c-0.6-1.2-0.1-2.3,0-3.4c0.4,0.8,0.4,0.8,0.2,1.8c-0.1,0.4,0,0.8,0,1.2
	c0,0.3,0.2,0.7,0.2,1c0,0.3-0.3,0.6-0.4,0.9C146.8,698,146.8,698.1,146.8,698.2z"/>
<path class="st3" d="M52.4,373.8H52c-0.1-1.9,0-3.8,0-5.8h0.5c-0.1,0.8,0.3,1.7-0.2,2.5c0.6,0.5,0,0.9,0,1.3
	C52.1,372.6,52.4,373.1,52.4,373.8z"/>
<path class="st0" d="M188.7,491.1c0.4,0.4,0,0.7-0.1,1.2c0.3,0,0.6,0.1,0.9,0.1c0,0.1,0,0.2,0,0.4c-0.2,0-0.4,0.1-0.7,0.1v1.5
	c-0.2,0.1-0.4,0.2-0.8,0.5c0.1-0.5,0.2-0.9,0.2-1.2c0-0.3,0-0.7-0.1-1c-0.1-0.4-0.1-0.7-0.2-1.1
	C188.3,491.3,188.5,491.2,188.7,491.1L188.7,491.1z"/>
<path class="st0" d="M137.1,590.7h-0.5c0.2-0.8,0.5-1.6,0-2.3c0-0.1,0-0.2,0-0.2c0.4-0.8,0.2-1.7,0.2-2.5c0-0.1,0.1-0.1,0.2-0.2
	c0.3,0,0.3,0.2,0.2,0.4c-0.1,0.2-0.2,0.5-0.2,0.6c0.3,0.8,0.3,1.5,0,2.3c-0.1,0.4-0.2,0.9,0.1,1.3
	C137.4,590.2,137.5,590.6,137.1,590.7L137.1,590.7z"/>
<path class="st0" d="M147.4,700.6c-0.1,0.3-0.1,0.5-0.2,0.8c0.3,0.7,0.3,1.6,0,2.2c0.1,0.2,0.2,0.3,0.3,0.6c-0.3,0-0.5,0-0.8,0
	c0.1-0.2,0.2-0.4,0.3-0.6c-0.2-0.1-0.4-0.2-0.6-0.3c0.2-0.2,0.4-0.4,0.6-0.7v-0.7c-0.2-0.2-0.4-0.4-0.6-0.6
	C146.6,701,146.8,700.6,147.4,700.6L147.4,700.6z"/>
<path class="st0" d="M146.9,689.8c-0.4-0.5-0.7-1-0.3-1.7c0.2-0.5,0.3-1.1,0.3-1.7c0-0.5-0.1-1-0.1-1.6c0.1,0,0.2,0,0.3,0
	c0.1,0.2,0.2,0.5,0.4,0.7c-0.4,0.4-0.2,0.9-0.3,1.4c-0.1,0.5,0.1,0.9-0.2,1.4C146.7,688.6,146.9,689.2,146.9,689.8L146.9,689.8z"/>
<path class="st0" d="M62.5,472.3c-0.4,0.7-0.3,1.4,0,2.1c-0.2,0-0.3,0.1-0.5,0.1c-0.2-1.3-0.4-2.5-0.7-3.8c0.2,0,0.3-0.1,0.5-0.1
	c0,0.4,0,0.7,0.1,1.1C62.2,472,62.3,472.2,62.5,472.3L62.5,472.3z"/>
<path class="st0" d="M54.8,415.5h0.3c0,0.1,0.1,0.1,0.1,0.2c0,0.7,0.1,1.4,0.4,2c0.2,0.5,0.1,1.1,0.2,1.6h-0.5
	C55.2,418.1,55,416.9,54.8,415.5z"/>
<path class="st0" d="M149.8,712.8h-0.9c-0.2-0.2-0.4-0.4-0.6-0.6v-0.8h0.4c0,0.1,0.1,0.2,0.1,0.4c0.3-0.1,0.6-0.1,0.9-0.2
	C149.8,712.1,149.8,712.4,149.8,712.8L149.8,712.8z"/>
<path class="st0" d="M193.2,441.5c0.3,0.5,0.3,0.8,0.1,1.4c0,0.1-0.1,0.3-0.1,0.4c0,0.1,0,0.3,0,0.5c0.2,0.1,0.3,0.1,0.6,0.2
	c-0.3,0.1-0.5,0.1-0.7,0.1c-0.3,0.3,0.2,0.9-0.3,1.2c0-0.4,0.1-0.9-0.4-1.3c0.3-0.1,0.5-0.2,0.6-0.3c0-0.7,0-1.3,0-1.9
	C192.9,441.7,193.1,441.6,193.2,441.5L193.2,441.5z"/>
<path class="st3" d="M161,370.4V370c0.2,0,0.4-0.1,0.7-0.1v-0.4h1c0.1,0.5,0,1-0.4,1.4C161.9,370.9,161.6,370.4,161,370.4z"/>
<path class="st3" d="M52.4,363H52c0-0.4-0.1-0.8,0-1.1c0.2-0.4,0.2-0.7,0.2-1c0-0.4,0.1-0.8,0.5-1c0.5,0.3,0.1,0.7,0.3,1.1
	c-0.2,0.2-0.3,0.3-0.5,0.5C52.4,361.5,52.4,363,52.4,363z"/>
<path class="st0" d="M110,701.1c-0.2,0.1-0.5,0.2-0.7,0.2c-0.4,0.1-0.6-0.2-0.8-0.6c1-0.2,1.9,0,2.9-0.1v0.5H110z"/>
<path class="st0" d="M193.6,421.1c0.2,0.1,0.3,0.2,0.5,0.3v2.3h-0.5c-0.1-0.6,0.2-1.3-0.2-1.9C193.3,421.6,193.6,421.3,193.6,421.1z
	"/>
<path class="st0" d="M133.9,593.1c0.4,0.4,0.3,1,0.5,1.5c0.1,0.3,0,0.6,0,0.9h-0.6c0.1-0.3,0.2-0.4,0.2-0.6
	c-0.1-0.5-0.3-1.1-0.4-1.7C133.7,593.2,133.8,593.2,133.9,593.1z"/>
<path class="st0" d="M193.6,426.4c0.3,0,0.2,0.2,0.2,0.4s0.1,0.3,0.1,0.3c-0.1,0.7-0.1,1.3-0.1,1.9c0,0.2,0.2,0.5-0.2,0.5
	c-0.1-0.1-0.2-0.2-0.2-0.2c0.4-0.6,0.2-1.3,0.2-2C193.7,427,193.6,426.7,193.6,426.4L193.6,426.4z"/>
<path class="st0" d="M193.6,424.2c0.1,0.1,0.2,0.2,0.2,0.3c0.1,0.3,0.1,0.6,0.2,1c-0.1,0.1-0.3,0.2-0.4,0.3
	C193.3,425.4,193.3,424.7,193.6,424.2L193.6,424.2z"/>
<path class="st0" d="M59.1,352c0.5-0.1,1-0.4,1.5-0.2c0.1,0,0.1,0.1,0.2,0.2h-0.7v0.7h-0.6C59.4,352.5,59.2,352.2,59.1,352z"/>
<path class="st0" d="M134.4,596c-0.1,0.5,0.3,0.7,0.8,0.9c-0.4,0.2-0.9,0-1.3,0.1c-0.1-0.2-0.2-0.3-0.2-0.5
	C133.8,596.1,134,595.9,134.4,596L134.4,596z"/>
<path class="st0" d="M105.2,368.7V368c0.5,0.1,0.9,0.2,1.4,0.3v0.4C106.1,368.7,105.7,368.7,105.2,368.7L105.2,368.7z"/>
<path class="st0" d="M142.8,643h0.7c0.4,0.5-0.5,0.9-0.1,1.5c-0.3,0-0.4-0.1-0.6-0.1c0.1-0.2,0.2-0.4,0.3-0.6
	C143,643.5,142.9,643.3,142.8,643L142.8,643z"/>
<path class="st3" d="M126.3,465.7l-0.2,0.2h-0.4c0.1-0.5,0.1-1,0.2-1.4V464h0.5c-0.2,0.4-0.4,0.9,0,1.3
	C126.3,465.4,126.2,465.6,126.3,465.7L126.3,465.7z"/>
<path class="st3" d="M126.3,464c0-0.9,0-1.9,0-2.8c0-0.1,0.2-0.2,0.2-0.3c0,0.9,0,1.9,0,2.8C126.5,463.8,126.3,463.9,126.3,464z"/>
<path class="st0" d="M51.7,391.8h0.9c0.1,0.3,0.5,0.6,0.3,1.2C52.5,392.7,52.2,392.4,51.7,391.8z"/>
<path class="st0" d="M128.7,521.1h0.5v0.5c-0.2,0.2-0.5,0.3-0.8,0.6c-0.1-0.3-0.1-0.5-0.1-0.7C128.3,521.4,128.5,521.2,128.7,521.1z
	"/>
<path class="st0" d="M142.9,641.5c0.6,0.2,0.8,0.5,0.6,1c-0.2,0-0.4,0-0.6,0V641.5L142.9,641.5z"/>
<path class="st0" d="M132.5,541.3h-0.7c0-0.2,0-0.4-0.1-0.7h0.7C132.5,540.8,132.5,541,132.5,541.3L132.5,541.3z"/>
<path class="st4" d="M119.1,703.9c-0.1,0.1-0.2,0.2-0.3,0.2c-0.2-0.1-0.4-0.2-0.7-0.3v-0.3C118.5,703.4,118.9,703.4,119.1,703.9z"/>
<path class="st0" d="M107.1,368.2c0.4,0.2,0.7,0.4,1.1,0.6c-0.3,0.1-0.4,0.3-0.6,0.2C107.3,369,107,368.8,107.1,368.2z"/>
<path class="st0" d="M52.1,387.7c-0.2,0.3-0.3,0.5-0.6,1v-0.9C51.6,387.7,51.8,387.7,52.1,387.7L52.1,387.7z"/>
<path class="st0" d="M130.6,527.1h0.7l-0.2,0.5h-0.5V527.1z"/>
<path class="st0" d="M189.9,494.2c0.1,0.1,0.3,0.2,0.5,0.4c-0.3,0.1-0.4,0.1-0.6,0.1c0-0.2-0.1-0.3-0.1-0.4
	C189.8,494.3,189.9,494.3,189.9,494.2L189.9,494.2z"/>
<path class="st0" d="M150.2,713c-0.1,0.1-0.2,0.2-0.5,0.4v-0.6C149.9,712.8,150.2,712.7,150.2,713z"/>
<path class="st0" d="M188.6,564.4v0.3c-0.1,0-0.2,0-0.4,0.1c0-0.2-0.1-0.3-0.1-0.4H188.6z"/>
<path class="st0" d="M192.7,445.5h0.6c-0.2,0.2-0.3,0.4-0.4,0.5C192.6,446,192.7,445.7,192.7,445.5L192.7,445.5z"/>
<path class="st2" d="M136.8,574.4h0.5v0.5h-0.5V574.4z"/>
<path class="st0" d="M123.9,457.7c-0.2,0.1-0.3,0.1-0.5,0.2C123.3,457.6,123.5,457.5,123.9,457.7z"/>
<path class="st0" d="M137.1,584.9c-0.1-0.1-0.2-0.2-0.2-0.3c0.1-0.1,0.2-0.1,0.2-0.2V584.9z"/>
<path class="st3" d="M127,441.7c-0.1,0-0.1,0-0.3-0.1c0.3,0,0.4-0.1,0.6-0.1C127.1,441.5,127.1,441.6,127,441.7L127,441.7z"/>
<path class="st0" d="M137.1,591.7c-0.1-0.1-0.2-0.2-0.2-0.3c0.1-0.1,0.2-0.1,0.2-0.2V591.7z"/>
<path class="st0" d="M134.2,592.4c-0.1,0.1-0.2,0.2-0.2,0.2c-0.1,0-0.1,0-0.3-0.1C133.9,592.4,134,592.4,134.2,592.4z"/>
<path class="st2" d="M123.8,460.4c0.3,0.1,0.4,0.1,0.6,0.2c-0.1,0-0.2,0.1-0.3,0.1C124,460.7,123.9,460.6,123.8,460.4L123.8,460.4z"
	/>
<path class="st3" d="M162.7,369.3c0.1,0,0.3,0,0.5,0c0,0,0,0.1,0,0.1c-0.2,0-0.3,0.1-0.5,0.1C162.7,369.4,162.7,369.4,162.7,369.3
	L162.7,369.3z"/>
<path class="st2" d="M127.5,495.4V495c0.1,0.1,0.2,0.2,0.2,0.3C127.6,495.3,127.5,495.4,127.5,495.4L127.5,495.4z"/>
<path class="st0" d="M143.3,645.4v-0.5h0.1v0.5H143.3z"/>
<path class="st0" d="M138,699.9c0,0.2,0.1,0.5-0.2,0.5C137.8,700.2,137.6,699.9,138,699.9z"/>
<path class="st0" d="M137.8,700.3c-0.1,0.1-0.2,0.2-0.2,0.2C137.6,700.5,137.7,700.4,137.8,700.3z"/>
<path class="st4" d="M134.9,702c-0.1-0.1-0.1-0.1-0.2-0.2c0,0,0.1,0,0.1-0.1C134.8,701.9,134.9,701.9,134.9,702
	C134.9,702,134.9,702,134.9,702z"/>
<path class="st2" d="M131.3,526.6c0.1-0.1,0.1-0.1,0.2-0.2c0,0,0.1,0,0.1,0.1C131.4,526.5,131.4,526.6,131.3,526.6L131.3,526.6z"/>
<path class="st0" d="M108.4,368.5v-0.2h0.1L108.4,368.5L108.4,368.5z"/>
<path class="st3" d="M161.8,369.5l-0.2-0.2C161.6,369.3,161.7,369.4,161.8,369.5z"/>
<path class="st3" d="M220.5,429c-0.4,0.1-0.6-0.3-0.9-0.5h-0.8c0.1-0.6,0.2-1.2,0.3-1.9c0.2-0.1,0.3-0.1,0.4-0.1c0-0.1,0-0.2,0-0.4
	h-0.7c0.1-0.2,0.2-0.5,0.3-0.7h0.8v1.5c0.2,0.4,0.5,0.7,0.8,1.1C220.8,428.3,220.8,428.7,220.5,429L220.5,429z"/>
<path class="st3" d="M219.3,429.5v0.6c-0.2,0.1-0.5,0.3-0.7,0.4v0.4h-0.5c0.1-0.4,0.2-0.8,0.3-1.2h-0.7c0-0.2-0.1-0.3-0.1-0.6
	c0.4,0.1,0.6,0.2,0.9,0.3C218.7,429.5,219,429.5,219.3,429.5z"/>
<path class="st3" d="M218.3,426.3v2.3c-0.2-0.4-0.2-0.5-0.3-0.7c0,0-0.1,0.1-0.1,0.1v-1c0,0,0.1,0.1,0.1,0.1
	C218.1,426.8,218.1,426.7,218.3,426.3L218.3,426.3z"/>
<path class="st3" d="M218.6,426.4l0.2-0.2C218.7,426.2,218.7,426.3,218.6,426.4z"/>
<path class="st3" d="M218.6,426.4l-0.2,0.2C218.4,426.5,218.5,426.4,218.6,426.4z"/>
<path class="st3" d="M219.1,444.8c-0.1,0.1-0.1,0.1-0.2,0.2l-0.1-0.1C218.9,444.9,219,444.9,219.1,444.8
	C219.1,444.8,219.1,444.8,219.1,444.8z"/>
<path class="st3" d="M27.7,450.1h-0.6c-0.1,0.2-0.2,0.3-0.4,0.5c-0.6-0.6-1-1.4-1-2.2c-0.4-0.3-0.7-0.5-1-0.8v-0.5
	c0.2-0.1,0.5-0.2,0.8-0.4c0.1,0.2,0.2,0.4,0.3,0.5l0.1-0.1v0.5c0.2,0.4,0.8,0.6,0.8,1.2c0,0.1,0.3,0.3,0.5,0.4
	c0.3,0.1,0.6,0.2,0.9,0.4c-0.2,0.1-0.3,0.1-0.5,0.2C27.7,449.9,27.7,450,27.7,450.1L27.7,450.1z"/>
<path class="st3" d="M12.9,442.9c-0.6-0.9-0.5-1.8-0.5-2.9c0.3,0.1,0.5,0.2,0.6,0.3c0.3,0.5-0.1,0.9-0.1,1.4
	C12.8,442,12.9,442.4,12.9,442.9L12.9,442.9z"/>
<path class="st5" d="M51.7,381.7c-0.3-0.1-0.5-0.2-0.7-0.3c0.1-0.1,0.1-0.2,0.2-0.4c-0.2-0.2-0.3-0.5-0.6-0.7
	c0.3-0.3,0.5-0.5,0.9-0.9C51.8,380.3,51.7,381,51.7,381.7z"/>
<path class="st1" d="M51.6,386.8c-0.1,0.2-0.4,0.3-0.9,0.1c0.2-0.2,0.3-0.4,0.6-0.9C51.4,386.3,51.5,386.5,51.6,386.8z"/>
<g>
	<path class="st7" d="M162.2,77.4c-0.1,0-0.3-0.1-0.3,0C162,77.5,162.1,77.4,162.2,77.4z"/>
	<path class="st7" d="M168.5,57c0.8-5.3-4.2-10.7-8.9-7.8c1.4,3.4-4.5,12.6-7,6.9c-0.8,0.1-0.2-0.4-1.1-0.4c1.2-0.4,0.5-1.2-0.4-0.5
		c0.1-3.8-1.2-7.3-2.6-10.3c-0.5-5.1-4.3-10.2-3.8-15c-2.8-3.3-1.7-5.8-3.9-8.7c-1.8-0.5-0.8-2.8-2.6-2.7c0,0,0-1.1,0-1.1
		c-1.7-0.2,0.2-0.4,0-1c-1.1,0.2-1.3-0.4-1.2-1.4c-0.3,0.2-0.4-0.7-0.8-0.2c-0.3-0.1-0.5-0.2-0.8-0.3c2-1.5-13.3-5-16.2-5.4
		c-4.7,2.6-8.7,4.1-13.2,5c-2.6,2.3-5.6,4.9-8.8,7.5c-2.8,2.4-6.7,11-8.8,15.4c0.8,2.6-0.7,5.2-0.3,8.4c0.6,1.4,0.5,3.7,0.5,6
		c0,1.4,1.7,3.5,0.2,4.3c3.2,8.1-1.4,2.9-4.7,4.1c-1.2-2.5-5.4,2.2-3.9,3.8c-1.1,1.8-0.9,5.1,0,6.6c0.2,1.1-0.8,1.2,0.2,2.4
		c0,0.7-0.2,1.7,1,1.4c-1.4,0.5,0.2,3,1.3,3.1C81.4,78,84,80.8,84.7,82c-1,1.4,3.3,4.9,3.8,7.1c1.6,2.4,7.6,2.2,7.6,4.1
		c2.5,1.5,4.1,7.4,6.1,10.9c0.3-1.5,0.3-0.7,0.3,0.3c4.2-1,3.2,6.3,4.3,10.1c1.5,3.9,1.4,7.9,3.6,12c3.1,4.3,5.9,9.4,9.6,13.4
		c0.1,2.1,6.4,1.9,7.7,4.3c2.2-1.2,2.8,1.9,4.4,2.2c0.8,2.6,1.7,0,3.4,0.2c-0.3-1.3,0.7-2,1.5-2.7c0-0.6,0-1.1,0.5-1.4
		c0.1-0.5-0.3-1.7,0.4-1.6c1.8-5,9.2-6.7,12.2-10.8c0.4-1.5,2-2.5,2-4.3c0.1-0.2-0.4-1.7,0.5-1.4c-1.9-1.9,0-2.8-1-3.5
		c0.2-1.7,0.8-3.9,1.2-5.6c-0.4-1.7-0.5-3-0.5-4.7c-1.4-4.7-1.7-8.5-2.4-13c0.1-3.5,3.6-3.8,4.9-7.6c-0.8-1.7,0.9-2.3,1.1-3
		c0.1-2.2,1.7-4.2,1.1-6.5c5.1,1.5,6.6-6.5,8.7-8.6C166.9,66.8,168.2,62,168.5,57z M165,71.5c-0.1,0.1-0.1-0.3,0-0.2
		C165,71.3,165,71.5,165,71.5z"/>
	<path class="st7" d="M245.9,397.3c0.7-4.5-0.5-7.7-0.1-12c-0.5-1.4-1.6-3.3,0.1-2.8c-0.6-1.3-1.5-3.1-0.2-3.9
		c-1.7-2.1-1.1-6.6-2.8-10c0-0.4-0.1-1.5,0.4-1.7c-0.4-0.5-1.6-1.7-0.3-1.1c-0.9-5.5,0.5-10.7-0.7-14.3c0.4,0.2,0.5,0.2,0.9,0.4
		c-0.8-3.4-0.2-7.4-0.1-10.7c0.7-0.9-1.4-5.1,0.4-4.3c-1.2-1.3,0.6-1.7-1.1-2.6c2,0-0.8-3.2,0.4-3.5c0.2-2.5-1.4-3.4-1.3-6.2
		c1.1,1.9,0.4-9.5-0.3-9.1c-0.4-2.3,1.1-7.5-1.1-8.2c2.2-5.4-1.3-14-0.9-20.4c-1.6-10.1-3.9-18.4-6.9-26.2c-0.9-5.1-0.6-10-4.5-14.8
		c-2.1,0.6-3,3.9-4.9,5.3c-2.1,1.1-2.8,1.5-4.2,2.9c-4.7,0.6-8.3,2.8-12.9,4.6c-8.3-3.6-4.2,12.2-4.4,17.4c-1,0.2,2.6,6.3,0.3,8.5
		c4.2,3.4-0.9,1.7,0.9,4c0.9,3.6,1,5.7,1.7,9.2c-0.3-0.4-0.4-0.6-0.7-0.9c-0.1,0.6,0.2,1.3,0.7,1.6c0.1,0.4-0.2,0.9,0.3,1
		c-1,2.8,2.5,6.1,1.6,8.8c1,1.2,2.5,1.9,1.5,3.9c1.1,0.7,1.9,4.7,1.2,4.9c-0.8,2.6,0.9,4.1,1.2,6.6c0,0.4-0.1,0.9,0.5,0.9
		c0.1,0.5-0.4,2.5,0.7,2.1c-0.8,2.5,2.5,4.6,1,6.2c0.8,0.1,1.7-0.3,0.7,0.7c0.3,1.3,0.5,2,1.3,3.2c-1.3,0.3,0.8,2,0.5,3
		c1.2,1.3,1,3.5,0.9,5.3c2.2,2.7,0.5,7,2.2,9c-1.5,1.4,0.2,2.6-0.5,4.1c1,1.9-0.7,4.3,1,4.7c-0.8,4.4,1.4,12,0.4,16
		c-1.2,10.4-6.3,17.4-6.9,26c-0.4,7.2-2.9,11.4-2.4,18.8c-1.8,4.3-4.7,12.5-1.4,16.2c6.8,2.3,8-4.9,10.7-9c-0.9,0.2-0.2-0.7-0.2-1.2
		c-1.8-0.3,0-0.5,0.9-0.3c-1.4-1.1,1.4-4.3-1-3.1c2.3-2.4,1.1,0.1,2.4,1.6c-0.1,2.5-2,10.4,0,11.8c-0.3,1.2-0.6,2.4-1.8,3.2
		c1.6,0.7,0.1,2.3,0.2,1.8c0.2-0.8-0.9-0.3-1.4-0.3c-0.1,0.6,0.3,1.6-0.6,1c-1.3,1.9,0.6,1.5-1.3,2.4c0.5,1.5-0.2,1.4-0.6,2.9
		c0.8-0.6,1.6,0,0.7,0.1c-2.3,1,0,3.1-2,2.4c-0.4,0.9,1.7,0.9,0.2,1.7c-0.2,0.8,1.1,0.5,0.7,1.5c0.9,1.3,1.8,2.3,2.8,0.9
		c1.9,1.6,3.9-3.3,6.5-2.6c0.9,0.6,3-1.9,1.4-2c1.8-0.7,2.6-0.4,2.3-2.4c0.4,2.9,3.8,0.9,4.5-0.9c3.8-2.7,5-8.2,5.7-12.4
		c3.1-3.2,2-7.4,4.8-10c-0.3-1.5-0.4-2.5,0.7-3.4c-1-0.8,1.1-1.7,0.7-3.1c-1.4,1.7,1.3-2.5-0.5-2.2c1.3,0,0.9-2.2,1.5-3.3
		c-1.5-1.4,0.1-3.2,0-4.8C244.9,407.2,246.3,401.4,245.9,397.3z M218.3,428.5c-0.4-0.7-0.5-0.8-0.4-1.6c0.2,0.3,0.2-0.3,0.4-0.5
		C218.3,427.1,218.3,427.6,218.3,428.5z"/>
	<path class="st7" d="M204.2,299.2C204.2,299.2,204.2,299.2,204.2,299.2L204.2,299.2z"/>
	<path class="st7" d="M25.8,237.8C25.8,237.8,25.8,237.8,25.8,237.8C25.8,237.8,25.8,237.8,25.8,237.8z"/>
	<path class="st7" d="M28.4,354.8c0,0-0.1,0-0.1,0C28.3,354.8,28.3,354.8,28.4,354.8z"/>
	<path class="st7" d="M56.5,241.1c-0.5-1.2,0-2-0.5-3.4c-0.9,0.1-1.3,1.9-0.1,1.8c-2.4,0.6-0.4,3-1.7,4.4c-2.5-1-9-0.3-9.5-1.9
		c-6,3-10.7-3.4-16.3-3.8c-4.1-1.2-4.3,2.6-4.4,5.9c-0.8,2.9-2,5.9-1.9,8.6c-1.9,1.5-0.9,5.7-2.7,6.2c-0.3,0.8,0.8,0.3,0.3,1.1
		c-2.2,2.6-2.7,5.6-3.9,9.6c0.5-0.7-0.9,2.4-0.2,3.3c-1.8,0.3-0.4,5.2-1.7,4.7c0.3,3.3-2.6,4.7-0.3,6c-2.1,0-0.5,0.6-0.4,1.8
		c-1.1-1.1-1.2,1-0.4,1.6c-1.6,1.3-0.4,3.9-0.6,5.9c-1.5,0.6,1.2,3-0.4,3.1c-0.8,14.4-3,20.2-2.6,33.9c-2.2,1-0.4,4.4-1,6.2
		c-0.9,2.4-1.5,7.8-0.2,9.7c-1.9,3.1-0.7,6.7-1.5,9.7c-0.3,3.7-1.2,8.9-2.6,12.6c-0.1,3.5-1.2,6.4-1.5,8.9c2.1,1.3-1.2,2.3-0.4,4.4
		c-0.6-0.1-1.2-0.1-1,0.7c1-0.4,0.6,0.9,0.7,1.4c-1-0.3-0.9,1,0.1,0.7c-0.1,0.9-1.6,1,0,1.4c0.5,1.3-1.1,3.4,0.6,3.7
		c-1.6,5.9,0.9,14.2-2.3,19.2c0.9,0.3,1.1,2.2,0,2.4c1.5,0.7,0,1.9,0.5,3.4c0.6,0.5,1,1.7,0.2,2.3c0.2,2.9,0.9,5.1,1.6,6.6
		c0.4,3.9,3.3,5.5,5.1,8.3c-1.2,1.4,2.5,5.8,3.2,7.7c1.1-0.3,2.2,0.6,0.4,0.5c-0.3,1.8,1.4,0.3,0.9,2.6c-1.1,0.6,0.4,2.6,1.6,2.2
		c0.9,1.9,0.6,4.8,3.2,5.6c0.1,0.4-1.6,0-0.4,0.3c-0.2,1,1.7-0.1,1.5,1.3c1.6,0.5,0.7,0.7,1.9,2.2c1.1,1,0.5,1.8,1.5-0.2
		c-0.2,3.1,6.3,3.8,6.3,0.3c-1-0.7-0.2-2.5-1-3.6c-0.8-1.2-3-4.7-0.7-3.5c0.2,1,1,2.2,2.2,2.4c-1.2,0.5,0.5,1.3,1.3,1.6
		c1.2-2,1.9-5.3-0.3-7.9c-0.3-1.7,2.2-0.6,2.4-2.4c-2.7-4.6,4.3,1.3,4.4-3c1.7-2.8,0-4.6,0-7.8c0.8-0.1,0.1-0.2-0.2-0.3
		c-0.5-1.6-0.2-3.2-1.4-3.6c-2.1-6.3-2.8-11.6-2.8-17.7c-3.1-13.3-10-22.8-7.2-34.2c-1.6-6.4,2.2-12.2,4.1-18.1
		c1.5-4.8,5.8-15.6,6-19.6c2.5-5.8,2.5-11.4,5.3-16.9c-0.2-1.7,2.3-3.5,0.8-4.7c3.3-3.2,1.7-11.3,4.1-16.7c-0.3-2.6,2.9-5,2.4-7.8
		c1.5-2.7,0.5-7.4,2.5-10.4c-2.3-0.3,1.2-3.4,0.4-4.6c0.4-5.5,1.1-9.5,1.9-15.6c-0.5-4.7,2.6-8.4,2.4-12.5
		C56.9,246.8,54.7,242.2,56.5,241.1z M12.8,441.6c0.1,2.6-0.7-0.4-0.5-1.6C13.4,440.2,13,440.9,12.8,441.6z"/>
	<path class="st7" d="M36.3,431.2C36.4,432.1,36.9,431.1,36.3,431.2C36.3,431.2,36.2,431.2,36.3,431.2z"/>
	<path class="st7" d="M47.6,288.7c0.1,0.1,0.1,0.3,0.2,0.1C47.8,288.7,47.7,288.5,47.6,288.7z"/>
	<path class="st7" d="M30.6,449.4c0.1,0.1,0.1,0.3,0.2,0.1C30.7,449.5,30.6,449.3,30.6,449.4z"/>
	<path class="st7" d="M36.7,433.8c0.4,0,0.4-0.2,0.3-0.5C36.5,433.3,36.5,433.5,36.7,433.8z"/>
</g>
<path class="st5" d="M83.4,58.8h0.9c0,0.1,0,0.2,0.1,0.5C84,59.1,83.8,59,83.4,58.8z"/>
<g>
	<path class="st8" d="M198.3,749.1c-0.1-3,0.7-7.3-1-9.6c1-0.1-0.7-3.5-0.9-5.8c-0.8,0.1-1.5-0.3-0.5-0.6c0.4-1-2.6-1.7-0.6-1.9
		c-2.1-2.4-2.7-8-4.4-11.4c-1.5-2.5-3.9-8.9-4.4-4.5c-0.2,5.4-4,1.2-6.6,2.3c-2.6,0.3-7.7-0.5-9,1c-4.7-0.6-11.3-1.2-15.8-4.1
		c-1.4,1.1-4.7-1.5-5.3-1.7c-1.4,0.3-1.3-0.9-1.7-1.7c-0.6-1.2-1.4,0-1.7-1.4c-3.1,2.5,4.8,22.1,4.9,18.2c0.4,1.6,1.1,3.1,1.3,4.6
		c0-2.4,2.1,2.6,1.7,3.6c1.2,0-0.1,2.3,1.9,2.5c-0.2,0.9,0.7,1,0.4,1.9c1.7,0.2,2.6,5.8,5.5,6.9c0,0.6,0.2,1.4,1,1.2
		c0.3,0.7,0.6,2.5,1,0.6c0.1,2.9,6.1,4.5,7.4,6.9c1,0.1,3,1.9,2.7,0c-0.1,1,2.9,1.8,3.1,0.5c0,2.7,6.4,1.5,6.9,3.3
		c1.9,0.3,4-0.2,5.1,1.2c0.2-1.3,0.9-1.2,1.2,0.2C197.1,758.1,197.6,758.3,198.3,749.1z M150.2,721C150.2,721,150.2,721,150.2,721
		C150.2,721,150.2,721,150.2,721z M150,723.4c0,0.3,0,0.6,0.1,0.9C150,724,150,723.7,150,723.4C150,723.4,150,723.4,150,723.4z
		 M149.2,720.6C149.2,720.6,149.2,720.6,149.2,720.6C149.2,720.6,149.2,720.6,149.2,720.6L149.2,720.6z M147.7,712.1
		c0.2-0.2,0-0.5,0.1-0.8C148.3,712.3,146.1,712.7,147.7,712.1z M147.8,715.2c-0.5-0.5-0.5-1.1-0.5-1.7c0.7,0.6,0.4,1.5,0.7,2.2
		C147.7,715.7,147.9,715.4,147.8,715.2z M148.4,718.3c-0.3-2.7,0.6-2.5,0.5,0C148.8,718.3,148.4,718.4,148.4,718.3z M149,719.2
		c0-0.1,0-0.3-0.1-0.4c0.2,0.7,0.2,1.5-0.1,2.2C149.1,720.4,149.1,719.8,149,719.2z M151.1,727c0.1,0.2,0.1,0.4,0.2,0.6
		C151.2,727.4,151.1,727.2,151.1,727z M160.9,743.4C160.9,743.4,160.9,743.4,160.9,743.4C160.2,743.7,160.1,743.7,160.9,743.4z
		 M172.6,755.5c-0.1-0.1-0.2-0.2-0.3-0.3C172.4,755.3,172.5,755.4,172.6,755.5z M172.8,754.6c0.3,0,0.5-0.1,0.4-0.2
		c-0.1,0.3-0.6,0.6-0.4,1.1C172.8,755.5,172.8,754.6,172.8,754.6z M189.1,759.1c0-0.3,0-0.5-0.1-0.7
		C189.1,758.6,189.1,758.8,189.1,759.1z M196.9,752.6c-0.2,0.3-0.6,0.4-1.1,0.7C196.2,752.9,196.6,752.8,196.9,752.6z M196.3,755.1
		c-0.1,0-0.1-0.1-0.1-0.1C196.2,755,196.2,755.1,196.3,755.1z M196.1,755c-0.2-0.1-0.2-0.4-0.3-0.5
		C195.9,754.5,195.9,754.8,196.1,755z M195.6,754.3C195.7,754.4,195.7,754.4,195.6,754.3C195.7,754.4,195.7,754.4,195.6,754.3z
		 M196.7,750.1c0.1,0.1,0.2,0.2,0.4,0.3C196.9,750.3,196.8,750.2,196.7,750.1z M197.5,741.7h0.2
		C197.8,741.8,197.4,741.8,197.5,741.7z M194.7,757.7c0-0.1,0-0.2,0-0.3C194.8,757.5,194.8,757.6,194.7,757.7z M190.5,759.1
		c-0.1,0-0.2,0-0.4,0.1C190.3,759.1,190.4,759.1,190.5,759.1z M191.3,758.4c0.2,0.2,0.5,0.3,0.6,0.5
		C191.7,758.7,191.4,758.6,191.3,758.4z M190,758.7C190,758.7,190,758.7,190,758.7C190,758.7,190,758.7,190,758.7z M194.1,757.8
		c0.5-0.3,0.8-0.3,0.5,0.3C194.7,757.6,194.5,757.7,194.1,757.8z"/>
	<path class="st8" d="M239.4,436.4c-1.7,3.2-3.3,6.4-4,10.8c-1.4,0-2.6,2.1-3.1,3.1C237,448,239.2,440.8,239.4,436.4z"/>
	<path class="st8" d="M37.8,434.1c0.6-1-0.7-4.2-1.4-2.5c-0.4-0.5,0.2-1.8-0.5-1.7c-0.1,2.5,1,3.9,0.9,6.1c-1,0.5-0.9,1.9-0.9,2.9
		C27.9,440.4,40.1,442.5,37.8,434.1z M37,433.7c-0.5,0.3-0.7-0.5,0-0.4C37,433.3,37,433.7,37,433.7z"/>
	<path class="st8" d="M30.4,450.4c-0.1,0.1-0.3,0.1-0.5,0.2c-2.6,1.2-3.3-3.7-2.6,3.3c1.1,1,0.7-1.3,1-2
		C29.1,451.7,32.2,451.2,30.4,450.4z"/>
	<path class="st8" d="M138.9,708.5c-0.9-3.9-0.8,1.3-0.9,2.7C139.4,713.4,139.2,709.5,138.9,708.5z"/>
	<path class="st8" d="M140.2,720.7c-1,0.8-0.7,4.3-0.2,5.7C140.6,725,140.6,722.2,140.2,720.7z"/>
	<path class="st8" d="M83.7,59c0.3-0.4,0.6-0.3,0.6,0.3c-1.9-0.2,3.3,1.1,2.4-0.5c-1.1,0.1-1.7-0.5-2.7-0.4
		C82.2,58.4,82.3,59.7,83.7,59z"/>
	<path class="st8" d="M139.9,727C138.8,727.4,138.7,727.4,139.9,727c-0.2-1.7-0.9-5.3,0.2-6.3c0.3-1.1-0.6-0.8-0.7-1.3
		c0.3-1.1,0.1-4-1-5.1c1.7-1-1.3-4.8-0.5-7.3c1.3,0.1,1-1.8,0.1-2.2c0.6-1.5,1.4-3-0.1-3.7c1.5-0.2,0-3.3,0-1.3
		c0.2,0.8-1.1,0.4-0.9,1.2c1.8,0.3-2.2,1.5-2.6,1.2c-14.6-1.3-1.5,6.7-23.6,0.3c-3.7,3.3-15.6-4.7-13.9,3.3c-1.4-0.2,0-2.6-0.2-3.7
		c-4,0-0.5,4.9-2.4,6.5c0.8,1.4-1.1,3,0.6,3.9c-1.6,1.5-3.4,18.3,0.4,19c-0.3-2.2-0.3-2.1,0,0c-1.9-0.8-1.9,0.9-0.9,2
		c-1,1.8,3.1,5.9,4.6,6.4c-1,0.8,0.3,1.8,1.6,2.8c1.5,0.7,0.2,1.8,2.5,1.6c-2.4-0.9-0.8,2.2,1.3,1.3c-2.6,0.3,4.7,5.5,5.9,5.9
		c7.6,6.1,20,5.7,25-1.3c0.2-1.9,2.4-2.6,1.2-4.7c1.1,1.4,1.3-1,1.4-1.9c1-0.5,1.3-2.8,0.2-3.2c2,0.1,2-5.5-0.7-4.8
		c3,0.5-0.1-2.5,2.4-2.3c-1.8-1.2,0.8-3.6-1-4.1c0.6,0.1,0.5-0.4,0.5-0.8C140.3,728.8,140.4,727.3,139.9,727z M96.5,732
		c-0.3-0.3-0.6-0.6-1-0.9C95.8,731.4,96.2,731.7,96.5,732z M96,714.5c-0.2,0.4-0.5,0.5-0.8,0.8C95.3,715,95.7,714.9,96,714.5z
		 M95,724.8c0.2,0.3,0,0.8,0.2,1.2C94.9,725.6,95.2,725.1,95,724.8z M95.1,724.3c0.1,0-0.2,0.3-0.2,0.3
		C94.8,724.6,95,724.5,95.1,724.3z M94.8,726.4c-0.1,0.5,0.3,2-0.7,1.5c1.6,0.5-0.3-2.4,1.4-1.1C95.4,726.8,95.2,726.5,94.8,726.4z
		 M95,728.4c0.2,0.3,0.1,0.7,0.2,0.9C95,729.1,95.1,728.7,95,728.4z M95.4,734.6c0.2,0.1,0.5,0,0.6,0.1
		C95.8,734.6,95.5,734.7,95.4,734.6z M95.5,735.5c0.3,0,0.6,0,0.8,0.2C96,735.6,95.8,735.6,95.5,735.5z M97,708.6
		c-1.4,0.4-0.2,2.1-0.9,3C95.7,710.2,96.7,705.1,97,708.6z M106.5,747.5c-0.1-0.1-0.2-0.2-0.3-0.3
		C106.3,747.3,106.5,747.4,106.5,747.5z M105.7,746.9c-0.4-0.2-0.7-0.4-1-0.8c0.4,0.5,0.9,0.7,1.4,1C106,747,105.9,747,105.7,746.9z
		 M112,752.6c-0.1,0.1-0.1-0.3,0-0.2C112,752.4,112,752.6,112,752.6z M112.8,752.8h-0.2C112.5,752.7,112.9,752.7,112.8,752.8z
		 M138.5,713.2C138.5,713.2,138.5,713.2,138.5,713.2C138.5,713.2,138.5,713.2,138.5,713.2z M138,712.9c0.1,0,0.2,0,0.4-0.1
		C138.3,712.8,138.1,712.8,138,712.9z M137.3,730.4c1.6-0.8-0.3-3.5,1.4-4.4C137.2,727,138.6,730.6,137.3,730.4z M137.3,733.6
		c0.1-0.4-0.3-1.5,0.5-1.1C137,732.2,137.4,733.3,137.3,733.6c-0.7,0.1-0.4,0.4-0.2,0.9C136.4,736.7,136.7,733.7,137.3,733.6z
		 M133.4,751.3c0,0,0-1.5,0-1.4C133.9,750.6,132.4,752.4,133.4,751.3z M132.9,749.6c0.1-0.3,0.4-0.8,0.6-1.1
		C133.4,748.9,133.2,749.2,132.9,749.6z M138.2,739.8c-2.6,2.3-2,6.4-4.8,8.6C135.6,746.7,138,737.4,138.2,739.8z M137.5,737.1
		C137.3,738.8,137.3,738.7,137.5,737.1C137.5,735.5,137.6,735.5,137.5,737.1z"/>
	<path class="st8" d="M135.6,607c-3-0.5-0.2,4.7-0.7,0.5c0.7,0,0.2,0.7,0.7,0.7C137,607.5,135.7,608,135.6,607z"/>
	<path class="st8" d="M189.7,522.8c0.6,0.2,1.2-0.4,0.6-1C189.8,522,189.6,522.3,189.7,522.8z"/>
	<path class="st8" d="M190.5,520.4h-0.9C189.6,521.5,190.8,521.6,190.5,520.4z"/>
	<path class="st8" d="M139.5,729.1c0.1,0.6,0.9,0,0.7-0.7C139.5,728.3,139.4,728.5,139.5,729.1z"/>
	<path class="st8" d="M94.6,701.7c0.2,0.3,0.6-0.3,0.7-0.9C94.5,700.7,94.6,701.1,94.6,701.7z"/>
	<path class="st8" d="M134.9,589.5c-2.5-1.1,0,4-0.5,6.5c0.3,1.1,1.2,0.9-0.5,1c-0.3,1.2,1.5,2.3,0.3,3c1,0.7-0.3,0.7,0.2,1.6
		c2.8,2.1-0.2-7.1,1.7-8.3c-1.3,0.1-1.8-2.6-0.5-2.3C135.7,590,134.7,590.7,134.9,589.5z"/>
	<path class="st8" d="M93.2,364.7v0.7c0.9-1,1.8-0.1,3.1,0.5c2,0.4,4-0.6,4.9,0.8c0.2-1.5,1.4-0.4,2.5-0.7
		c-2.9-0.8-7.3-1.8-10.4-2.4c-0.4-0.7-1-0.5-0.4,0.2c-0.4-0.4-1.9,0.2-2-0.6C89.4,364.4,92.1,365,93.2,364.7z M97.1,365.4
		c0.1-0.1,0.1,0.3,0,0.2C97.1,365.6,97.1,365.4,97.1,365.4z"/>
	<path class="st8" d="M124.8,471.8c1.5,0.7,1,1.6,0,2.8c1.5-0.2,0.1,0.2,1,1.2c-0.7,2.7,0,5.9-0.3,8.8c0.5,0.1,0.6,0.4,0.5,0.8
		c0.7,0.1,1-0.6,0.3-0.8c-0.3-5.9-0.4-12.5,0.4-18.5C124.7,464.8,126.4,472.3,124.8,471.8z"/>
	<path class="st8" d="M128.6,535.9c0.2,0.3,0.3,1.4,0.9,1.3c0.2,0.5,0.5,1.4,1.2,1.2c-0.6-2.2-0.5-3-1.1-5.6
		c-0.3-0.8,0.9-2.8-0.3-2.8C128.4,530.9,128.4,533.5,128.6,535.9z"/>
	<path class="st8" d="M135.4,606.3c1.3-5-1.7-4.4-1.2,0.5c-0.3,0.1-0.1,0.4,0,0C135,607.4,134.2,605.9,135.4,606.3z"/>
	<path class="st8" d="M126.7,430.1c0.6,1.7,0.3,2.8,0.1,4.3C128,433.7,128.4,430.4,126.7,430.1z"/>
	<path class="st8" d="M136.6,583.5c0.9-0.3,1-3.4-0.3-3.8C136.6,581.5,136.2,581.6,136.6,583.5z"/>
	<path class="st8" d="M195,403.4c-0.5-6.9-0.5-0.1-0.6,3C195.9,406.9,194.2,404.1,195,403.4z"/>
	<path class="st8" d="M194.3,393.9c0.7,1.2-0.5,5.6,0.8,5C194.2,397.5,196,393,194.3,393.9z"/>
	<path class="st8" d="M126.5,450.8c1.3-0.7,0.6-3.8,0.5-5c-0.6-0.1-0.1,3.9-0.2,4.1C126.4,450,125.9,450.7,126.5,450.8z"/>
	<path class="st8" d="M126.5,456.9c0.7,2.3,1-1.9,0.2-3C126.2,454.7,126.8,455.9,126.5,456.9z"/>
	<path class="st8" d="M126.7,491.6c0.1,3.1,0.6-1.4,0.4-2.6C125.9,488.8,126.7,491.1,126.7,491.6z"/>
	<path class="st8" d="M135.4,557.6c-0.4,0.9,0,3,0.2,4.1C135.3,560.5,136.6,557.9,135.4,557.6z"/>
	<path class="st8" d="M127.3,499.5h0.4c-0.7-2.1,0.9-5.9-1.2-3.6C127.9,496.6,126.9,498.3,127.3,499.5z"/>
	<path class="st8" d="M194.6,406.9C193.7,410,195.6,410.2,194.6,406.9L194.6,406.9z"/>
	<path class="st8" d="M127.7,501.9c0.8,0.4,0.6-2.4,0-2.4C127.5,500.3,127.6,501.1,127.7,501.9z"/>
	<path class="st8" d="M125.7,485.6c-0.3,0.2-0.6,0.3-0.9,0.4C125.6,486.4,125.7,486.3,125.7,485.6z"/>
	<path class="st8" d="M103.1,367.1c0.3,0,0.3-0.2,0.4-0.5C102.8,366.6,102.8,366.6,103.1,367.1z"/>
	<path class="st8" d="M127.1,434.7c0.1,0.1,0.1-0.3,0-0.2C127.1,434.5,127.1,434.7,127.1,434.7z"/>
	<path class="st8" d="M252.8,227.9c-0.1-1.8-1.7-3.4-3.6-4.4c0.3-0.5-1.3-3.8-1.8-3.2c0-0.9-0.3-2.5-1.2-2.5c0.1-1,0-1.6-1.2-1.4
		c0.5-1.7-1-2.6-1.5-3.4c0.3-2.1-0.9-3.5-2.1-5.1c1.7,0.3-0.3-0.2-0.1-1.1c0.6,0.1,0.9-0.2,0.3-0.6c-0.8-1.2-0.2-4-1.5-4.3
		c1.4-1.1-1.6-2.7-0.4-4c-2.3-1-1.1-7.2-4.3-8.8c1.6-0.6-1.3-3.2-1.6-4.2c1.6-0.9-1.5-3.1-0.5-4.6c-0.6,0-1.8-0.4-0.5-0.6
		c-1.2-3.5-2.2-6.3-3.2-10.7c-2.3-1.9-1.1-4.5-3-6.7c-0.3-2.2-1.1-3.8-2-6.5c-1-2.5-0.4-6-2.5-7.8c-0.6-1-1.1-3.1-2.7-3.1
		c-0.6-1.1-1.7-3.8-3.7-3.6c1.4-0.9-1.7-2.5-2.5-4c0.1-1.1-0.1-1.4-1.2-1.2c-0.6-4.1-6.2-5.4-7.5-8.8c-0.6,1.5-0.7,0-0.6-0.6
		c-2,0.2-3.2-0.9-4.7-2.1c-1.3-0.6-2.9-0.2-4-1.4c-7.4-2.4-14.8-2.4-22.7-7.5c-5.5-5.3-10.3-8.6-14-15.5c-1.8,0-7.3-9.3-8.3-4.4
		c-0.4,0.9,0.6,11.2,1.6,10.3c1.2,1.6,1.9,4,0.8,5.5c0.9-0.6,0.8,3.1,0.2,2.9c0.2,1,1.4,4.8-0.6,4.4c0.8,0.7,1.8,4.6,0.4,4.8
		c0.1,0.7,1,0.9-0.5,1.2c1.2,2.2-0.8,4-2.2,6.3c-0.1,1.6-3.6,0.5-1.2,2.5c-3.8-0.6-1.6,2-3.2,1.9c-1.9-1-5.8,3.6-7.1,4.6
		c-1.1,2.3,0.6,6.4-3.1,6.6c0.2,0.9-0.4,0.9-1.2,0.8c-0.4,0.7-0.5,1-1.2,0.3c-1.1,0.9-2.7-5.2-3.2-3c-1.4,0.6-5.2-3.4-5-0.8
		c-2.6-2.1-6.2-3.4-6.9-6.5c-2.8-0.4-3.2-7.5-5.4-4.8c-0.3-1-0.6-1.4,0.6-1c0-0.4-0.1-0.9,0.5-0.7c-0.6-1.5-1.7-0.8-2,0
		c-0.2-2.6,1.2-0.5-1.6-3.1c-0.1-0.7,0.7-1,0.5-1.7c-1.4,0.1-0.9-2-2.9-1.7c2.5-2.2-2.8-10.6-1.9-14.3c-0.4-1-1.5-7.9-2.4-5.6
		c-1.6-0.2-1.7,2.7-2.6,3.1c-0.4,0-0.3,0.5-0.1,0.5c-0.5,0.3-0.4,0.8-0.9,0.7c0.1,1.4-1.7,0.9-1.3,2.3c-0.8,0.6-4.7,2-3.5,2.5
		c-1.5-0.1-3.6,1-5.6,1c-0.5,1.4-2.1,0.7-3.7,1.2c-1.3,1.5-4.2,1.5-5.8,2.6c-0.2-1.6-1,1-1.8-0.1c-0.9,1.2-1.4-0.7-2.4,0.9
		c-0.3-1.3-1.4,0.3-2.4-0.1c0,2.1-1.2,0.3-1.3,1.2c-3.5,2.2-13.9,4.8-14.5,7.9c-2.7-0.8-10.5,5.1-12.2,8.6c-1-0.7-1.3,0.7-0.8,1.5
		c-0.8-0.1-1.1,0-1,0.9c-3.9,1.8-3.7,7.1-7,8.9c-0.1,1-1.1,2.8-2.1,3.1c0.1,1.3-0.7,1.6-1.7,2.5c0.3,1.2-0.7,1.1-1.2,1.7
		c-0.2,1.8-0.8,2.8-1.8,2.9c-1.4,6.3-5.4,12.7-8.5,19c-1.5,3.9-5.4,9.5-8.3,13.9c-0.2,1.8-2.6,3.4-2.3,5.8c-1.6-0.2-1.1,3.6-2.4,2.6
		c1.1,0.9,0.6,2.6-0.8,2.7c-0.6,2.5-1.6,3.6-2.7,6.2c0.6-0.2,0.4,0.3,0.5,0.7c-1-0.2-1,0.3-0.9,1.2c-3.5,2.8-0.3,7.6,1.7,9.3
		c-1.9-0.9,3.5,2.9,3.4,1.2c0.4,1.2,1.5,1.8,2,0.5c-0.3,2.9,3.6-0.3,5.3,2.5c-0.8-0.8-1.7-1.2-2.9-1.7c0.2,0.9,2,3.5,2.9,1.7
		c0.2,1.2,2.2,1.8,3.4,1.9c-0.1,0.6,3,3.9,3.1,4.7c-1.1,0,0.7,2.5,1.2,3c-0.4,1.1,0.3,1.3,1.7,3.7c5.1,0.7,8.7,3.2,13.1,4.4
		c4.4,2.2,7.9-0.5,13.3,1.6c4.2,1.7,1.1-3.6,3.8-4.2c-2-0.3,0.2-2,0.6-2.9c-0.1-0.4-0.6-1,0.2-0.8c1.2,0.1,0.2-2,1-2.6
		c-0.4,0.5-0.3,3.4,0.8,3c-1-0.4-0.1,3.5-0.8,3.4c-1,5.6-3.2,9.1-3.1,14.7c-1.2,9.1,0.6,21.8-1.4,30.3c0.9-0.2-0.2,1.5-0.6,2.8
		c1.5,0.4-1,3.2-0.4,5.1c0.9,1.2-2.1,4.6,0,4.1c-1.5,1.4-0.7,3.5-1.6,5.9c-0.7,1.7-1.2,1.8-0.5,3.7c-0.8-2-2,2.7-0.1,3.1
		c-1.2,1.1-1,1.8-0.6,2.8c-1.6,7.2,0.8,13.3,2.5,19.7c1.5-0.3,0.9,1.1,0.9,1.9c2-0.2,2.1,2.3,4.1,3.8c1,2.2,1.3,2.2,3.1,3.4
		c0,1.4,2,1,2.9,2.1c0.8,0.2,0.5,2,1.4,0.9c0.2,1.3,2,0.4,1.9,1.3c-2.3-0.3,0.6,1.3,0.3,0c0.9,0.4,2.4,1.9,2.5,0
		c1,4.2,6.5,4.8,9.4,6.4c1.1,0.5,2,1.3,3.7,1.7c0.4-1.2,2.1,0.3,3.7,0c5.7,1.2,9.3,3.2,14.8,3.9c0.2-1.2,2.4,0.1,3.4-0.5
		c-0.4,1-0.2,1,0.7,1c-0.3-1.8,1.8-1,2.2-0.5c0.9-0.4,1.5-1.3,0.2-1.8c2-0.2,2-1.3,1.5,0.8c0.8,0.3,1.9-1.3,1.6,0.6
		c0.7,0.2,0.4-0.5,0.5-0.9c2.5,0.4,3.6-2,6-1.7c-2.1-0.9,3.6,0.3,3.2-2.1c0.7,0.8,2.4,1,2.4-0.7c0.7,0.6,2.3,0.6,3.2,0.3
		c-1.5,0.6,3.5,2.6,4.3,1.8c-0.1,1.2,0.9,0.7,1.8,0.7c0.6,0.7,2.1,2.3,2.4,0.3c-2.5-1.3-0.1-1.2,1.1-0.6c-0.4,0.7-1.1,1.4-1.4,1.9
		c0.4,0.3,1.3,1.4,1.8,0.7c0.8-0.4,0.7,1.5,1.7,0.4c1.4,1.5,10.9,3.7,9.9,1.3c-3.2-0.3-1.7-1.6,0.7-0.5c3.5,0.5,4.9,4.9,8.8,4.1
		c0.9,2.6,6.2,1.2,6.1,2.9c0.4,0,0.9,0.2,0.7-0.4c1-0.3,0.5,0.5,1,0.9c2.5,1.2,1-1.3-0.5-1.8c1.1,0.1,3.6,0.1,2.6,1.6
		c1.3,0.8,3.2-0.1,2.6,2.1c2.9-0.9,6.3,0.9,9.3,0c1.2-2.5-0.1,0.4,1,0.4c2.4-2,4.3,0.2,7-0.4c0-1.5,1.1,1.3,1-0.7
		c6.2,0.6,8.4-2.3,8.1,5.9c-0.5,0.1-0.4,0.6,0.1,0.5c1.3,1,0.2-1.4,1.2-1.2c0,1.8,0.8,3.1,0,4.5c2.4,0.2,0.6-1.8,1.3-3.7
		c-0.6-0.5,0.5-3.6-0.6-5.1c1-0.4-0.2-2.1,0.9-1.9c1.6-0.4,2-1.7,3-1c2.2-2.4,3.3-6.4,2.7-9.5c1.7-1.6,0.2-7-0.5-9
		c0.1-0.8,1.1-2-0.3-2.5c1.3-1.4-1.3-4,0-4c0.1-0.5-0.1-1.2-0.6-1.4c-0.4-1.4,0.4-2.5-1-3.4c0.5-0.7,1.4-1.8-0.3-1.7
		c1.1-0.1,1.3-0.7,0.3-0.7c-0.2-1.8,1.1-5.1-0.3-5.6c1.3-1.1,0-2.4,0.3-3.8c1.5-1.6-0.1-5,1.6-6.2c-1.9-2.8,1.2-9.5,0.1-14.3
		c1.2-1.6-0.9-1.8,0.1-3.5c2.5,0.7,0.2-1.1,0.4-2.2c1.3,2.1-0.7-6.5-1.1-8.3c-1.8-2.3,3.3-0.7-0.9-4c1.9-2.8-0.3-6.9-0.7-8.7
		c0.9-4-1.8-12.7,0.7-17.4c4.9,0.2,10.8-2.7,16-4.4c3.5-1,6.5-3.9,9.5-8.2c1.2,0.2,1.4-1.2,2.2-1.7c1.2-0.6,2.2-0.9,2.3-2.4
		c3.8,0.3,5.7-4.7,9.1-6.6c0-1.9,3.4-1.9,3.2-3.7c0.9-0.3,4,0.1,3.8-1.3c2,1.7,2.1-0.5,4.4-0.6C252.3,229.2,251.8,228,252.8,227.9z
		 M96.9,113c0.3,0,0.7,0.2,1,0.3C97.5,113.2,97.2,113.1,96.9,113z M149,133.4c-0.1,0.1-0.1-0.3,0-0.2C149,133.2,149,133.4,149,133.4
		z M152.5,360.8c-0.1-0.5,0.2-0.4,0.7-0.5C153.4,361,152.9,360.8,152.5,360.8z M162.3,362.8c-0.2-0.7,0.2-0.5,0.6-0.1
		C162.6,362.7,162.5,362.8,162.3,362.8z M163,362.9c0.1-0.2,0.3,0.1,0.2,0.2C163.3,363,163,362.9,163,362.9z M163.3,363.2
		C163.1,363,163.2,363,163.3,363.2C163.4,363.1,163.3,363.2,163.3,363.2z M194.7,366.4c0-0.1,0.1-0.6,0.1-0.7
		C194.8,365.9,194.8,366.1,194.7,366.4z"/>
	<path class="st8" d="M194,123.3C194,123.3,194,123.3,194,123.3C194,123.3,194,123.3,194,123.3z"/>
	<path class="st8" d="M50.3,301.6v0.2C50.5,301.9,50.5,301.5,50.3,301.6z"/>
	<path class="st8" d="M4.2,209.1c0.1,0.2,0.2,0,0.3-0.1C4.4,208.9,4.3,209.1,4.2,209.1z"/>
	<path class="st8" d="M202.8,126.7c0.6,0,0.6-0.3,0-0.2C202.8,126.5,202.7,126.6,202.8,126.7z"/>
	<path class="st8" d="M228.4,167.2v0.2C228.7,167.4,228.6,167.4,228.4,167.2z"/>
	<path class="st8" d="M156.7,363.3c-0.1,0.3,1.7,1.6,1.4,0.4C157.3,363.9,157.6,363,156.7,363.3z"/>
	<path class="st8" d="M100.2,357.8c0.1,0.1,0.1,0.1,0.2,0.2C100.4,357.8,100.4,357.7,100.2,357.8z"/>
	<path class="st8" d="M135.1,356.8c0.1,0.1,0.1,0.3,0.2,0.1C135.3,356.9,135.2,356.7,135.1,356.8z"/>
	<path class="st8" d="M165.9,364.2v0.2C166,364.5,166,364.1,165.9,364.2z"/>
</g>
<path class="st0" d="M134.6,584.5h0.5c0,0.2-0.1,0.5,0.2,0.5c-0.1,0.5,0.1,1,0.5,1.3v1.6h-0.5c-0.2-0.1-0.3-0.2-0.5-0.4
	c0.1-0.5,0.1-1.1,0.2-1.7c-0.1,0-0.2-0.1-0.4-0.1C134.7,585.2,134.7,584.8,134.6,584.5L134.6,584.5z"/>
<path class="st0" d="M135.6,590.5c-0.7-0.1-0.7-0.2-0.7-1c0-0.2,0-0.4,0-0.6c0-0.2-0.2-0.3-0.4-0.5c0.4,0,0.6-0.1,0.9-0.1h0.6
	C135.5,589,135.6,589.8,135.6,590.5L135.6,590.5z"/>
<path class="st0" d="M134.4,569.3h0.5c0.2,0.2,0.4,0.4,0.7,0.7h-1v0.6c0.2,0.1,0.3,0.2,0.6,0.3c-0.2,0.2-0.4,0.4-0.6,0.5
	C134.1,570.6,134,570.2,134.4,569.3L134.4,569.3z"/>
<path class="st0" d="M130.3,541.8h0.7c0.1,0.4,0.1,0.9,0,1.4c0,0-0.1,0.1-0.2,0.1c-0.4-0.1-0.5-0.4-0.5-0.8
	C130.3,542.2,130.3,542,130.3,541.8z"/>
<path class="st0" d="M134.6,572h0.6c0.1,0.5-0.1,0.8-0.6,1c-0.3-0.1-0.3-0.2-0.1-0.5C134.6,572.3,134.6,572.1,134.6,572z"/>
<path class="st0" d="M133.2,555.9c0.1,0.1,0.2,0.2,0.2,0.2C133.4,556.1,133.3,556,133.2,555.9z"/>
<path class="st0" d="M132.9,556.1v0.2h-0.1L132.9,556.1L132.9,556.1z"/>
<path class="st0" d="M134.9,591.9v-1h0.7c0.1,0.4,0.2,0.7,0.3,1.2C135.5,592.1,135.2,592,134.9,591.9z"/>
<path class="st1" d="M136.8,574.4v0.5h-0.7v-0.5H136.8z"/>
<path class="st1" d="M135.8,574.1v0.2h-0.1L135.8,574.1L135.8,574.1z"/>
<path class="st0" d="M130.6,527.1c-0.1,0-0.3,0-0.5,0c0-0.2,0-0.3,0-0.5c0.2,0.2,0.4,0.3,0.6,0.4C130.7,527,130.6,527.1,130.6,527.1
	L130.6,527.1z"/>
<path class="st0" d="M131.5,541.2h-0.4c0,0,0-0.1,0-0.1c0.1,0,0.3-0.1,0.4-0.1C131.5,541.1,131.5,541.2,131.5,541.2z"/>
<path class="st1" d="M124.8,461.2c0.1-0.1,0.2-0.3,0.4-0.5c0.1,0.3,0.1,0.4,0.1,0.6c-0.2,0-0.3,0-0.4,0.1
	C124.9,461.3,124.8,461.3,124.8,461.2z"/>
<path class="st1" d="M126.3,442.7v-0.5h0.1v0.5H126.3z"/>
<path class="st1" d="M128.6,516.1c0.2,0.1,0.4,0.2,0.6,0.2s0.4,0,0.6,0c0.1,0.5-0.2,0.6-0.5,0.8
	C129.1,516.8,128.7,516.7,128.6,516.1L128.6,516.1z"/>
<path class="st1" d="M128.2,507.4V507c0,0,0.1,0,0.1,0l0.1,0.4C128.4,507.4,128.3,507.4,128.2,507.4L128.2,507.4z"/>
<path class="st1" d="M97.2,365.4v0.2h-0.1L97.2,365.4L97.2,365.4z"/>
<path class="st1" d="M92.7,363.7c0.1,0.1,0.1,0.1,0.2,0.2l-0.1,0.1C92.8,363.9,92.7,363.8,92.7,363.7
	C92.7,363.7,92.7,363.7,92.7,363.7z"/>
<path class="st1" d="M125.5,474.5c0.1-0.1,0.1-0.1,0.2-0.2c0,0,0.1,0,0.1,0.1C125.7,474.5,125.6,474.5,125.5,474.5L125.5,474.5z"/>
<path class="st1" d="M157.5,369.7h0.4c0,0.1,0.1,0.2,0.1,0.4c-0.2,0-0.3,0-0.4,0.1V369.7z"/>
</svg>
