<?xml version="1.0" encoding="UTF-8"?>
<svg id="Layer_1" data-name="Layer 1" xmlns="http://www.w3.org/2000/svg" viewBox="0 0 1069.81 1055.45">
  <defs>
    <style>
      .cls-1 {
        fill: #dfa119;
      }

      .cls-2 {
        fill: #432d0b;
      }
    </style>
  </defs>
  <path class="cls-1" d="M823.28,882.63c.55,1.89,.61,4.41,.69,6.92,0,.14,.22,.27,.26,.31-.22,1.17-.42,2.27-.7,3.79-.11,.06-.57,.35-1.13,.69,.48,1.04,.86,1.88,1.37,2.98v3.43c-.24,.32-.44,.59-.8,1.07,.52,.22,.87,.36,1.38,.57-.25,2.81-1.64,5.78,.65,8.5-.82,1.4-.61,2.62,.21,4.03,.61,1.04,.51,2.5,.75,3.77,.08,.41,.24,.8,.38,1.28-.22,.11-.57,.28-.93,.45v.63c.28,.1,.59,.21,.94,.33,.5,.9-.16,2,.6,3.02,.42,.56,.36,1.86-.38,2.68,1.2,.9-.06,1.86-.3,3.21,.61-.46,.78-.59,.96-.72,.82,.81,.91,1.84,.94,2.96,.03,1.11,.07,2.36,.58,3.28,.51,.92-.43,1.76,.38,2.71,.63,.75-.42,2.27,.52,3.15-.15,.44-.28,.84-.43,1.23-.15,.39-.33,.77-.49,1.13,.48,2.06,.96,4.12,1.47,6.35-.44,.45-.25,1.68-1.49,1.85,.24,.06,.49,.13,.93,.24,.15,.79,.5,1.66-.55,2.48,.49,.1,.74,.16,1.11,.24,.6,1.22-1.2,2.44-.23,3.64,.93,1.14-.41,2.73,.83,3.66-.33,1.47-.64,2.87-.98,4.36,.1,.12,.27,.31,.48,.55-.36,.17-.72,.34-1.19,.56,.41,.14,.73,.25,1.05,.36,.69,1.43-.51,2.7-.37,4.07,.13,1.27,.38,2.54,.59,3.86-.39,.08-.64,.13-1.08,.22,.16,.33,.31,.65,.47,.96,.15,.3,.32,.6,.5,.95-.25,.09-.57,.2-1.08,.37,.19,.6,.47,1.2,.56,1.83,.1,.7,.02,1.43,.02,2.21-.55-.15-1.03-.28-2.11-.58,.74,1.06,1.12,1.6,1.57,2.25v3.12c-1.11,.99-1.19,2.29-1.06,3.72-.38,.42-.78,.87-1.25,1.38,1.67,1.87-.18,3.63,.09,5.41-.41,.11-.66,.17-.98,.26v1.73c-1.09,.69-1.51,2.12-2.79,2.75v1.11c-.61,.49-1.23,.99-2.24,1.8-.8,.15-2.15,.37-3.49,.65-1.32,.28-2.63,.63-3.73,.9-3.45-.36-6.74-.7-10.07-1.04-.05-.24-.1-.49-.18-.85h-3.48c-.13-.39-.24-.7-.37-1.11h-1.82c-.12-.31-.2-.55-.35-.94-2.14-.6-4.16-1.77-6.3-3.24-.31-.82-.89-1.73-1.93-2.41-.88-.58-2-.97-2.35-2.23-.12-.44-.7-.83-1.15-1.07-1.28-.68-2.2-1.64-2.92-2.91-.31-.54-1.03-.85-1.6-1.29v-1c-2.25-1.34-2.83-3.92-4.47-5.74,.21-.29,.36-.5,.54-.74-.04-.08-.08-.31-.15-.32-1.82-.21-1.75-2.04-2.34-3.1-.51-.92-.69-2.07-1.47-2.92-.61-.67-.4-1.3,.29-1.92-2.19-1.61-1.79-4.5-3.25-6.58,.09-3.01-1.86-5.7-1.94-8.88-.1-.02-.35-.07-.61-.13-.76-1.62-.92-3.34-.74-5.11-.35-.33-.67-.65-1.08-1.05,.13-.17,.26-.35,.5-.66-.31-.9-.67-1.91-1.05-2.99,1.5-2.01-.86-3.28-1.16-5.19,.16-.39,.39-.94,.66-1.6-.34-.12-.64-.23-1-.36-.58-1.16,.13-2.52-.47-3.81-.49-1.04-.5-2.31-.73-3.54,.27-.1,.58-.21,1.03-.37-.58-.37-1.1-.71-1.67-1.09,.23-1.88-.33-3.61-.86-5.36-.41-1.36-.34-2.73,.16-4.18l-.83-.83c.15-.27,.51-.67,.43-.8-.76-1.23-.16-2.69-.59-3.85-.46-1.23-.28-2.43-.5-3.62-.26-1.42-.43-2.86-.89-4.26-.24-.71,.03-1.59,.08-2.5-.04,0-.29-.06-.59-.12-.28-1.67-1.03-3.31-.73-5.09,.04-.22,.34-.39,.6-.68-.57-.1-1.07-.19-1.77-.32,.64-1.58-1.1-2.82-.64-4.62-1.11-.51-1.23-1.92-1.38-2.96-.23-1.63-.38-3.3-.59-4.95-.18-1.48-.54-2.83-1.13-4.19-.89-2.03-1.45-4.16-1.71-6.4-.18-1.56-.9-3.05-1.44-4.8,.35-.56,.86-1.41-.13-2.26-.21-2.66-1.83-5.02-1.67-7.78,.04-.64-.18-1.41-.55-1.92-.41-.56-.49-1.07-.52-1.71-.11-2.5-1.01-4.83-1.72-7.19-.58-1.95-1.18-3.9-1.89-6.24-.22-.32-.7-1.04-1.29-1.9v-2.28c-.33-.07-.58-.12-.99-.2-.03-.26-.13-.6-.08-.92,.05-.32,.27-.61,.42-.93-.74-.38-1.76-.65-1.53-1.94-1.06-1.31-1.51-2.8-1.72-4.49-.11-.82-1.14-1.52-1.88-2.42,0,0,.16-.24,.45-.67-1.43-.85,.21-3.32-2.17-3.91-.26-1.48-.54-3.01-.86-4.78-.28-.18-.78-.5-1.35-.86-.24-2.2-1.35-4.21-2.28-6.29,.21-.44,.41-.89,.66-1.42-.39-.1-.63-.17-.91-.25-1.33-3.2-2.68-6.45-4.09-9.83,.13-.23,.33-.6,.61-1.11-.57-.46-1.23-.9-1.58-1.65-.37-.79-.16-1.63-.6-2.49-.75-1.48-1.27-3.09-1.97-4.63-.45-.99-.9-2.2-1.55-2.84-.86-.84-.72-1.94-1.41-2.76-.63-.74-.93-1.76-1.47-2.85-.48-.35-1.18-.87-1.81-1.33-.06-2.07-.66-3.68-2.71-4.48-.04-.37-.09-.8-.16-1.33h-1.26c-.68-1.24-.95-2.61-2.47-3.17-.62-.23-.98-1.16-1.5-1.83-.23,0-.6,0-.96,0-1.19-2.12-2.83-3.73-5.14-4.59-.04-.43-.07-.86-.12-1.37-.44,.22-.79,.39-1.17,.58-.33-.54-.64-1.03-1.04-1.68-1.71,.07-3.16-.69-4.69-1.57-1.3-.74-2.16-2.31-4.27-2.01-.86,1.25-2.26,.03-3.22-.39-4.03-1.77-4.6-2.06-7.6-2.06-.38-.36-.76-.71-1.12-1.06-.23,.19-.43,.36-.77,.65-.46-.38-.93-.76-1.47-1.21-1.79,.31-3.27-1.32-5.14-1.12-1.38-1.28-3.26-1.28-4.87-1.81-.02-.33-.04-.5-.04-.57-1.4-.48-2.75-.94-4.1-1.41-.33-.73-.64-1.42-1.08-2.39-.17,.73-.29,1.24-.45,1.9-1.47-.48-2.43-1.47-3.24-2.85-1.97,.61-3.12-1.05-4.59-1.81-1.14-.59-1.87-1.23-3.17-1.45-.06-.06-.18-.12-.18-.19-.04-.35-.05-.71-.07-1.08-.8-.39-1.62-.79-2.5-1.21-1.56,1.79-2.04,3.51-1.27,5.03-.32,.11-.63,.21-.94,.32-.06,.16-.17,.32-.16,.47,.04,1.87-.17,3.61-1.53,5.12-.52,.57-.57,1.56-.83,2.38-.22,.06-.47,.12-.72,.19-.29,1.23-.59,2.47-.87,3.67-.34,.07-.59,.13-.52,.12-.67,1.33-1.24,2.46-2.06,4.07,0-.06,0,.48,0,1.13-.29,.09-.6,.19-.94,.3-.44,.52,.14,1.38-.71,1.91-.47,.29-.57,1.17-.84,1.78-.23,.05-.47,.1-.63,.13-.23,1.56-.45,3.01-.7,4.65-.54,.43-1.17,.94-1.54,1.24-.39,2.82-.85,5.27-1.82,7.55-.5,1.17-.61,2.08,.22,3.06-.53,.25-.9,.43-1.41,.67,.26,.41,.48,.76,.76,1.2-.32,.63-.67,1.3-1.14,2.22,.4,2.75-.86,5.57-1.16,8.52-.5,.32-1.04,.67-1.68,1.09,.49,.2,.8,.33,1.08,.44-.14,1.02-.23,2.03-.44,3.02-.15,.74-.27,1.63-.75,2.12-.67,.69-.85,1.48-1,2.25-.37,.08-.61,.13-.82,.17,.14,.51,.47,1.02,.37,1.42-.4,1.55-.76,3.15-1.48,4.56-.6,1.17-.66,2.32-.93,3.44-.38,.84-.84,1.66-1.11,2.53-.25,.82-.28,1.7-.41,2.56-.25,.07-.5,.13-1.01,.26,.25,.29,.43,.5,.7,.81-1.1,2.02-1.74,4.2-1.76,6.59,0,.91-.39,1.82-.67,2.71-.26,.8-.73,1.54-.89,2.35-.16,.78-.03,1.62-.03,1.92-.55,1.39-.92,2.33-1.33,3.37-.17,.06-.48,.19-.96,.37,.23,.48,.44,.92,.66,1.4-.69,.94-1.41,1.91-2.21,2.99,.21,2.2-.09,4.42-1.09,6.5-.77,1.61-1.41,3.25-1.73,5.02-.07,.37-.61,.65-1.04,1.08,.68,2.83-.94,5.25-1.89,7.79-.32,.87,.31,2.04-.88,2.65-1.04,.53,.07,1.92-.93,2.64-.26,.18-.04,1.03-.04,1.61-.33,.3-.66,.6-.89,.8-.29,1.49-.56,2.84-.8,4.07-.59,.36-1.1,.68-1.58,.97,.05,.87-.36,1.72,.58,2.37-.37,.12-.67,.22-1.19,.4,.1,.36,.2,.72,.37,1.34-.21,.11-.65,.34-.83,.44-.11,1.77,.13,3.29-1.88,3.82,1.07,1.08,.79,2.27,.1,3.26-.7,.98-1.09,1.96-.99,3.29-.35,.27-.78,.59-1.1,.84v3c-.3,.1-.61,.21-1.02,.35v1.7c-.42,.42-.74,.74-1.06,1.07,1.11,1.55-.09,2.86-.44,4.27-.36,1.48-.42,3-1.08,4.46-.48,1.07-.21,2.47-.25,3.37-.6,1.74-1.1,3.16-1.63,4.69,.83,.8,.89,2.07,.48,2.89-.41,.8-.33,1.52-.46,2.28-.13,.75-.55,1.5-.5,2.23,.15,1.85,.49,3.68,.76,5.55-.15,.05-.47,.17-.9,.32,.48,.22,.84,.39,1.3,.61-.6,.41-1.14,.77-1.83,1.24h1.32c1.01,1-.11,1.68-.18,2.69,.35,.74,.79,1.65,1.23,2.57-.46,.22-.82,.39-1.29,.61,.43,.16,.75,.27,1.25,.45-.1,.94-.21,1.92-.3,2.79,1.59,1.46,1.93,3.39,1.88,5.45l1.07,1.07v2.06c1.66,2.27,.99,5.33,3.24,7.14v2.21c1.21,.75,1.14,2.18,1.77,3.22-.26,.28-.43,.48-.54,.59,.54,.81,1.07,1.59,1.58,2.34-.77,1.79-.82,2.03,.37,3.54,.85,1.08,1.05,2.28,1.27,3.5-.43,.17-.75,.29-1.43,.56,.8,.13,1.25,.21,1.86,.31,.38,1.93,.41,4.11,1.26,5.9,1.24,2.63,1,5.54,2.08,8.14,.1,.23,.01,.54,.01,.83,.36,.38,.73,.77,1.2,1.26-.21,.33-.43,.69-.75,1.19,.33,.42,.7,.89,1.15,1.47,.24,1.5-.42,3.25,.65,4.73-.24,.26-.43,.46-.55,.6,.29,.54,.57,1.07,.89,1.65-.11,.28-.39,.64-.37,1,.02,.48,.27,.96,.46,1.55-.74,1.06-.75,2.41-.27,3.63,.36,.91,.4,1.54,0,2.46-.34,.76-.14,1.75-.22,2.64-.06,.66-.19,1.31-.36,2.42,.47,.66,.63,1.72-.14,2.93-.44,.68-.51,1.61-.8,2.62-.13,.06-.5,.24-.92,.43,.41,.19,.77,.36,1.23,.59-.43,.16-.75,.27-1.12,.41v2.31c-.37,.24-.82,.54-1.12,.73v2.01c-.29,.1-.59,.2-.91,.31-.32,2.26-1.73,4.57-3.43,5.6-.04,.43-.08,.86-.12,1.41-.6,0-1.15-.11-1.64,.03-.54,.15-1.03,.53-1.52,.8,.18,.2,.36,.4,.61,.68-.34,.65-.68,1.33-1.07,2.08-2.18,.22-3.53,2.36-5.87,2.49-.28,1.04-.95,1.51-2.18,1.68-.94,.13-1.78,.93-2.56,1.38-2.51,0-5.06,.47-7.33-.13-2.26-.6-4.66,.65-6.74-.92-.31,.23-.57,.44-.97,.74-1.72-1.16-3.73-1.77-5.82-2.25-.16,.15-.36,.33-.55,.5-.32-.32-.64-.64-.9-.9-1.96-.29-3.85-.56-5.73-.83-.31-.69-.63-1.38-.94-2.08-1.71,1.6-3.36-.04-5-.13-1.63-.1-2.96-1.7-4.94-1.48-.08-.29-.18-.6-.3-1.01h-1.29c-.13-.39-.24-.71-.36-1.06-.12,.03-.27,.02-.37,.09-1.41,.93-2.43-.11-3.53-.7-.51-.27-1.02-.55-1.92-1.03-.09-.15-.46-.71-.9-1.4-.45,.28-.8,.5-1.25,.79-1.5-.58-2.32-2.22-3.9-2.8-1.49-.55-2.94-1.21-4.28-1.77-.1-.41-.16-.66-.23-.92h-1.81c-.1-.29-.21-.59-.33-.92-1.28-.45-2.92-.44-3.33-2.29-.42-.05-.85-.1-1.41-.17-.06-1.16-.16-2.42-1.89-2.07-.93-1.34-1.84-2.65-3.02-4.36-.15-.16-1.13-.76-1.07-1.2,.16-1.13-.97-.85-1.17-1.43-.22-.64-.16-1.56-.59-1.9-1.24-.99-1.47-2.27-1.63-3.68-.06-.55-.44-1.09-.76-1.58-.1-.15-.47-.11-.75-.16-.06-.47-.11-.9-.16-1.36-.3-.11-.62-.23-1.03-.39v-2.39c-.33-.07-.58-.12-.94-.19-.4-1.66-.81-3.39-1.24-5.18,.3-.1,.62-.21,1.02-.35-.89-1.33-1.76-2.64-2.62-3.92,1.25-1.56-.16-2.71-.62-4.15,.13-.2,.31-.48,.53-.84-.06-1.58-1.91-3.09-.5-5-.31-.85-.64-1.78-.99-2.75,.25-.05,.5-.1,.87-.18,.13-.61-.61-.7-.79-1.11-.06-.16-.1-.33-.18-.47-.75-1.34,1.12-2.42,.23-4.02-.62-1.11-.23-2.82-.2-4.25,.01-.66,.22-1.31,.3-1.76-.16-1.74-.3-3.3-.45-4.94,.62-.4,1.18-.76,1.8-1.15-.35-.12-.67-.23-1.05-.37v-4.04c.28-.1,.6-.22,1.14-.42-.48-.21-.81-.35-1.16-.5-.22-1.26,.99-1.19,1.66-1.76-.92-1.32-.59-2.84-.6-4.39,.23-.07,.47-.15,.86-.28,.04-.09,.2-.31,.21-.53,.04-1.58-.1-3.16,.54-4.69,.87-2.09,.49-4.35,.58-6.49,.42-.15,.74-.26,1.31-.47-.42-.41-.72-.7-1.22-1.18,.1-.26,.58-.5,.93-.95v-3.92c.35-.21,.82-.49,.83-.5,.88-1.57-1.03-2.54,.25-3.88,.65-.68-.44-2.28,.66-3.28-.06-.78-.88-1.34-.39-2.39,.56-1.21,.7-2.64,.86-3.99,.07-.63-.24-1.3-.36-1.85,.57-2.72,1.13-5.37,1.72-8.16-.08-.77-.19-1.76-.3-2.76,.69-.11,1.19-.2,1.93-.32-.6-.28-.97-.45-1.33-.62,.62-2.23,1.24-4.44,1.89-6.77,.09-.02,.34-.07,.84-.17,0-.52-.07-1.14,.02-1.72,.09-.57,.36-1.12,.55-1.66-.2-.22-.38-.42-.56-.61,.9-.47,1.8-.94,3.12-1.62-.97-.21-1.48-.33-2.01-.45,2.01-5.73,3.27-7.92,4.9-9.48v-1.56c.35-.35,.67-.67,.99-.99-.17-.27-.33-.54-.63-1.02,.68-.6,1.36-1.21,2.06-1.83,.43-1.15,.71-2.52,1.41-3.64,.63-.99,.55-2.56,2.21-2.77-.24-.24-.37-.37-.66-.66,.3-.13,.54-.23,1.02-.44,.22-.63,.52-1.5,.83-2.41,.25-.09,.56-.2,.88-.31v-1.23c.3-.1,.61-.2,1.11-.36,0-.27-.14-.72,.02-.93,1.16-1.5,1.4-3.45,2.5-4.96,.23-.31,.71-.44,1.2-.72v-1.73c.76-.59,1.47-1.14,2.19-1.7-.33-.12-.65-.23-.84-.3,.6-.61,1.2-1.23,1.97-2.02h.81c.3-.59,.61-1.17,.9-1.74-.21-.33-.4-.62-.71-1.1,1.58-.86,1.14-3.38,3.26-3.9,.25-.91,.5-1.81,.67-2.4,.92-1.08,1.83-1.87,2.36-2.86,.55-1.01,.73-2.22,1.06-3.31,.42,0,.69,0,.98-.03-.01,0-.05,.04-.08,.08,.13,.15,.25,.3,.38,.45,.06-.06,.11-.11,.17-.17-.15-.13-.3-.25-.47-.35,.02-1.19,.72-2.04,1.5-2.89,.38-.42,.59-1,.63-1.65,.55-.58,1.18-1.12,1.64-1.77,.33-.46,.45-1.08,.67-1.65,.65-.3,1.33-.63,2.26-1.06-.74-.15-1.27-.26-2.15-.45,.64-.2,.94-.3,1.33-.43v-1.16c.61-.6,1.12-1.12,1.73-1.72v-2.34c.33-.07,.58-.12,.89-.18,.49-1.55,.99-3.16,1.49-4.77,.24-.06,.48-.13,.82-.21v-1.9c.58-.1,1.08-.18,2-.34-.66-.27-.97-.4-1.53-.63,.43-.16,.69-.26,1.01-.38,.29-1.58,2.38-2.53,1.79-4.59,.31-.1,.55-.18,.94-.31,.3-.97,.64-2.09,.97-3.18h1.28v-2.07c.97-1.27,1.81-2.28,2.53-3.37,.26-.4,.19-1,.35-1.49,.09-.27,.35-.47,.55-.74-.01,0-.05,.04-.08,.08,.13,.15,.25,.3,.38,.45,.06-.06,.11-.11,.17-.17-.15-.13-.3-.25-.47-.35,.22-.87,.47-1.76,.72-2.67h1.27c.55-2.79,1.88-5.32,3.24-8.13-.02,0,.3-.11,.6-.21,.52-2.23,.59-4.58,2.1-6.5,.23-.3,.13-.84,.24-1.26,.11-.4,.29-.77,.45-1.19-.12-.13-.29-.33-.46-.52,1.44-3.95,.84-8.24,2.16-12.35-.75-.65-.75-1.75-.45-2.59,.37-1.04-.17-1.89-.11-2.84,.06-.92,.39-1.97-.37-2.81,.27-.75,.55-1.51,.79-2.19-.99-1.85,.43-4.3-1.32-5.93,.55-1.95,.71-3.87-.11-5.95,.12-.22,.32-.58,.64-1.18-.36-.16-.76-.24-1-.47-.22-.21-.28-.6-.45-1.03-1.05,.26-2.22-.42-3.28,.49-.23,.2-.84,.04-1.25-.05-.66-.14-1.31-.36-1.89-.52-.51,.49-.9,.86-1.41,1.34-1.39-.33-2.86-.68-4.39-1.04-.03,.15-.08,.4-.18,.88-.57-.07-1.19-.14-1.99-.24-1.28,.45-2.76,.5-4.42-.21-1.38,.81-3.07,.44-4.73,.43-.88-1.16-1.71-.09-2.57,.06-.28-.2-.55-.4-.92-.66-.29,.21-.56,.41-.97,.71-.35-.17-.8-.39-1.3-.64-.25,.17-.52,.35-.82,.56-.12-.32-.23-.64-.32-.88-.95-.22-1.86-.43-2.85-.66-.17,.12-.45,.32-.77,.55-.69-.38-1.35-.75-2.08-1.15-1.48,.55-2.99,.82-4.69,.16-1.24-.48-2.63-.52-3.89-1.14-.54-.26-1.44,.21-2.24,.36-.14-.29-.31-.67-.54-1.16-.76,.39-1.49,.76-2.24,1.13-.12-.3-.24-.61-.37-.94-.72,.16-1.78,.7-2.11,.41-.94-.82-1.51,.49-2.35,.12-.67-.3-1.46-.04-2.25-.5-.57-.33-1.61,.15-2.72,.31-.03-.02-.31-.21-.68-.46-.32,.19-.68,.4-1.06,.62-.34-.13-.7-.37-1.05-.37-.4,0-.8,.33-1.2,.33-.59,0-1.2,.19-1.79-.31-.19-.17-.85,.28-1.3,.32-.63,.06-1.27,.05-1.9,0-.59-.04-1.24,.23-1.75-.41-.15-.19-.67-.14-1.02-.12-1.01,.06-1.86,.96-3,.44-.91-.42-1.88-.77-2.86-.96-.79-.15-1.63,.02-2.44-.05-.39-.03-.77-.28-1.19-.44-.13,.12-.33,.29-.66,.59-.9-.58-1.83-1.17-2.65-1.69-.9,.21-1.73,.4-2.48,.57-.5-.48-.89-.85-1.36-1.3-.52,.15-1.06,.31-1.78,.51,0-.29,0-.63-.03-.99,0,.01,.04,.05,.08,.08l.45-.38c-.06-.06-.11-.11-.17-.17-.13,.15-.25,.3-.35,.47-.71,.16-1.46,.3-2.46,.48-.05-.08-.19-.34-.47-.83-.61-.31-1.47-.75-2.33-1.19-.13,.37-.24,.69-.43,1.2-.16-.49-.26-.79-.4-1.18h-1.53c-1.4-.89-2.53-1.76-4.2-.66-.17-.39-.38-.88-.59-1.35-1.05,.37-1.68,.59-2.45,.86-.5-1.01-1.61-1.45-2.45-2.25-.46,.23-.9,.45-1.48,.74-.14-.41-.25-.71-.36-1.04-.12-.05-.27-.19-.42-.19-1.23,.01-2.36-.14-2.88-1.5-1.02-.17-1.98-.47-2.79-1.16-1.5,.39-2.34-.93-3.53-1.35-.09-.49-.18-.98-.31-1.65-.26,.55-.43,.91-.72,1.51-.12-.76-.19-1.26-.33-2.17-.29,.67-.42,.99-.66,1.54-.15-.43-.25-.7-.32-.9-1.36-.46-2.71-.93-4.01-1.37-.29-.5-.51-1.29-.82-1.32-1.86-.22-2.8-1.92-4.37-2.53-.79-.31-1.62-.51-2.53-.79-.35-.37-.99-.79-1.26-1.38-.4-.87-1.28-.68-1.83-1.12-.63-.5-1.2-1.07-1.82-1.64h-1.17c-.32-1.33-2-1.64-2.44-3.14-1.91,.12-2.68-1.83-4.22-2.56v-1.19c-1.22-.47-2.47-.95-3.7-1.42-.12-.34-.22-.65-.33-.95h-1.26c-.09-.48-.19-.98-.28-1.47-1.13-.77-2.18-1.76-3.43-2.25-1.35-.54-1.21-2.65-3.29-2.28,.37-.68,.57-1.04,.81-1.47-.76-.28-1.54-.57-2.54-.94-.28-.48-.45-1.45-1.69-1.44v-1.81c-.89-.68-1.7-1.32-2.46-2-.78-.7-1.96-.97-2.36-2.19-.13,.37-.25,.69-.4,1.11-.2-.15-.38-.29-.63-.48-.35,.7-.71,1.41-1.07,2.13h-1.15c-.3,.66-.61,1.35-.89,1.97-.83,.52-1.61,1.01-2.48,1.55-.43,1.27-.34,3.13-2.29,3.07-.78,.81-1.43,1.49-2.08,2.15-.58,.58-1.11,1.22-1.76,1.72-1.91,1.48-3.15,3.44-4.32,5.53-.48,.86-1.59,1.35-2.38,2.04-.68,.59-1.32,1.22-1.96,1.8-.05,.48-.09,.91-.14,1.4-.73,.05-1.41,.1-2.19,.16,.32,.42,.53,.68,.84,1.08-2,1.36-3.44,3.11-4.83,5.27-.41,.19-1.1,.5-1.8,.81-.1,.31-.21,.62-.31,.92-.43,0-.79,0-1.16,0-.09,.14-.21,.28-.27,.43-.18,.47-.25,1.3-.52,1.37-1.14,.29-1.09,1.81-2.13,1.99-1.24,.21-1,1.58-1.84,2.05-.58,.33-1.18,.62-1.96,1.03v1.07c-.39,.13-.71,.24-1.12,.38v1.43c-.51,.04-.93,.07-1.35,.1-.48,.57-.98,1.15-1.45,1.74-.54,.69-1.23,1.14-1.94,1.65-1.47,1.06-3.15,2.08-3.64,4.08-.71,.29-1.35,.48-1.57,1.5-.29,1.35-1.21,2.49-2.27,3.39-.28,.24-.83,.17-1.39,.26-.06,1.59-.71,2.82-2.09,3.94-1.52,1.23-2.57,3.04-3.91,4.69h-1.05c-.07,.66-.15,1.34-.21,1.89-.57,1.2-1.61,.69-2.46,.9-.36,.46,.32,.49,.34,.77,.03,.36,0,.72,0,1.26-.41,.04-.83,.08-1.39,.13-.42,.89-.75,1.95-1.37,2.81-.73,1.01-2.21,1.74-2.44,2.79-.27,1.21-1.37,1.81-1.49,3-.42,.05-.85,.1-1.04,.12-.79,1.1-1.5,2.06-2.16,3.05-.67,.99-1.62,1.75-2.14,2.88-.49,1.07-1.21,2.03-1.86,3.1-.38,.28-1.25,.61-1.27,.99-.12,2.01-1.56,3.08-2.8,4.37v1.1c-1,.24-1.21,1.17-1.7,1.9-.5,.75-1.23,1.35-1.95,2.1-.03-.03,.11,.14,.26,.33-1.44,1.87-2.47,3.97-3.33,6.22-.48,.08-.98,.16-1.73,.28,.61,.28,.97,.45,1.41,.66-.75,.34-1.44,.65-2.32,1.05,.18,.41,.36,.85,.63,1.48-.37,.57-.74,1.35-1.3,1.97-1.06,1.17-.88,2.73-1.37,4.07-.27,.74-.73,1.17-1.12,1.79,.32,.16,.67,.32,1.23,.6-.39,.36-.7,.65-1.13,1.04-.25,2.24-.52,4.67-.8,7.2-.17,.05-.41,.12-.87,.26-.21,1.28-.39,2.71-.69,4.13-.19,.9-.55,1.76-.96,2.57-.29,1.89-.4,3.83-.91,5.65-.47,1.68-1.38,3.24-2.15,4.98,.48,.51,.88,.95,1.34,1.44-.34,.12-.65,.23-1.07,.37v2.93c-.32,.09-.56,.16-1.03,.29-.04,.36-.09,.84-.14,1.31,.41,.16,.72,.29,1.2,.48-.39,.82-.78,1.63-1.18,2.45,.77,1,.57,2.11,.47,3.47-.56-.26-.93-.43-1.44-.67-.05,.43-.1,.91-.14,1.35,.41,.17,.72,.3,1.03,.42,.37,1.55-.12,2.9-1.06,4.05,1.11,1.75,.32,3.58,.65,5.19-.49,.55-.89,1-1.45,1.63,.52,.23,.81,.35,1.11,.49-.18,2.35-.37,4.8-.58,7.47-.04-.04,.15,.16,.25,.27-.29,1.58-.56,3.07-.87,4.82,.79,1.1,.7,2.77,.3,4.1-.48,1.61-.31,3.15-.45,4.71-.12,1.39,.17,2.75-.47,4.17-.54,1.22,.13,2.55,.92,3.48-.16,.94-.41,1.78-.41,2.62,0,.82,.65,1.91,.31,2.39-.55,.78,1.14,1.71-.37,2.11,.37,.37,.69,.69,1.15,1.15-.33,.12-.58,.22-1.05,.4-.02,.33-.06,.82-.09,1.35,.37,.08,.62,.13,1,.21,.11,.8,.4,1.65-.5,2.42,.35,.12,.67,.22,1.01,.34,.36,2,.72,4.02,1.13,6.28-.25,.13-.74,.39-1.16,.61,.87,1.21,1.53,2.12,2.35,3.26-.13,2.44,.2,5.08,1.02,7.7,.31,1,.35,2.3-.48,3.3,.36,.94,.72,1.88,1.1,2.86-.18,.26-.37,.54-.56,.83,.88,1.94,.78,3.88-.02,5.86,.38,.18,.75,.36,1.25,.59-.23,.39-.43,.75-.73,1.27,.88,1.57,1.38,3.38,1.13,5.22,.43,.43,.75,.75,1.09,1.09-.17,.19-.35,.38-.42,.46,.15,1.12,.48,2.15,.38,3.15-.1,.96,.93,1.89-.1,2.9,.46,.21,.82,.38,1.3,.6-.22,.87-.45,1.77-.69,2.75,.37,.13,.68,.23,1.14,.39,.2,2.96-.43,6.12,1.12,8.98-.18,.54-.65,1.21-.49,1.64,.58,1.62,.93,3.26,1.24,4.95,.32,1.78,.94,3.5,.92,5.4,.24,.07,.48,.14,.75,.22q.31,1.38-.31,2.74c.75,.99,1.56,2.07,2.33,3.09q-.5,1.05-.36,2.37c.21-.44,.38-.8,.54-1.13,.43,.65,.86,1.29,1.32,1.97-.22,.08-.52,.18-.86,.3,.02,.12,0,.28,.06,.37,.95,1.33,1.87,2.7,2.9,3.97,.89,1.09,1.99,1.96,2.73,3.23,.62,1.06,2.13,1.39,2.48,3.26,.3-.88,.41-1.2,.54-1.58,.56,.71,1.11,1.4,1.62,2.05,.7,.04,1.31,.07,1.92,.11,.07,.32,.13,.57,.23,.99,1.03-.03,2.06,.16,2.19,1.52,1.36,.51,2.54,1.42,4.09,1.41,.5,0,1,.6,1.51,.91,.36,.21,.87,.3,1.1,.6,.47,.63,1.21,.3,1.67,.6,.52,.34,.81,1.04,1.24,1.54,.34,.4,.75,.73,1.22,1.18,.26-.18,.53-.38,.86-.61,.3,.65,.6,1.33,.91,2.01,.51-.15,1.04-.31,1.65-.5,.91,.91,1.78,1.82,2.69,2.69,.77,.74,1.59,1.43,2.57,2.31h.77c.65,.71,1.72,1.15,1.42,2.41,.79,.45,1.77,.75,2.34,1.4,.67,.76,1.04,1.72,2.05,2.24,.89,.46,1.04,1.44,1.15,2.5,.21,.07,.52,.18,.71,.25,.67,1.45,1.37,2.8,1.91,4.2,.52,1.33,.89,2.73,1.46,4.55,.02,.02,.39,.41,.84,.89-.17,.52-.34,1.08-.54,1.7,1.15,4.03,.04,8.15-.2,12.46-.19,.16-.55,.44-1.08,.87,.18,.95,.37,1.92,.57,2.93-.29,.11-.61,.22-.94,.34,.17,.35,.34,.7,.57,1.19-.37,.14-.66,.25-.96,.37,.09,.56,.33,1.19,.26,1.79-.07,.55-.46,1.06-.82,1.82-.74,.35-1.74,.8-1.91,2.19-.05,.42-.76,.72-1.03,1.15-.62,1.01-1.11,2.09-1.72,3.1-.45,.74-.98,1.42-1.54,2.09-.52,.62-1.31,1.09-1.61,1.79-.39,.9-1.48,.83-1.82,1.75h-2.41c-.09,.32-.16,.57-.28,1.01-.38,.72-1.74-.59-2.08,.68h-4.36c-.64-.53-1.27-1.07-1.8-1.51-1.67,1.03-3.24-.83-4.99,.08-.29-.49-.56-.96-.74-1.26h-3.12c-.29-.37-.61-.8-.86-1.12h-1.31c-.17-.37-.35-.74-.56-1.19-.92,.32-1.82,1.25-2.76,.13-.14,.37-.27,.69-.54,1.38-.14-.82-.21-1.27-.29-1.74-.53-.2-1.07,.86-1.73,0-.13-.18-1.06,.4-1.55,.29-.64-.13-1.2-.6-1.83-.94-1.16,.79-2.36,.56-3.47-.07-.62,.18-1.38,.66-1.72,.45-1.09-.68-2.23-.45-3.35-.47-.72-.01-1.32-.3-1.97-.49-1.31-.4-2.79-.25-4.1-.66-1.51-.46-3.11-.89-4.57-2.11h-2.16c-.45-.71-.87-1.37-1.33-2.1h-2.81c-1.19-1.1-2.08-2.43-3.82-2.28-.81-.85-1.62-1.7-2.56-2.7,0-.17-.03-.6-.06-1.12h-2.05v-1.51c-2.07,.09-1.92-2.2-3.4-2.95-1.2-.6-2.02-1.95-3.19-3.17v-.48c-.91-1.3-1.69-2.42-2.72-3.9-.09-.05-.6-.36-1.16-.69v-2.58c-.47,.24-.81,.41-1.19,.61-.5-.78-.84-1.67-1.47-2.21-.65-.56-1.1-1.28-1.56-1.92-.92-1.29-1.81-2.73-2.22-4.23-.3-1.11-1.69-1.69-1.3-3.02-1.44-.35-1.28-2.23-2.64-2.46,.33-1.64-1.72-2.35-1.04-3.87-1.1-.76-1.03-2.12-1.66-3.18,.16-.26,.33-.53,.54-.87-.28-.06-.52-.11-.94-.21-.06-.59-.14-1.26-.15-1.42-1.21-1.51-2.21-2.58-2.15-4.26,.36-.17,.71-.34,1.22-.58-2.68-.64-3.46-2.45-3.41-4.86-.35-.17-.73-.34-1.11-.52,.19-.63,.37-1.22,.68-2.23-.56,.51-.75,.68-.93,.84-.91-1.2-.9-2.6-.81-4-.57-.37-1.13-.73-1.71-1.11,.21-.21,.34-.34,.61-.61-.52-.38-1.02-.74-1.52-1.1-.24-1.38-.49-2.83-.77-4.45-.17-.05-.48-.15-.79-.24-.25-.8-.5-1.6-.74-2.39,.15-.15,.28-.28,.55-.55-.45-.33-.87-.64-1.61-1.18-.75-2.05-2.09-4.32-2.76-6.86-1.02-.33-1-1.35-1.43-2.09-.81-1.39-1.48-2.83-2.15-4.29-.3-.65,.1-1.92-1.27-1.88-.26-.8-.28-2.01-.82-2.33-1.32-.78-.44-2.22-1.28-3.09-.58-.6-.38-1.64-1.49-2.14-.59-.27-.68-1.63-1.01-2.49-.84-2.2-1.72-4.38-2.53-6.59-.15-.4-.02-.9-.02-1.39-.35-.37-.72-.76-1.1-1.16v-1.63c-.37-.18-.74-.36-1.24-.61,.26-.42,.48-.77,.66-1.05-.54-1.56-1.07-3.06-1.63-4.67,.12-.16,.28-.35,.41-.57,.08-.14,.12-.31,.27-.77-.36-.19-.84-.44-1.24-.65,.63-1.22,.78-2.03,.16-3.12-.43-.76-.01-1.96-.14-2.94-.1-.74-.45-1.44-.71-2.15-.09-.24-.33-.45-.33-.67,.03-2.49-.86-4.89-.6-7.41,.2-1.91-.56-3.72-1-5.56-.25-1.07-.8-2.1-.66-3.31,.07-.68-.44-1.42-.68-2.14-.16-.47-.3-.96-.46-1.48,.45-.16,.76-.27,1.34-.48-.5-.21-.81-.34-1.3-.55,.8-1.61-1.3-3.22-.05-5.02-.19-.06-.49-.17-.8-.27-.06-.07-.16-.13-.17-.2-.17-1.34-.34-2.68-.53-4.26,.42,.38,.61,.56,.8,.73,1.22-1.27-1.19-.79-.91-1.85,.14-.53-.73-1.28-.98-1.99-.28-.8-.39-1.66-.57-2.49-.16-.73-.32-1.46-.48-2.18,.33-.13,.64-.26,1.18-.48-.45-.16-.72-.25-1.2-.42,.23-3.09-1.07-5.85-2.81-8.51,.35-.66,.7-1.33,1.05-2-.62-.24-1.32-.51-2.15-.83,.46-2.8-.47-5.22-1.79-7.46-.54-.91-.14-1.75-.31-2.37-.6-.88-1.08-1.6-1.67-2.46v-2.74c-.41-.15-.73-.27-1.06-.39v-3.41c-.29-.1-.59-.21-.86-.31-1.01-1.37-.74-3.1-1.24-4.65-.48-1.47-1.81-2.55-1.68-4.28,.14-.19,.34-.46,.61-.81-.43-.5-.92-.91-1.19-1.43-.3-.59-.38-1.29-.57-1.94-.17-.56-.36-1.12-.55-1.72,.16-.18,.33-.39,.5-.59-.2-.33-.4-.68-.58-1,.27-.3,.45-.5,.74-.82-.37-.37-.75-.75-1.23-1.23,.11-.19,.28-.48,.53-.9-.24-.08-.51-.18-.82-.29-.6-1.4-.93-2.92-.71-4.66-.34-.32-.73-.69-1.04-.99,.19-.95,.37-1.85,.55-2.73-.49-.19-.81-.32-1.11-.43-.31-1.38,.37-2.88-.63-4.14,.19-.65,1.17-1.3,.03-1.96,.19-.21,.36-.41,.39-.44-.16-1.1-.09-2.12-.47-2.93-.46-.98-.12-1.9-.25-2.76-.14-.99-.44-1.79,.15-2.48-.33-.86-.88-1.64-.89-2.43-.03-1.75-.33-3.56,.28-5.45-.08-.03-.36-.12-.68-.22-.49-.77-.28-1.47,.93-2.21-.82-.39-1.32-.63-1.86-.88,.29-1.02,.49-1.72,.74-2.61-.36-.22-.84-.5-1.03-.61-.22-1.78,.27-3.23-.6-4.54-.41-.61,.52-1.16,.1-2.05-.31-.66-.48-1.62-.63-2.45-.13-.78-.03-1.6-.03-2.44-.35-.07-.6-.12-.97-.2,.8-1.53,.29-3.14,.48-5.01-.46,.37-.64,.51-1.04,.83-.05-1.06-.1-1.98-.15-2.98q-1.05-1.87-1.05-4.93c-1.52-1.56-1.77-3.52-1.61-5.62-.34-.12-.66-.23-1.16-.41,.13-.37,.25-.73,.47-1.36-.24-.14-.69-.39-.78-.44-.34-1.7-.59-2.97-.87-4.39-1.14-.53-1.29-1.95-1.4-3.02-.14-1.29-1-2.18-1.21-3.35,.2-.21,.38-.41,.51-.55-1.45-2.47-2-5.22-2.64-7.93-.06-.25,.29-.59,.46-.9-.34-.19-.74-.41-1.42-.8,.69-.39,1.06-.6,1.5-.84-.39-.16-.7-.28-1.14-.46,.45-1.61-.46-2.95-1.14-4.27,.27-.3,.45-.49,.67-.73-.34-.12-.66-.23-1.28-.45,.52-.22,.83-.34,1.3-.54-.46-.25-.83-.45-1.46-.79,.62-.43,1.05-.72,1.71-1.18-1.13-.48-1.64-1.26-1.93-2.2,.87-1.12,.72-2.24-.06-3.27,.28-.45,.51-.8,.82-1.3-.46-.18-.76-.29-1.14-.43-.22-.8-.37-1.74-.75-2.58-.34-.77-.2-1.57-.48-2.35-.3-.86-.29-1.84-.45-2.96,.01-.02,.19-.22,.36-.42-.88-1.39-1.65-2.8-.57-4.45-.32-.32-.64-.64-.69-.69-.5-1.97-.91-3.62-1.34-5.33,.1-.11,.27-.3,.48-.53-.36-.13-.67-.24-1.04-.37-.19-3.07-1.7-5.85-2.19-8.85-.49-3.07-2.27-5.66-2.95-8.81-.12-.04-.44-.15-.59-.21-.57-1.34-1.09-2.57-1.58-3.72-.37-.07-.62-.13-.95-.19v-2.4c-.41-.15-.73-.26-.9-.33-.27-1.75-.51-3.39-.76-5.02-.34-.28-.82-.51-1.02-.89-.36-.66-.58-1.4-.81-2.11-.31-.97-.3-2.21-.92-2.86-.86-.9,.1-2.23-1.01-2.89,.18-1.28-.46-2.67,.48-3.86-1.11-.46-1.57-1.32-1.6-2.55-.03-1.11-.22-2.22-.35-3.48,.16-.08,.52-.26,1.23-.61-1.04-.35-1.81-.61-2.66-.89-.47,.6-.86,1.1-1.44,1.86,0,.04-.05,.47-.1,.93-1.2,.25-1.94,.88-1.4,2.54-.76-.29-1.12-.44-1.6-.62-.26,1.09-.54,2.28-.76,3.21-2.63,2.11-3.21,5.63-5.98,7.15v1.3c-.3,.11-.62,.22-1.03,.36-.03,.57-.07,1.19-.09,1.66-.72,.62-1.36,1.17-2.1,1.81v1.08c-.83,.63-2.01,1.13-2.55,2.02-.62,1.03-1.21,1.86-2.4,2.17,.24,.34,.43,.6,.73,1.02-1.56,.53-1.61,2.62-3.38,2.78-.06,.48-.11,.91-.16,1.32-.35,.13-.67,.24-.98,.35v1.12c-1.1,.88-2.2,1.76-3.21,2.57-.15,1.23-.18,2.37-1.52,2.75-.25,1.09-1.54,1.41-1.82,2.47-.48,1.79-2.2,2.5-3.29,3.76v1.15c-.35,.24-.71,.47-1.06,.73-.49,.37-1.36,.76-1.36,1.15,0,1.63-1.58,2.03-2.2,3.16-.5,.92-1.38,1.64-2.44,2.84-.02,.37,.16,1.45-.57,2.13-.6,.55-.99,1.31-1.83,1.67-.67,.29-1.09,.93-.88,1.71-1.2,1.56-2.37,3.09-3.77,4.91,0-.1,0,.26,0,.42-.63,.62-1.22,1.08-1.65,1.66-.45,.6-.72,1.34-1.12,1.98-.31,.5-.82,.9-1.06,1.43-.31,.69-.45,1.45-.76,2.5-.86,.87-2.14,1.89-2.03,3.78-.51,.08-1.01,.15-1.63,.24,.22,.28,.37,.46,.64,.8-.55,.09-1.01,.16-1.59,.25v2.31c-.92,.67-1.41,1.73-2.69,2.09-.25,1-.54,2.15-.9,3.63-.2,.14-.68,.48-1.34,.94v1.72c-.76,1.12-1.3,1.91-1.83,2.7-1.48-.11-.73,1.32-1.28,1.89-.56,.58-.44,1.83-1.56,1.57-.48,1.25-.61,2.73-1.4,3.35-1.2,.93-.56,3.19-2.67,3.26-.04,.65-.07,1.27-.11,1.87-.7,.33-1.38,.65-1.91,.9,.12,.66,.24,1.28,.35,1.88-.44,.11-.68,.18-.71,.19-.82,1.54-1.58,2.93-2.32,4.32-.19-.17-.38-.33-.6-.53-.2,.97-.4,1.89-.56,2.81-.31,1.74-1.51,3.02-2.35,4.48-.68,1.18-1.17,2.44-1.76,3.63-.39,.77,.11,2.29-1.45,2.36-.26,.8-.56,1.59-.76,2.41-.22,.91-1.27,1.09-1.57,2.04-.29,.94-.24,2.09-1.11,2.8-.79,.64-.2,1.99-1.33,2.48-.18,.08-.1,.66-.23,.96-.56,1.26-1.07,2.59-2.44,2.86-.3,.94-.58,1.74-.81,2.56-.26,.89-.3,1.93-.79,2.66-.49,.73-1.09,1.35-1.17,2.31-.1-.3-.21-.61-.42-1.22-.41,.54-.72,.94-1.08,1.4,.54,.25,.91,.43,1.31,.62-.41,.21-.79,.38-1.15,.59-.15,.09-.26,.25-.49,.48,.12,1.05-.29,2.06-.85,3.05-.66,1.17-.93,2.63-1.66,3.64-.78,1.1-.72,2.48-1.58,3.36-.31,.08-.56,.14-.8,.2-.04,.68-.07,1.29-.1,1.8-.8,.31-1.5,.59-2.2,.86,.05,.15,.09,.29,.14,.44,.43-.11,.86-.22,1.45-.37-.04,.27-.1,.61-.15,.95-1.06-.32-.95,.78-1.06,1.14-.43,1.34-1.31,2.38-1.96,3.56-.69,1.25-1.18,2.6-1.76,3.9-.32,.11-.63,.22-.94,.33v1.22c-.3,.1-.61,.21-.92,.31-.06,.07-.18,.15-.16,.2,.35,1.51-.76,2.61-1.15,3.9-.28,.93-.14,2.27-1.54,2.58-.38,1.03-.85,2.03-1.11,3.08-.45,1.83-1.33,3.36-2.75,4.59,.38,2.01-1.81,3.47-1,5.56-.39,.09-.63,.15-1.03,.25-.07,.4-.16,.89-.27,1.46-.22,.05-.47,.1-.82,.17-.31,1.72-.48,3.61-2.47,4.69,.23,.36,.45,.72,.77,1.22-.97,1.21-2.11,2.47-1.73,4.22-.48,.16-.8,.27-1.21,.41,.47,.22,.83,.39,1.3,.62-.43,.16-.75,.27-1.14,.41-.03,.58-.05,1.19-.09,1.89-.52,.08-1.02,.15-2.02,.29,.72,.26,.98,.35,1.47,.53-.81,.8-.14,2.55-2.2,2.67,.46,.54,.83,.96,1.35,1.56-.38,.25-.68,.44-1.18,.77-.06,.44-.04,1.18-.29,1.79-.25,.61-.79,1.11-1.27,1.73-.28,.03-.71,.08-1.22,.14,.91,1.18,.61,2.44-.11,3.3-1.01,1.21-1.36,2.94-2.91,3.7-.01,1.05-.96,1.55-1.4,2.36-.93,1.7-1.94,3.36-2.74,5.14-.52,1.15-1.15,2.26-1.84,3.32-.25,.39-.82,.58-1.37,.96-.46,.94-.59,2.4-2.21,2.61v1.08c-.71,1.05-2.02,1.57-2.24,2.61-1.15,.84-2.19,1.45-3.06,2.26-1.08,1-2.21,1.7-3.84,1.46-.09,.54-.17,1.04-.28,1.76-.52-.22-.95-.41-1.53-.66-.24,.14-.61,.35-1.08,.62-.23-.16-.51-.35-.82-.57-.15,.33-.32,.69-.54,1.16-1.24-.79-2.93-.45-3.94-1.75-3.3-1.2-4.51-3.38-5.59-6.36-.17-.47-.47-.88-.7-1.3-.38,.27-.65,.47-1.08,.77-.59-1.53-1.13-2.91-1.72-4.44-.78-.33-1.87-.68-1.34-2.09-.47-.17-.78-.28-1.43-.52,.59-.16,.88-.24,1.18-.33,.32-.32-.46-1.4-2.53-3.47,0-.85,0-1.75,0-2.65,0-.07-.09-.14-.27-.42-.18,.44-.31,.75-.45,1.09-.12-.07-.34-.14-.35-.21-.03-.72-.02-1.45-.02-2.17-.85-.77-.88-1.8-1.15-2.82-.63-2.47-.44-4.94-.49-7.42,0-.44,.06-.95-.13-1.3-.6-1.11-.7-2.08,.07-3.19,.24-.34-.13-1.1-.26-1.85-.02,.03,.29-.17,.3-.38,.07-1.85-.19-3.71,.53-5.51,.11-.26-.25-.71-.41-1.12,.26-.06,.51-.11,.82-.17-.12-.42-.48-.97-.34-1.27,.83-1.64,1.02-3.42,1.32-5.19,.18-1.08,.65-2.12,.8-3.2,.34-2.43,.64-3.01,2.86-4.35h-1.45c-.17-1.78,1.21-2.88,1.59-4.38,.22-.85,.37-1.8,1.24-2.52,.53-.44,.67-1.58,.65-2.39-.02-.93,.2-1.85,.66-2.45,.58-.78,.4-1.51,.51-2.41,.51-.31,1.17-.58,1.66-1.04,.42-.39,.64-1,1.08-1.74v-2.11c.34-.09,.59-.15,1.13-.28-.27-.3-.45-.5-.63-.7,.11-1.67,1.15-3.03,1.85-4.41,1.14-2.22,1.77-4.56,2.47-6.89,.36-1.22,1.11-1.96,2.12-2.91v-2.76c.58-.11,1.07-.21,1.66-.32v-2.36c.08,.02,.17,.04,.25,.06,.37-.94,.74-1.87,1.21-3.06,.44-.44,1.08-1.08,1.89-1.89-.34-1.61,.64-3,1.6-4.27,1.36-1.78,1.92-3.99,3.28-5.75,.13-.17,.02-.53,.02-.85,.8-.42,1.59-.71,1.71-1.95,.09-.92,.58-1.87,1.49-2.63,.74-.63,1.05-1.88,1.54-2.85,.72-1.43,1.39-2.88,2.06-4.33,.36-.76,.77-1.47,.89-2.38,.08-.68,1.12-1,1.11-2.01,0-.46,.84-.92,1.36-1.45-.07-.14-.24-.49-.47-.98,.37-.14,.67-.25,1.06-.4,.26-1.25,.53-2.59,.84-4.08,.16-.05,.47-.16,.5-.17,.61-1.16,1.11-2.12,1.63-3.08,.38-.7,1.17-1.12,1.5-1.79,.36-.74,.28-1.7,.61-2.47,.85-2.02,2.05-3.88,3.08-5.81,.64-1.21,1.46-2.32,2.32-3.68v-1.42c1.97-.44,1.3-3.14,3.26-3.76,.02-.55,.05-1.16,.08-1.85,1.41,.06,1.57-1.22,2.08-2.03,.56-.9,.98-1.78,1.86-2.52,.66-.56,.77-1.78,1.07-2.56,.43-.12,.67-.19,1.07-.3-.51-.24-.86-.41-1.41-.67,.67-.13,1.16-.22,1.75-.33v-1.79c1.42-.3,1.57-1.58,1.92-2.49,.4-1.04,1.83-1.57,1.42-2.96,1.14-.26,1.41-1.4,2.03-2.14,.68-.8,.95-1.95,1.42-2.97,.41-.05,.84-.1,1.37-.16v-2.32c1.17-.63,1.81-1.58,2.27-2.65,.6-1.41,1.81-2.45,2.27-3.97,.25-.84,1.7-.78,1.86-1.91,.06-.42,.2-.83,.36-1.42,.52-.24,1.19-.55,1.98-.92v-1.77c.39-.14,.71-.25,1.12-.39,.03-.39,.07-.82,.11-1.32,.22-.06,.46-.13,.79-.22,.34-.66,.57-1.58,1.14-2.1,.69-.62,.51-1.51,.96-2.07,.56-.7,1.16-1.31,.89-2.21,.48-.1,.73-.15,.99-.21,.05-.48,.1-.91,.14-1.24,.57-.35,1.08-.67,1.53-.95,.04-.73,.07-1.34,.11-1.97,.51-.06,.94-.11,1.47-.18v-1.86c.55-.36,1.04-.69,1.58-1.04-.12-.31-.28-.72-.49-1.29h1.62c.07-.76,.13-1.44,.19-2.11,1.34-.21,1.19-1.5,1.99-2.35h1.59c.04-.1,.08-.2,.11-.3-.3-.12-.59-.25-.99-.41-.02-.31-.04-.65-.06-.94,.03-.14,.04-.29,.07-.3,1.09-.18,1.38-1.12,1.93-1.88,.66-.91,1.48-1.65,1.88-2.78,.22-.6,1.09-.94,1.56-1.49,.44-.51,.89-1.1,1.07-1.73,.27-.95,1.2-.91,1.73-1.43,.57-.55,1.06-1.19,1.57-1.8,1.17-1.36,2.38-2.68,4.31-3.51,.01-.24,.04-.66,.07-1.27,1.71-.06,2.04-1.87,3.18-2.81,1.1-.9,2.23-1.95,2.97-3.26,1.86-.09,1.43-2.91,3.38-2.83,.26-.74,.51-1.44,.78-2.18h2.2c-.24-.47-.41-.81-.65-1.27,.46-.26,.89-.47,1.29-.73,.42-.27,.82-.58,1.38-.98,.31-.52,.59-1.66,1.17-1.83,1.24-.37,.08-1.74,1.22-2.14,.6-.21,.88-1.22,1.41-1.75,.53-.53,1.64-.86,1.72-1.4,.16-1,1.56-.81,1.41-1.85,.43-.03,.86-.07,1.51-.12-.19-.51-.32-.87-.53-1.44,.67-.61,1.48-1.34,2.28-2.07,.69-.48,.56-1.47,1.64-1.95,.72-.32,1.07-1.46,1.72-2.44,1.06-.31,1.46-1.74,2.4-2.49,.95-.75,1.37-2.14,2.74-2.38,.37-1.42,1.51-2.06,2.69-2.66-.1-.13-.21-.26-.45-.56,.14-.37,.62-.61,1-1.1v-2.3c.32-.08,.57-.14,.95-.23,.37-1.45,1.52-2.65,1.88-4.28,.14-.63,.96-1.12,1.51-1.64,.24-.23,.56-.4,.87-.53,.23-.1,.49-.09,.8-.14-.2-.35-.36-.62-.51-.89,.43-.8,.87-1.6,1.31-2.41-.07-.05-.14-.09-.22-.14,.84-.84,1.67-1.67,2.61-2.61v-1.06c3.25-3.35,6.02-6.94,9.03-10.23h1.17c.84-1.86,2.43-3.08,3.91-4.32,1.51-1.28,2.73-2.96,4.66-3.74,.22-.09,.23-.64,.44-.88,.64-.75,.73-2,2.04-2.15,.14-.02,.22-.59,.32-.86,.41,.22,.77,.41,1.17,.63,.35-2.08,.37-2.13,2.16-4.47h1.17c.53-1.01,1.07-2.04,1.69-3.23,.19-.02,.62-.07,1.08-.13,.59-1.89,2.52-3.02,3.16-5.33,.76-.54,1.34-1.9,2.51-2.26,.84-1.14,1.55-2.21,2.38-3.18,.32-.38,1.28,.4,1.44-.7,.05-.31,.63-.55,.97-.82-.34-.13-.65-.25-1.16-.44,.31-.47,.49-1.07,.86-1.23,1.1-.5,1.93-1.02,2.05-2.42,.09-1.03,1.65-1.01,1.96-2.13,.16-.59,.74-1.09,1.17-1.59,.34-.4,.75-.73,1.22-1.18,.25,.19,.53,.39,.97,.71,.05-.67,.09-1.26,.11-1.57,.54-1.05,.96-1.88,1.41-2.75,.07,.05,.25,.19,.59,.46,.09-.54,.16-.99,.25-1.52,.26-.09,.58-.21,.92-.33,.05-.41,.1-.84,.16-1.37h1.2c.15-.16,.26-.22,.27-.29,.06-.61,.1-1.22,.15-1.8,1.45-.45,1.52-1.95,2.49-2.78,.06,.05,.24,.21,.58,.49,.03-1.9,1.43-3.05,2.14-4.56,.68-1.47,2.67-2.13,2.4-4.07,.41-.15,.72-.26,1.02-.36,.03-.49,.06-.92,.1-1.36,.53-.06,.96-.11,1.38-.16,.39-1.66,1.09-2.87,2.65-4.88,.4-.51,.47-1.27,.81-1.84,.44-.74,.9-1.55,1.56-2.05,.6-.46,.3-1.72,1.48-1.56,.05,0,.18-.11,.18-.18,.23-2.56,2.45-4.05,3.33-6.26,.38-.96,1.03-1.59,2.04-1.84,.77-1.31,.52-3.05,1.77-4.18,.58-.52,1.02-1.2,1.5-1.82,.53-.68,1.06-1.37,1.54-2.09,.89-1.33,2.17-2.43,2.48-4.11,.61-.29,1.21-.58,2.03-.96,.3-.63-.08-2.11,1.63-1.98,.23-.77,.33-1.56,.69-2.21,.32-.58,.92-1.02,1.48-1.6h1.04c.09-.48,.17-.97,.26-1.47,.84-.5,.91-.6,1.54-2.04,1.62-.93,1.96-1.28,2.84-2.9,.55-.37,1.44,.17,1.86-.73,.68-1.45,2.17-2.15,3.23-3.25,.32-.33,.64-.64,.86-.86,.92-.3,1.72-.56,2.64-.86-.2-.31-.36-.55-.56-.86,.09-1.6,2.42-.76,2.57-2.3,1.15-.68,2.55-1.14,3.38-2.09,.8-.91,2.46-1.11,2.3-2.74,.56-.06,.99-.11,1.27-.14,.85-1,1.61-1.9,2.41-2.84,.42,.3,.68,.49,1.06,.76v-1.52c1.84,.22,1.46-2.26,3.25-2.12,.03,.08,.13,.39,.24,.73,.12-.02,.32,0,.36-.07,.47-.8,.88-1.64,1.38-2.42,.17-.27,.57-.63,.81-.6,1.32,.18,1.56-.85,2-1.68h1.15c.08-.23,.16-.47,.26-.79,.8-.76,2.51-.59,2.71-2.34,.93-.2,2.19-.09,2.19-1.41,1.4-.88,2.84-1.53,3.95-2.54,1.25-1.14,2.85-1.55,4.15-2.49,1.03-.75,2.76-1.83,3.77-2.06,.05-.43,.1-.86,.16-1.4,2.92-.04,4.87-2.21,7.3-3.35,.23-1.72,2.16-1.56,2.8-2.92,.46,.35,.73,.55,.94,.72,1.27-1.08,2.53-2.16,3.75-3.2h2.26c.27-.7,.54-1.4,.82-2.12,.75-.04,1.36-.08,1.97-.11,.27-1.06,1.17-1.44,2.03-1.55,.99-.13,1.4-.6,1.53-1.48,1.13-1.07,3.3-.34,3.97-2.33h1.63c.6-.59,1.22-1.22,1.87-1.87,.41,.3,.67,.5,1.04,.77,.09-.56,.17-1.06,.27-1.66,.32,.2,.57,.37,1.01,.65,.4-.44,.83-.91,1.66-1.81-.42,.2-.27,.08-.11,.06,.69-.05,1.36,.11,1.99-.52,.43-.44,1.72-.53,1.73-.81,.03-.95,.82-.79,1.23-1.1,.91-.69,1.99-.97,3.17-.87,.06-.54,.11-.97,.16-1.5h2.39c.14-.39,.25-.71,.39-1.11h1.32c.36-.16,.53-.2,.66-.3,1.75-1.21,3.22-2.9,5.55-3.07,.58-.93,1.67-1.29,2.24-1.97,.7,.14,1.32,.26,1.93,.37,.11-.43,.18-.68,.3-1.13,.37,0,.87,.14,1.21-.02,1.58-.78,3-1.85,4.82-2.24,.64-.14,1.09-1.2,1.77-2h2.68c.24-1.19,1.24-1.37,2.03-1.72,.84-.37,1.86-.41,2.62-.9,.8-.51,1.51-1.09,2.46-1.32,.92-.21,1.97-.32,2.71-.68,.8-.39,1.51-1.08,2.48-1.04v-.74c.99-.26,1.97-.51,3.01-.78,.16,.34,.33,.71,.66,1.4,.09-.99,.15-1.67,.24-2.58,.45,.14,.82,.26,1.31,.42,.68-.43,1.51-.96,2.38-1.52,.25,.15,.47,.28,.91,.55,.34-.45,.73-.98,1.1-1.48,.13,.31,.25,.62,.42,1.03,1.06-2.32,3.68-2,5.4-3.57,.25,.58,.41,.94,.57,1.31,.36-.53,.73-1.06,1.07-1.56h1.19c.5-.51,1-1.03,1.43-1.48,1.37-.29,2.63-.55,4.27-.9,.26-.33,.77-.96,1.19-1.48,1.76,.2,2.95-.44,3.96-1.56,.59-.03,1.2-.06,1.84-.09,.07-.31,.12-.56,.22-1.01,1.35,.07,2.68-.21,3.67-1.34,.11-.13,.29-.32,.41-.31,1.81,.26,2.91-1.33,4.5-1.68,1.56-.34,2.9-1.36,4.51-1.62,.16-.02,.31-.15,.43-.26,.72-.62,1.19-1.68,2.43-1.37,.57-.91,1.57-.99,2.44-1.35,.7-.29,1.31-.81,2.08-1.3,.06,.22,.14,.51,.23,.86,1.61-.79,3.22-1.57,4.83-2.35,0-1.2,2.08-.77,1.6-2.26,1.28-.3,2.44-.57,3.74-.88,.02-.1,.09-.34,.17-.66,.9-.46,1.87-.95,2.81-1.42,.28,.26,.48,.44,.83,.76,.06-.53,.1-.95,.18-1.63,.9-.28,1.93-.6,3.13-.97,.03-.08,.14-.39,.3-.8h1.88c1.13-.94,1.93-1.61,2.78-2.31,.3,.2,.51,.34,.54,.36,.52-.52,1.05-1.05,1.25-1.26,3.15,.04,4.77-2.49,7.3-2.24,.15-.39,.28-.7,.47-1.18,.45,.2,.88,.4,1.52,.69,.29-.27,.67-.61,1.17-1.07h2.14c2.08-1.86,3.6-2.15,5.53-1.27,.95-.17,1.71-.31,2.47-.45h.84c.17,.36,.35,.74,.57,1.2h1.24c.13,1.63,.77,3.02,1.81,3.97,.81,.74,1.95,1.09,2.22,2.34,.72,.02,.85,.97,1.14,1.04,.76,.18,.78,1.09,1.11,1.15,2.51,.41,3.48,2.98,5.78,3.86,2.08,.79,3.81,2.47,6.18,2.88,.64,.11,1.63,.53,1.75,1.67h1.78c.09,.35,.15,.6,.21,.8,.58,.21,1.18,.67,1.67,.57,1.31-.28,1.72,1.32,2.78,1.21,.98-.1,1.63,.49,2.42,.78,1.18,.43,2.31,1.27,3.5,1.35,1.13,.07,1.76,.66,2.43,1.26,.56-.28,1.01-.5,1.49-.74,.23,.48,.4,.85,.35,.75,1.49,.85,2.59,1.47,3.6,2.04,1.03,.06,1.97,.12,2.78,.16,.15,.48,.22,.72,.27,.89,.88,.09,1.82-.08,2.43,.3,1.57,.97,3.43,.92,5,1.67,.06,.27,.11,.52,.19,.91,1.7-.46,3.05,.4,4.36,1.13,.3-.28,.49-.46,.78-.72,.41,.19,.85,.5,1.32,.6,.49,.11,1.02,.02,1.39,.02,.2,.55,.31,.84,.45,1.22,.49-.24,.84-.41,1.19-.58,.33,.33,.65,.65,.98,.98,1.47,.09,2.92,.05,4.41,.5,2.22,.67,4.62,.58,6.89,1.14,1,.25,1.94,.73,3.05,.58,1.17-.16,2.26,.13,3.11,1.07,3.3,.04,6.7-.47,9.53,1.72,.42-.27,.71-.45,1.04-.67,.35,.19,.7,.44,1.09,.57,.37,.12,.78,.13,1.02,.16,.17,.48,.25,.72,.4,1.13,1.06-.59,2.35,.43,3.34-.75,.12,.35,.23,.66,.39,1.12,2.1,.83,4.28,1.71,6.47,2.56,.78,.3,1.87,.29,2.34,.83,.72,.83,1.65,1.12,2.51,1.23,1.21,.15,1.93,1.07,2.94,1.49,.45,.19,.45,1.18,1.46,1.04,.55-.08,.58,.91,1.33,1.22,1.31,.54,2.38,1.63,3.95,1.68,.38,.01,.75,.36,1.12,.55,.03,.43,.07,.86,.07,.95,1.05,1.85,2.98,2.05,4.06,3.26,1.08,1.21,2.27,2.28,3.39,3.42,1.12,1.14,1.85,2.68,2.86,4.22-.02,.72,.21,1.57,1.13,2.11,.19,.11,.5,.32,.49,.46-.11,1.14,.7,1.92,1.14,2.81,1.35,2.76,2.16,6.26,2.16,8.65,0,.68,.19,1.32,.42,2,.4,1.19,.84,2.45,.7,3.83-.22,2.19,.41,4.29,1.04,6.37,.09,.29-.07,.66-.1,.9-.41,.09-.66,.14-.73,.15,.29,2.39,.61,4.69,.81,7,.05,.54-.31,1.13-.5,1.73,.16,.33,.48,.7,.5,1.09,.08,1.35-.34,2.89,.18,4.02,.65,1.43,.24,2.48-.13,3.71-.08,.27,.18,.63,.29,.95,.26,.8,.53,1.6,.78,2.36-.23,.3-.43,.57-.62,.82,.26,.47,.46,.84,.49,.9-.17,1.06-.65,2.04-.34,2.52,.72,1.12,.37,2.25,.46,3.37,.06,.72,0,1.45,.02,2.18,.02,.62-.16,1.44,.17,1.81,.7,.8-.53,1.16-.2,1.84,.3,.6,.46,1.28,.55,1.95,.1,.71-.02,1.45,.08,2.16,.04,.28,.39,.53,.47,.63-.79,2.16-.78,4.08-.12,6.02-.92,1.98-.15,4.02-.46,5.96,.52,.18,.84,.28,1.36,.46-.55,.43-.98,.76-1.36,1.05,.04,.66-.13,1.36,.14,1.7,.81,1,.72,2.34,.34,3.05-.83,1.55-.26,2.62,.45,3.82,.06,.09,0,.25,0,.38-.27,.07-.51,.13-.76,.2,.64,1.49,.61,2.95-.18,4.34,.26,.41,.48,.76,.66,1.05-.31,.5-.53,.85-.78,1.25,.51,.24,.87,.41,.97,.46-.53,5-1.48,9.84-.38,14.88-.11,.25-.39,.62-.42,1.02-.07,.9-.09,1.82,0,2.72,.13,1.57-.26,3.12,.44,4.72,.4,.91,.41,2.29-.44,3.18,.2,.56,.57,1.08,.49,1.51-.23,1.15,.75,2.25,.04,3.37,1.03,1.84,.32,3.85,.56,5.77,.07,.57,.37,1.11,.55,1.61-.25,.33-.46,.6-.71,.93,.47,.53,.86,.99,1.28,1.46v3.2l1.06,1.06c-.19,.88,.36,1.87-.51,2.76-.27,.28-.27,1.27,0,1.55,.99,1.01,.39,2.01,.1,2.97,.38,.08,.62,.13,1.09,.22-.24,.8-.45,1.51-.66,2.23,1.48,1.81-.44,4.25,1.07,6.08,.07,2.06-.22,4.22,.29,6.17,.54,2.07-.48,4.28,.85,6.21-1.16,.94-.4,1.88-.04,2.62-.23,.56-.47,.93-.54,1.34-.27,1.52,.42,2.94,.5,4.41,.12,2.18,.03,4.36,.03,6.54,0,.54-.1,1.11,.03,1.63,.85,3.51,.65,4.52,.05,7.17,.31,.13,.62,.25,.91,.37-.45,1.26-1.43,2.61-.88,3.84,.41,.9,.32,1.7,.43,2.55,.02,.14-.13,.3-.2,.46-.25,.06-.49,.13-.84,.22-.19,2.29,.21,4.64-.28,6.94,.15,0,.33,0,.52,0-.45,1.92-.4,2.73,.26,4.08-.37,.39-.73,.77-.98,1.04-.39,2.88,.01,5.6-.53,8.39-.68,3.47,.4,7.15-.59,10.77,.15,.24,.38,.6,.59,.93-.46,.49-.82,.87-1.18,1.25,.47,1,.96,3.59,.41,4.37-.69,.97-.24,1.91-.42,2.84-.19,.92-.51,1.85-.51,2.77,0,1.11-.37,2.01-.93,2.9-.06,.1-.03,.25-.06,.56,.52-.21,.94-.37,1.52-.6-.04,1.35-1.78,1.25-1.84,2.53-.05,1.06-.34,2.29-.97,3.1-.88,1.13-.17,2.28-.57,3.43-.25,.09-.56,.2-.76,.27-.4,1.01-.76,1.95-1.13,2.89-.08-.02-.16-.04-.24-.06v2.34c-.41,.14-.73,.26-1.12,.39v3.5c-1.34,1.32-2.4,2.74-2.7,4.62-.55,.53-1.14,1.08-1.28,1.22-.34,1.25-.5,1.92-.71,2.57-.39,1.2-.8,2.4-1.24,3.58-.27,.73-.58,1.4-.58,2.23,0,.74-.21,1.54-.53,2.22-.43,.9-.87,1.66,0,2.59,.23,.24,.03,.88,.03,1.33,0,1.27,0,2.55,.01,3.82,0,.15,.15,.3,.19,.36,.33,.12,.6,.21,1.03,.37-.58,.25-.94,.4-1.62,.69,1.55,1.24,1.07,3.28,2.57,4.26,0,.68-.11,1.34,.03,1.95,.16,.72,.53,1.4,.81,2.1,1.22-.12,1.1,1.15,1.24,1.62,.31,1.03,.56,2.07,1.44,2.66,.94,.63,1.15,1.77,2.21,2.4,1.25,.75,2.59,1.66,3.29,3.19,1.65-.37,2.79,.62,3.84,1.55,.87,.05,1.65,.09,2.32,.12,.1,.46,.16,.7,.19,.81,2.19,.25,4.25,.49,6.28,.73,.16-.47,.27-.79,.41-1.2,.23,.48,.4,.85,.58,1.23,3.94-.18,7.9,.51,11.64-.98,.1,.42,.16,.66,.24,1,1.43-.2,2.94-.1,4.12-.66,1.46-.7,2.64-.33,3.83,.14,.87-.44,1.61-.83,2.01-1.03,.91,.19,1.48,.38,2.06,.41,1,.06,2,.02,3,.02h3.27c1,0,2.08-.24,2.98,.06,1.03,.35,1.91-.18,2.84-.06,2.47,.32,4.94,.66,7.35,1.34,.58,.16,1.2,.16,1.79,.3,.57,.13,1.12,.35,1.69,.54,.27-.2,.54-.41,.8-.6,.99,.63,1.92,1.22,2.8,1.77,.4-.25,.66-.41,.77-.48,1.97,1.04,3.81,2.02,5.63,2.99,.18-.14,.35-.26,.56-.41,.1,.39,.17,.64,.28,1.08,.37,0,.83-.1,1.22,.03,.47,.15,.99,.4,1.3,.76,.5,.57,.65-.25,1.1-.12,.35,1.06,1.62,1.25,2.3,2.18,.57,.78,2.27,.41,2.28,1.82,2.1,.83,4.13,1.64,6.22,2.47,1.46-.55,2.94-1.16,4.46-1.67,2.82-.95,3.47-1.6,4.09-4.31,.42-.05,.85-.1,1.2-.13,.28-.68,.56-1.3,.78-1.93,.63-1.75,1.78-3.34,1.64-5.32,.93-.36,.23-1.37,.74-1.87,1.55-1.5,1.6-3.53,1.99-5.45,.26-1.28,.61-2.55,.91-3.8-.13-.16-.23-.29-.3-.38,.2-.3,.38-.58,.54-.81-.22-.41-.37-.7-.54-1,.49-.13,.74-.19,.93-.24,.33-.98-.11-1.92,.51-2.91,.36-.57-.29-1.77-.46-2.6,.47-.53,.87-.98,1.24-1.38-.27-.44-.43-.7-.53-.85,.21-.4,.36-.7,.49-.96-.24-.33-.41-.57-.6-.83,.47-.16,.78-.26,1.07-.36,0-2.36,.08-4.63-.02-6.9-.13-3.02,.53-6.08-.53-9.05,.42-3.05-.76-6.01-.55-9.05,.02-.26-.03-.52-.04-.75-.55-.55-1.07-1.07-1.49-1.49-.27-1.92-.53-3.74-.82-5.74-1.33-1.61-1.54-3.87-2.16-5.97-.32-.11-.63-.22-.97-.33,.23-.24,.41-.44,.6-.64-.27-.8-.53-1.6-.78-2.36-.29-.06-.53-.11-.84-.17,.2-.34,.36-.61,.52-.88-.64-1.65-1.27-3.3-1.91-4.96-.21-.05-.46-.1-.76-.17,.15-.3,.27-.55,.4-.8-.32-.12-.64-.23-1.01-.37,.46-2.28-1.92-3.61-1.85-5.77-1.28-1.62-2.14-3.45-2.7-5.43-.25-.06-.5-.12-.74-.2-.07-.02-.1-.13-.15-.2-.35-1.83-1.25-4.05-2.16-5.38-.23-.34-.52-.74-.54-1.13-.11-1.49-.87-2.73-1.27-3.98-.56-.11-.98-.2-1.41-.28,.01-.06,.03-.13,.04-.19,.32-.11,.63-.23,1.01-.36-.39-.97-.83-1.88-1.12-2.83-.51-1.7-.94-3.43-1.38-5.15-.29-1.15-.57-2.32-.8-3.48-.19-.92-.31-1.85-.48-2.84,.11-.12,.28-.31,.47-.51-.38-.19-.75-.37-1.25-.62,.27-.42,.49-.77,.78-1.24-1.06-1.28-.76-2.67-.21-3.62-.52-2.37-.96-4.35-1.42-6.43,.85-1.01,.54-2.13-.21-3.18,1.58-1.19-.15-2.3,.11-3.44,.29-1.26,.42-2.55,.59-3.68-.49-.59-.88-1.06-1.36-1.64,.57-.42,1.01-.74,1.52-1.11-1.05-1.88,1.2-3.59-.04-5.4,.64-1.85,.65-3.68-.13-5.45,.35-.64,.69-1.27,1.02-1.9-.47-.21-.8-.36-1.37-.61,.86-.63,1.45-1.05,2.01-1.46-.06-.54-.1-.96-.13-1.2-.47-.18-.71-.28-1.16-.45,.59-.21,.91-.33,1.46-.52-1.1-2.9,1.21-5.81,.05-8.61,.75-2.63,1.2-5.22,1.41-7.82-.48-.17-.79-.28-1.15-.41,1.05-.59,1.72-1.36,1.65-2.57-.07-1.19-.21-2.38-.33-3.66,.16-.06,.47-.18,.62-.23,.38-1.22,.73-2.35,1.08-3.47,.37-1.95,.75-3.95,.77-5.96,.02-2.04,.46-3.94,1.17-5.93-1.62-1.29,.36-2.36,.11-3.44,.46-.21,.67-.31,1.09-.5-.64-.22-.95-.32-1.49-.5,.57-.43,1-.76,1.21-.92,.4-2.21,.75-4.16,1.12-6.21-.07-.08-.25-.28-.43-.48,.34-.37,.69-.75,1-1.08-.21-.32-.39-.61-.55-.84,1.14-1.89,1.3-3.87,1.13-5.83,.42-.11,.66-.17,1.03-.27,.38-1.87,.46-3.93,1.26-5.66,.83-1.77,.97-3.78,2.2-5.28-.29-.32-.46-.51-.56-.62,.55-.82,1.08-1.6,1.61-2.39v-3.74c.38-.38,.7-.71,1.13-1.13-.14-.49-.3-1.05-.5-1.75,.34-.22,.85-.53,1.45-.91,.16-.42,.58-.98,.55-1.51-.07-1.01,.64-1.93,.51-2.76-.2-1.27,.97-1.64,1.18-2.56,.13-.57,.35-1.12,.54-1.69,.5-1.52,.51-3.21,1.63-4.6,.03-1.39-.1-2.82,.88-4.19,.71-.98,1.05-2.32,1.25-3.54,.25-1.49,.69-2.81,1.8-3.88-.27-.75-.49-1.36-.72-2.02,.4-.15,.72-.26,1-.36,.14-.51,.34-.99,.4-1.49,.19-1.55,1.54-2.6,1.62-4.27,.07-1.42,.9-2.76,.86-4.26-.01-.42,.01-.96,.26-1.24,.84-.95-.19-1.61-.29-2.45,.72-.8,1.87-1.56,.59-2.81,1.82-1.45,1.27-3.75,2-5.58-.13-.13-.26-.26-.56-.56,.45-.31,.9-.61,1.27-.86-.19-3.11,1.15-5.71,1.97-8.44-.3-.09-.59-.18-1-.31,.29-.15,.44-.24,.59-.31,.16-.06,.32-.1,.34-.11,.4-1.26,.77-2.43,1.11-3.49-.12-.42-.23-.79-.34-1.14,.52-.17,.83-.28,.98-.33-.15-.57-.48-1.11-.36-1.53,.44-1.53,1.12-3,1.53-4.54,.82-3.13,1.62-6.27,2.19-9.44,.21-1.13-.26-2.39-.45-3.77,1.71-.48,1.65-1.89,1.56-3.33-.45-.16-.76-.26-.93-.32,.73-2.26,1.61-4.38,1.49-6.72-.43-.15-.74-.27-1.11-.4,.4-.43,.76-.81,1.15-1.22-.25-1.61,.37-3.33-.4-4.88,.22-.63,.49-1.25,.64-1.89,.15-.68-.02-1.52,.32-2.04,.52-.79-.07-1.37-.03-2.03,.04-.62,.36-1.27,.28-1.86-.33-2.37,.06-4.35,1.41-6.1-.21-.58-.43-1.21-.63-1.77,.26-.35,.46-.62,.52-.69-.21-.81-.45-1.38-.48-1.95-.06-1.45,.1-2.92-.05-4.36-.19-1.77-.45-3.57-1.56-5.11-.34-1.03,.44-2.24-.57-3.29-.9-.93-.42-2.33-.79-3.48-.26-.82-.32-1.7-.48-2.63-.25-.25-.57-.57-.9-.9-.03-.61-.07-1.22-.1-1.79-.39-.37-.72-.67-1.04-.97v-1.67c-.93-2.52-1.87-4.49-2.96-6.39,.15-.1,.29-.2,.44-.3-.58-.52-1.16-1.04-1.68-1.51,.17-.3,.33-.59,.57-1.01-.65-.42-1.22-.78-1.8-1.15v-1.61c-.58-.58-1.3-1.07-1.7-1.75-.63-1.08-1.9-1.91-1.58-3.43,2.19-.06,4.28,.24,6.39,1.01,1.59,.58,3.45,.45,5.19,.62,1.49,.14,2.92,.41,3.95,1.64,.91,0,1.82,0,2.73,0,.32,.32,.64,.64,1.03,1.04,1.08-1.35,2.12,.3,3.24,.06,1.09-.24,2.1,.16,2.95,.73,.78,.53,1.57,.53,2.21,.13,1.1-.69,1.98-.2,2.92,.22,.36-.21,.72-.42,1.21-.71,.21,.47,.38,.83,.57,1.24,.23-.4,.44-.78,.77-1.35,.57,.77,.99,1.35,1.49,2.02,.16-.44,.27-.76,.39-1.1,1.13-.39,2.5,.39,3.53-.64,.05-.05,.18,0,.27,0,.95-.14,1.69,1.18,2.91,.12,.61-.54,1.98-.2,2.99,.37,.35,.2,1.08-.39,1.65-.46,.71-.09,1.45,.02,2.18-.04,.53-.04,1.04-.22,1.58-.35v.72c.62-.12,1.23-.24,1.83-.36,.63-.13,1.46-.56,1.84-.31,.72,.47,1.39,.22,2.07,.3,.63,.07,1.3,.13,1.9-.02,.65-.16,1.18-.69,1.96-.53,.66,.14,1.35,.13,2.54,.22,.06-.03,.63-.32,1.43-.74,1.01,.19,2.39-.43,3.67,.51,.24-.29,.53-.63,.81-.97,1.48-.3,3.03,.22,4.43-.59,.3-.17,.93,.24,1.39,.38,.72-.14,1.47-.3,2.22-.42,.77-.13,1.54-.24,2.32-.33,.78-.09,1.58-.11,2.36-.23,.68-.1,1.34,.16,2.07-.28,.61-.37,1.55-.24,2.34-.24,.77,0,1.65-.32,2.23,.54,1.47-.41,2.82-1.16,4.45-1.16,.95,0,1.91-.59,2.92-.93,.54,.13,1.43,.63,1.8,.37,.9-.62,1.93-.79,2.88-.94,.96-.15,2.02,.29,3.07,.48,.29-.47,.59-.96,.88-1.41,2.52-.51,4.96-1,7.54-1.53,.05-.14,.16-.45,.35-.97,1.23,.71,2.42,.63,3.81,.17,1.31-.43,2.88-.09,4.48-.09,.27-.34,.6-.77,.77-.98,1.54-.36,2.83,.16,4.17-.58,1.07-.59,2.49-.06,3.86-.51,1.95-.64,4.17-.5,6.32-.69,1.18-.7,2.14-2.4,3.98-1.14,.28-.28,.6-.6,1.03-1.03,2.28,.52,4.16-.94,6.35-1.61,.3,.17,.66,.38,1.01,.58,2.02-1.56,4.47-1.64,7.09-2.49-.26,.21-.15,.17-.13,.1,.08-.24,.13-.49,.22-.83h1.83c.14-.39,.24-.71,.4-1.17,.2,.15,.37,.27,.61,.45,1.85-1.06,3.64-2.49,6.01-2.06,.36-.36,.69-.69,1.06-1.07h2.32c1.03-.46,1.85-.73,2.56-1.17,.93-.57,2.52,0,2.83-1.62,.93-.06,1.82-1.23,2.78-.01,.29-1.92,2.08-1.53,3.19-2.15,.43-.24,1-.21,1.47-.4,1.81-.71,3.45-1.81,5.52-1.87,.65-.02,1.27-.82,1.94-1.19,.44-.24,.95-.35,1.59-.58,.04-.11,.15-.43,.33-.95,.44,.19,.87,.37,1.54,.65,.73-.61,1.6-1.33,2.35-1.95,1.74,.6,3.47-.7,5.26-.31,1.7,.37,3.45,.49,5.28,.73,.03,.16,.08,.41,.12,.62,2.75,.79,5.48,1.73,8.29,2.31,2.03,.42,4.17,.48,6.25-.17,.09,.21,.21,.52,.41,1,.45-.21,.88-.41,1.46-.68,.2,.14,.47,.34,.79,.57,1.76-.45,3.52-1.21,5.47-1.09,1.04,.06,2.04,.01,3.07-.48,.99-.47,2.11-.81,3.3-.62,.37,.06,.79-.22,1.27-.37,.34,.29,.79,.67,1.46,1.23,.22-.54,.37-.89,.51-1.23,.16-.05,.32-.13,.49-.13,1.91,0,3.9,.35,5.7-.11,1.67-.42,3.31-.29,4.95-.5-.3-1.56-1.07-3-1.34-4.47-.3-1.61-.43-3.22-1.24-4.79,1.93-2.36,.83-5.23,1.19-7.92,1.28-.97,1.23-2.55,1.77-3.97,.36-.03,.79-.07,1.23-.12,1-2.19,1.94-4.5,3.87-5.99,1.81-1.39,3.9-2.41,5.84-3.58,.48,.14,1.03,.29,1.63,.46,.6-.72,1.15-1.37,1.78-2.11,.13,.07,.47,.24,.81,.41,.36-.45,.68-.86,1.1-1.41,.3,.6,.48,.96,.74,1.48,.13-.42,.22-.71,.35-1.11h5.69c.12,.25,.29,.62,.51,1.1,.15-.43,.26-.75,.56-1.6,.16,.86,.26,1.43,.36,2l.74-.53c.09-.28,.19-.55,.32-.96h1.93c.12,.36,.23,.68,.4,1.15,.41-.63,.73-1.12,1.14-1.75,2.46-.11,4.96-.62,6.98-2.73h2.34c.79-1.93,2.79-2.44,4.15-3.69,.37-.34,1.18-.19,1.83-.27,.67-.67,1.38-1.38,2.1-2.1h1.66c.48-.51,.97-1.04,1.12-1.21,2.64-.74,4.84-1.37,7.09-2,.13,.28,.31,.65,.53,1.13,.14-.42,.25-.73,.43-1.24,.61,.19,1.2,.47,1.83,.56,.7,.1,1.43,.02,2.14,.02,.15,.38,.27,.69,.46,1.16,.37-.16,.73-.31,1.23-.52,.25,.36,.58,.82,1.04,1.47,.73,.34,1.82,.64,2.54,1.64-.28,.38-.48,.64-.71,.96,.26,.08,.5,.16,.8,.26,.66,1.45,1.34,2.96,2.02,4.45-.25,.27-.44,.47-.67,.72,.34,.11,.65,.22,1.14,.39-.49,.28-.91,.52-1.67,.96,.93,.42,1.26,.56,1.75,.78-.46,.96-.99,1.91-.15,3.04,.35,.47,.06,1.41,.09,2.16,0-.01-.04-.05-.08-.08-.15,.13-.3,.25-.45,.38,.06,.06,.11,.11,.17,.17,.13-.15,.25-.3,.35-.47,.15,.21,.5,.64,.49,.65-1.13,.97-.16,1.91,.09,2.78-.25,.27-.43,.46-.64,.69,.19,.54,.58,1.11,.54,1.65-.1,1.29,.54,2.7-.51,3.87,.28,1.15,.41,2.38,.9,3.44,.43,.92-.06,1.47-.39,2.18,1.37,1.52-.18,3.65,1.08,5.27-.31,.11-.63,.22-1.05,.37,.41,.46,.8,.89,1.24,1.38-.25,.34-.45,.61-.55,.74,.18,.64,.35,1.19,.52,1.8-.45,.16-.76,.27-1.21,.43,.4,.46,.77,.88,1.16,1.33-.23,.42-.43,.79-.67,1.23,.36,.64,.73,1.3,1.17,2.09-.23,.82-1.08,1.69-.34,2.81,.26,.4,.31,.99,.3,1.5-.03,1.85,.24,3.6,1.03,5.31,.2,.44-.13,1.12-.25,1.88-.03-.04,.31,.17,.3,.36-.07,1.86,.08,3.7,.57,5.5,.13,.49,.41,.96,.42,1.45,.02,.64-.15,1.29-.27,2.19,1.36,2.34-.55,4.71-.73,7.24,.36,.13,.68,.24,.99,.35,.53,1.42-.37,2.47-1.03,3.71,.16,.23,.35,.5,.55,.79-.74,.55-.6,1.12,.16,1.76-.39,.72-.9,1.42-1.16,2.2-.27,.8,.16,1.68-.46,2.56-.43,.62-.15,1.63-.59,2.47-.29,.55-.43,1.35-.36,2.14,.08,.83-.24,1.7-.37,2.45-.49,1.34-1.76,.58-2.9,1.15,.59,.16,.88,.24,1.4,.38-.49,2.53-1.51,4.77-3.29,6.74v2.52c-.85,1.53-1.34,3.01-1.71,4.62-.65,2.84-.31,5.68-.5,8.51-.1,1.45,.37,2.74,.74,4.07,.39,1.4,1.08,2.77,.89,4.25-.22,1.73,.66,3.26,.63,4.94,.32,.32,.64,.64,1,1-.15,.18-.3,.37-.55,.67,.35,.93,.74,1.94,1.16,3.04-.17,.23-.37,.5-.6,.81,1.02,2.43,1.36,5,1.05,7.58,.5,.18,.82,.29,1.15,.41-.14,.17-.25,.3-.35,.43,.33,1.97,.84,3.88,1.39,5.8,.19,.66-.19,1.49-.38,2.65,.21,.28,.66,.9,1.46,1.98-.31,2.39,1.36,5.12,1.15,8.13,.92,1.18,.44,2.57,.54,3.86,.2,2.47,.39,4.94,.53,7.41,.03,.47-.21,.96-.35,1.51,.34,.21,.83,.51,1.31,.8-1.05,2.94,.31,5.59,.58,8.51-.14,.05-.44,.16-.87,.31,.32,.52,.64,1.05,.99,1.56,.38,.56,.8,1.1,1.2,1.64-.52,.41-.93,.74-1.71,1.35,.95,.15,1.43,.23,2.03,.32v3.43c.38,.35,.79,.6,1.03,.97,.31,.49,.49,1.07,.79,1.77-.37,.16-.73,.31-1.31,.56,.43,.15,.7,.25,1.05,.37,.5,.67,.34,1.97,1.61,2.16,.5,1.91,.99,3.8,1.53,5.83,.09,.02,.33,.07,.61,.12,.84,1.86,.87,4.11,2.37,5.75-.12,.12-.25,.25-.51,.51,.68,1.25,.52,2.82,1.61,4.1,.6,.71,.65,1.88,1,3-.1,.2-.27,.55-.52,1.03,.42,.19,.78,.35,1.24,.55v3.93c.41,.15,.73,.26,1.29,.46-.42,.41-.72,.7-1.03,.99q-.29,.1,1.05,1.45c.5,1.86,1.02,3.49,1.34,5.15,.14,.71,.1,1.36,.76,1.89,.84,.66,.34,1.38-.11,2.04,.32,.32,.64,.64,.96,.96-.18,.27-.35,.54-.6,.92,1.45,1.45,1.07,3.48,1.66,5.22,.03,.08-.24,.25-.37,.38,.52,.76,1.03,1.52,1.55,2.29v2.72c.08-.03,.16-.05,.23-.08,.47,1.43,.93,2.87,1.4,4.31-.41,.33-.82,.65-1.6,1.27,.95,.15,1.44,.23,1.94,.31,.82,1.6,.83,3.35,.98,5.04,.28,.88,.68,1.73,.82,2.63,.13,.81,.98,1.61,.18,2.48,.93,.76-.02,1.92,.58,2.76,.25,.06,.49,.13,.68,.18,.66,3.76,1.31,7.49,1.96,11.21,.34,.12,.65,.24,1.14,.42-.25,.41-.53,.74-.65,1.11-.1,.33-.02,.72-.02,1.12,.34,.16,.71,.33,1.09,.51-.35,.35-.67,.67-.99,.99,.33,1.02,.42,2.22,1.04,3,.78,.99,.25,2.17,.93,3.21,.43,.66,.56,2.11-.54,2.79,.42,.78,.74,1.38,1.19,2.24,.07,1.42-.44,3.29,1.65,4.56-.86,.29-1.17,.4-1.64,.56,.47,.28,.89,.52,1.03,.6v2.31c-.35,.14-.67,.26-1.23,.47,.48,.16,.76,.26,1.14,.39,.27,1.81,.55,3.69,.86,5.72-.46,.33-.89,.64-1.47,1.06,.5,.12,.74,.18,1.05,.25,.78,.99,.02,1.9-.35,2.79,.25,.34,.45,.62,.75,1.03-.43,.46-.85,.9-1.36,1.45,.21,.33,.43,.69,.49,.77-.2,1.71-.36,3.17-.54,4.72-.17,.04-.42,.09-.71,.15-.66,.78,.06,1.4,.36,2.17-.33,.61-.69,1.27-1.05,1.92,.15,.18,.32,.38,.5,.57-.42,1.13-.82,2.23-1.26,3.41-.27-.14-.51-.27-.83-.44-.05,.28-.1,.52-.15,.83,.35,.12,.66,.23,.98,.34,.37,.52,.15,1.1-.96,2.37,.34,1.95-.32,3.84-1.29,5.57-.51,.91-.11,1.75-.39,2.64-.27,.27-.59,.59-.77,.77-.51,1.82-.97,3.45-1.48,5.31-.55,.51-1.29,1.19-2.03,1.88v1.94c-.56,.33-1.08,.64-1.61,.95,.15,.17,.32,.36,.61,.69-.37,.5-.77,1.05-1.26,1.7,.12,.22,.27,.52,.45,.85-.71,.63-1.49,1.32-2.03,1.79v2c-.97,1.11-2.02,2.31-3.27,3.75,0,.13,0,.68,0,1.22-1.35,.45-1.58,1.59-1.7,2.79-.8,.26-1.6,.52-2.41,.78-.68,1.81-2.09,2.65-4.01,3.04,.25,.07,.54,.08,.73,.22,.18,.14,.25,.42,.49,.86-.8,.11-1.45,.19-2.36,.31-.2,.45-.47,1.07-.9,2.04,.22-.17,.1,0-.05,.03-1.25,.28-2.41,.61-3.54,1.37-.92,.62-1.76,1.73-3.25,1.45-.32-.06-1.46,.18-1.64,1.27-.05,.35-1.16,.76-1.77,.74-1.62-.05-2.95,.85-4.44,1.18-1.41,.31-2.77,.87-4.19,1.05-2.45,.3-4.93,.4-7.4,.58-.71,.05-1.7-.19-2.07,.18-.78,.8-1.01-.72-1.57-.18-.18,.18-.38,.35-.61,.57-.13-.36-.24-.67-.34-.95-2.09-.19-4.17-.38-5.86-.53-.62-.83-1.07-1.76-1.32-1.71-1.3,.25-1.54-1.06-2.39-1.45-.88-.4-1.53-1.29-2.29-1.95-.22-.2-.46-.42-.74-.51-1.49-.47-2.83-1.14-3.99-2.24-.79-.75-1.8-1.27-2.84-1.99-.05-.26-.14-.75-.25-1.32-.22,.22-.35,.35-.48,.48-.7-.6-1.46-1.13-2.07-1.81-.76-.84-1.91-1.38-2.17-2.64-1.16-.15-1.13-1.54-2.1-1.99-.91-.42-1.67-1.17-2.77-1.97-.16-.45-.45-1.23-.85-2.3-.33-.02-.93-.05-1.83-.09-.55-.81-1.22-1.79-2.09-3.08-1.29-.22-1.64-1.78-2.33-3-.71-1.26-1.97-2.13-2.42-3.59-.09-.3-.72-.41-1.05-.66-1.16-.87-2.01-1.93-2.01-3.48-.82-.93-1.65-1.86-2.68-3-.01-.1-.06-.53-.1-.94-.33-.13-.64-.26-1.11-.45,.17-.38,.34-.75,.46-1.01-.19-.66-.37-1.29-.57-1.98-.33-.01-.68-.03-1.06-.05-1.24-.73-.37-2.99-2.34-3.37-1.26-2.08-1.81-4.71-3.81-6.49-.16-1.34-1.19-2.23-1.72-3.38-.64-1.4-1.03-2.86-2.25-4.02-.48-.46-1.33-1.75,.07-2.81h-1.63c-.08-.76-.16-1.44-.24-2.2-.4-.24-.84-.51-1.42-.86-.07-.32-.11-.85-.31-1.3-.21-.46-.66-.81-.88-1.27-.26-.52-.47-1.1-.54-1.68-.09-.71-1-.25-1.23-1.1-.21-.75-.01-2.23-1.5-2.31-.16-.98-.77-1.68-1.31-2.47-.48-.69-.68-1.49-1.37-2.14-.52-.49-.47-1.59-.72-2.63-.15-.04-.46-.13-.77-.21-.78-1.96-1.06-4.19-2.89-5.58-.1-1.74,.16-3.58-2.06-4.36-.37-.13-.46-1.03-.71-1.57-.28-.62-.59-1.22-1.07-2.2v-1.3c-.29-.09-.6-.18-1.01-.3v-1.72c-1.47-.94-1.31-2.76-2.01-4.19h-1.09c-.09-.15-.25-.3-.25-.44-.02-1.21-.08-2.23-1.4-2.98-.77-.44-1.07-1.67-1.66-2.68-.53,.16-1.09,.32-1.85,.55-1.96-.77-4.27-.71-6.49-.15-1.04,.26-1.83,.29-2.66-.3-.56,.18-1.42,.69-1.64,.49-1.49-1.32-2.83,.47-4.22,.07-.68,.9-1.67,.53-2.51,.5-1.95-.07-3.81,.2-5.46,1.23-.3-.26-.5-.43-.71-.6-1.11,.96-2.45,1.17-3.91,1.01-.12,.35-.23,.67-.38,1.08h-1.97c-1,.52-1.68,.86-2.41,1.24-.56-.25-1.09-.49-1.76-.79-.12,.4-.21,.71-.33,1.12h-1.29c-.13,.39-.24,.71-.38,1.12h-1.82c-.14,.39-.25,.71-.38,1.08-1.97,.46-3.97,.92-6.21,1.44-.23,.32-.66,.91-1.11,1.52-.55-.32-.91-.53-1.32-.77-.22,.17-.47,.29-.61,.49-1.18,1.73-1.52,1.94-3.67,2.88-.85,.37-1.58,1.01-2.37,1.52-.43,.27-.87,.52-1.32,.77-.37,.21-.74,.4-1.13,.61-.1,.29-.2,.6-.31,.9h-1.22c-.08,.22-.17,.46-.27,.73-2.69,1.02-4.21,2.13-5.58,4.12-.54,.03-1.15,.06-1.55,.08-.85,.94-1.6,1.77-2.43,2.67h-.82c-.78,.6-1.53,1.07-2.15,1.68-.66,.64-1.16,1.46-1.83,2.1-.54,.52-1.31,.81-1.83,1.35-.78,.82-1.71,1.66-2.07,2.67-.54,1.48-1.81,1.67-2.92,2.27v1.11c-.86,.31-1.71,.62-2.6,.94-.47,1.24-.95,2.49-1.42,3.72h-1.18c-.61,1.3-1.44,2.38-2.86,2.86-1.49,3.64-2.04,4.2-3.74,3.72-.31,1.01-.61,2.02-.96,3.15h-1.21c-.13,.39-.24,.71-.37,1.08-.48,.07-.98,.15-1.64,.25,.27,.59,.48,1.04,.68,1.47-.22,2.01-2.82,.24-3.18,2.01,.31,.12,.62,.25,.97,.39,.12,1.18-.77,1.41-1.6,1.54v1.42c-.4,.04-.82,.09-1.26,.14-1.84,2.64-3.58,5.41-6.44,7.25v1.9c-.52,.06-.95,.11-1.62,.18,.25,.33,.51,.53,.57,.78,.09,.34,.02,.71,.02,1.07-1.34,.14-1.19,2.58-3.02,1.82-.3,1.23-.58,2.39-.86,3.57-.49,.37-1.23,.67-1.52,1.21-.38,.73-.31,1.69-.63,2.46-.26,.62-1.13,.74-1.39,1.56-.54,1.67-1.31,3.27-1.96,4.85-.55,.04-.98,.07-1.56,.11,.49,.65,.88,1.16,1.37,1.82-.51,.17-.81,.28-1.19,.41-.82,4.18-2.85,8.07-3.55,12.36-.47,.05-.89,.1-1.57,.17,.23,.94,.44,1.81,.72,2.95-.38,.22-.85,.49-1.06,.61-.33,2.83-.64,5.29-2.11,7.5,.91,1.63,.13,3.12-.81,4.63,.12,.23,.24,.45,.39,.7-.35,1.65-.72,3.36-1.15,5.37-.17,.31-.49,.9-.82,1.5,.36,.58,.44,1.08,.04,1.75-.28,.47-.06,1.13-.35,1.76-.35,.75-.29,1.75-.21,2.62,.14,1.44-.08,2.88-.71,4.07-.43,.82-.58,1.65-.36,2.27,1.05,2.9,.18,5.83,.52,8.75-.39,.09-.64,.14-1.01,.22,.59,1.17,.78,2.36-.43,3.43,.65,.23,.96,.34,1.48,.52-.19,.44-.38,.88-.56,1.31,.19,.67,.39,1.38,.58,2.07-.53,.19-.85,.3-1.28,.45,.42,.35,.76,.63,1.23,1.02-.27,.87,.37,1.84-.44,2.73-.19,.21-.18,.68-.13,1.02,.18,1.27,.06,3.14-.34,4.32-.03,.08-.12,.13-.26,.26,.26,.09,.49,.14,.71,.24,.15,.07,.28,.18,.51,.33-.29,.89-1.28,1.83-.23,2.61-.15,1.08-.45,2.02-.35,2.92,.1,.83,.58,1.58,.53,2.51-.05,.93-.34,1.98,.43,2.88-.22,.08-.52,.18-.82,.28,.11,.62,.33,1.25,.28,1.86-.05,.54-.4,1.06-.67,1.69,.51,.11,.76,.16,1.12,.24-1.18,1.63,.82,3.15,.17,4.82,.97,1.56,.32,3.31,.56,4.95,.24,1.69,.61,3.36,.96,5.24-.18,.08-.54,.23-.92,.4v.9c.35-.21,.59-.35,1.03-.62,0,.73-.1,1.36,.03,1.94,.12,.55,.46,1.06,.72,1.6-.56,.27-.91,.44-1.42,.68,.41,.11,.65,.18,1.11,.3-.04,2.04,1.13,4.06,.54,6.29-.32,.11-.63,.23-1.25,.45,.57,.16,.87,.24,1.17,.32,.41,1.46,.81,2.92,1.25,4.5-.12,.18-.32,.46-.55,.8,.21,.42,.43,.86,.72,1.45-.38,.14-.68,.25-1.08,.41,.43,1.31,.87,2.69,1.34,4.1-.21,.07-.52,.19-.84,.3-.03,.08-.12,.19-.09,.22,.89,1.16,.27,2.59,.67,3.81,.49,1.47,.97,2.92,.98,4.51,0,.74,.39,1.48,.5,2.23,.1,.69,.2,1.3,.49,1.98,.53,1.23,.55,2.67,.92,3.98,.37,1.33,.81,2.6,.85,4.03,.03,1.04,.64,2.07,1.03,3.09,.76,1.99,1.15,4.08,1.64,6.14,.43,1.81,.98,3.59,1.46,5.39,.11,.42,.09,.87,.17,1.3,.19,1.1,.24,2.26,.64,3.28,2.05,5.28,2.08,5.27,2.09,9.83,.22,.08,.45,.17,.87,.32,.68,2.64,2.07,5.25,1.84,8.39,1.27,.55,.96,2.04,1.68,3.06-.19,.26-.38,.54-.69,.97,.35,.43,.72,.9,1.19,1.47,.09,1.31-.32,2.88,.91,4.1,.11,.11,.2,.32,.18,.46-.36,2.16,.62,4.18,.6,6.16,.39,.7,.72,1.3,1.11,2.01-.15,.23-.33,.51-.63,.98,1.23,1.96,1.32,4.32,1.08,6.67-.21,2,.71,3.81,.66,5.76,0,.26,.38,.53,.59,.8-.25,.31-.41,.52-.47,.59,.12,1.3,.21,2.49,.35,3.67,.1,.85-.36,1.79,.5,2.54,.18,.16,.06,.7,.04,1.06-.17,2.51-.13,2.84,.62,4.38-.37,.16-.73,.32-1.3,.57,.32,.36,.59,.66,.86,.96,.04-.04,.09-.08,.13-.12,.08,.15,.22,.3,.22,.45,.02,1.09,.01,2.18,.01,3.27,0,.55-.08,1.11,.02,1.63,.1,.48,.4,.91,.6,1.33-.26,.28-.44,.48-.71,.77,1.49,2.05-.16,4.67,1.15,6.83,.01,.02-.34,.27-1,1.04-.08-.01,.2-.46,.24-.52-.19-.5-.34-.89-.49-1.29-.08,.08-.16,.16-.24,.24,0,.67,0,1.34,.48,1.57Zm120.42-560.63v.18h.55v-.18h-.55Zm-53.25,5.82h.18v-.55h-.18v.55Zm-480.48,358.73v-.18h-.55v.18h.55Zm35.8,28h-.18v.55h.18v-.55Zm353.27,26.73h-.18v.55h.18v-.55Z"/>
  <path class="cls-2" d="M717.45,346.36c-.32,1.52,.95,2.35,1.58,3.43,.4,.68,1.12,1.18,1.7,1.75v1.61c.58,.37,1.15,.73,1.8,1.15-.23,.41-.4,.71-.57,1.01,.52,.47,1.1,.99,1.68,1.51-.15,.1-.29,.2-.44,.3,1.09,1.9,2.04,3.87,2.96,6.39v1.67c.32,.3,.65,.6,1.04,.97,.03,.57,.07,1.18,.1,1.79,.33,.33,.65,.65,.9,.9,.16,.94,.22,1.82,.48,2.63,.37,1.15-.11,2.54,.79,3.48,1.01,1.05,.23,2.25,.57,3.29,1.11,1.55,1.37,3.34,1.56,5.11,.15,1.44,0,2.91,.05,4.36,.02,.58,.27,1.14,.48,1.95-.06,.08-.26,.35-.52,.69,.2,.56,.43,1.19,.63,1.77-1.35,1.75-1.75,3.73-1.41,6.1,.08,.59-.24,1.23-.28,1.86-.04,.66,.55,1.24,.03,2.03-.34,.52-.17,1.36-.32,2.04-.15,.65-.42,1.26-.64,1.89,.77,1.54,.15,3.27,.4,4.88-.39,.41-.74,.79-1.15,1.22,.37,.13,.68,.24,1.11,.4,.12,2.34-.77,4.47-1.49,6.72,.17,.06,.47,.16,.93,.32,.09,1.43,.15,2.84-1.56,3.33,.18,1.38,.65,2.63,.45,3.77-.58,3.18-1.38,6.32-2.19,9.44-.4,1.54-1.09,3.01-1.53,4.54-.12,.42,.21,.96,.36,1.53-.15,.05-.46,.15-.98,.33,.11,.36,.21,.73,.34,1.14-.34,1.06-.71,2.23-1.11,3.49-.02,0-.19,.04-.34,.11-.16,.06-.3,.15-.59,.31,.41,.13,.71,.22,1,.31-.83,2.72-2.16,5.32-1.97,8.44-.37,.25-.82,.56-1.27,.86,.3,.3,.43,.43,.56,.56-.73,1.84-.18,4.13-2,5.58,1.28,1.25,.14,2.01-.59,2.81,.1,.84,1.13,1.49,.29,2.45-.24,.28-.27,.82-.26,1.24,.04,1.5-.79,2.84-.86,4.26-.08,1.67-1.42,2.72-1.62,4.27-.06,.5-.26,.98-.4,1.49-.29,.1-.6,.22-1,.36,.24,.66,.46,1.27,.72,2.02-1.11,1.06-1.56,2.39-1.8,3.88-.2,1.23-.55,2.56-1.25,3.54-.98,1.37-.85,2.8-.88,4.19-1.13,1.39-1.14,3.08-1.63,4.6-.18,.56-.4,1.11-.54,1.69-.21,.92-1.38,1.29-1.18,2.56,.13,.84-.57,1.75-.51,2.76,.03,.53-.38,1.09-.55,1.51-.6,.38-1.1,.69-1.45,.91,.2,.7,.36,1.26,.5,1.75-.42,.42-.74,.74-1.13,1.13v3.74c-.53,.79-1.06,1.57-1.61,2.39,.1,.11,.28,.3,.56,.62-1.24,1.5-1.38,3.51-2.2,5.28-.81,1.73-.88,3.8-1.26,5.66-.37,.1-.61,.16-1.03,.27,.16,1.96,0,3.94-1.13,5.83,.15,.23,.34,.52,.55,.84-.31,.33-.66,.71-1,1.08,.18,.2,.36,.4,.43,.48-.37,2.05-.72,3.99-1.12,6.21-.21,.16-.64,.49-1.21,.92,.54,.18,.85,.29,1.49,.5-.42,.19-.64,.29-1.09,.5,.25,1.08-1.73,2.15-.11,3.44-.72,1.99-1.16,3.89-1.17,5.93-.02,2.01-.4,4.02-.77,5.96-.35,1.12-.7,2.25-1.08,3.47-.15,.06-.46,.17-.62,.23,.12,1.28,.26,2.47,.33,3.66,.07,1.2-.6,1.98-1.65,2.57,.36,.13,.67,.24,1.15,.41-.21,2.61-.66,5.19-1.41,7.82,1.16,2.8-1.15,5.71-.05,8.61-.55,.2-.87,.31-1.46,.52,.45,.17,.69,.27,1.16,.45,.03,.24,.07,.66,.13,1.2-.56,.41-1.15,.84-2.01,1.46,.57,.25,.9,.4,1.37,.61-.34,.63-.68,1.25-1.02,1.9,.78,1.78,.77,3.61,.13,5.45,1.24,1.82-1.01,3.52,.04,5.4-.51,.37-.94,.69-1.52,1.11,.48,.58,.87,1.04,1.36,1.64-.18,1.13-.31,2.43-.59,3.68-.26,1.14,1.46,2.25-.11,3.44,.75,1.05,1.07,2.18,.21,3.18,.46,2.07,.9,4.06,1.42,6.43-.55,.95-.85,2.34,.21,3.62-.29,.47-.52,.82-.78,1.24,.5,.25,.86,.43,1.25,.62-.18,.2-.36,.39-.47,.51,.16,.99,.29,1.92,.48,2.84,.24,1.17,.51,2.33,.8,3.48,.44,1.72,.87,3.45,1.38,5.15,.29,.95,.73,1.86,1.12,2.83-.38,.14-.7,.25-1.01,.36-.01,.06-.03,.13-.04,.19,.42,.08,.85,.17,1.41,.28,.4,1.25,1.16,2.49,1.27,3.98,.03,.39,.31,.78,.54,1.13,.91,1.33,1.81,3.55,2.16,5.38,.05,.07,.08,.18,.15,.2,.24,.08,.49,.14,.74,.2,.55,1.98,1.42,3.81,2.7,5.43-.07,2.15,2.31,3.49,1.85,5.77,.37,.14,.69,.25,1.01,.37-.12,.25-.25,.5-.4,.8,.31,.07,.56,.12,.76,.17,.64,1.66,1.27,3.31,1.91,4.96-.16,.27-.32,.54-.52,.88,.31,.06,.55,.11,.84,.17,.25,.76,.52,1.56,.78,2.36-.19,.2-.37,.4-.6,.64,.34,.12,.66,.23,.97,.33,.63,2.1,.84,4.35,2.16,5.97,.29,2,.54,3.82,.82,5.74,.42,.43,.94,.94,1.49,1.49,.01,.22,.06,.49,.04,.75-.21,3.04,.97,6,.55,9.05,1.05,2.96,.4,6.03,.53,9.05,.1,2.27,.02,4.54,.02,6.9-.29,.1-.6,.2-1.07,.36,.19,.27,.36,.5,.6,.83-.13,.25-.28,.55-.49,.96,.09,.15,.26,.41,.53,.85-.36,.41-.76,.86-1.24,1.38,.17,.83,.82,2.03,.46,2.6-.62,.98-.18,1.93-.51,2.91-.19,.05-.44,.11-.93,.24,.16,.3,.32,.59,.54,1-.15,.23-.34,.51-.54,.81,.07,.08,.17,.21,.3,.38-.3,1.25-.65,2.51-.91,3.8-.39,1.92-.44,3.95-1.99,5.45-.51,.5,.18,1.51-.74,1.87,.14,1.98-1.01,3.57-1.64,5.32-.23,.63-.5,1.25-.78,1.93-.35,.04-.78,.09-1.2,.13-.62,2.71-1.26,3.35-4.09,4.31-1.51,.51-2.99,1.12-4.46,1.67-2.09-.83-4.12-1.63-6.22-2.47-.02-1.41-1.71-1.04-2.28-1.82-.68-.93-1.95-1.12-2.3-2.18-.45-.13-.6,.69-1.1,.12-.32-.36-.83-.61-1.3-.76-.39-.12-.85-.03-1.22-.03-.12-.45-.18-.69-.28-1.08-.21,.15-.37,.27-.56,.41-1.82-.97-3.66-1.94-5.63-2.99-.11,.07-.37,.23-.77,.48-.87-.55-1.8-1.14-2.8-1.77-.25,.19-.53,.39-.8,.6-.56-.18-1.11-.4-1.69-.54-.59-.14-1.21-.14-1.79-.3-2.41-.68-4.88-1.02-7.35-1.34-.93-.12-1.81,.41-2.84,.06-.89-.31-1.98-.06-2.98-.06h-3.27c-1,0-2,.04-3-.02-.58-.03-1.15-.22-2.06-.41-.4,.21-1.15,.59-2.01,1.03-1.19-.47-2.37-.83-3.83-.14-1.19,.57-2.69,.46-4.12,.66-.08-.33-.14-.58-.24-1-3.74,1.49-7.7,.79-11.64,.98-.18-.38-.35-.75-.58-1.23-.14,.41-.25,.73-.41,1.2-2.02-.23-4.08-.47-6.28-.73-.03-.11-.08-.36-.19-.81-.68-.04-1.45-.08-2.32-.12-1.06-.93-2.19-1.92-3.84-1.55-.7-1.52-2.03-2.44-3.29-3.19-1.05-.63-1.27-1.76-2.21-2.4-.88-.59-1.12-1.64-1.44-2.66-.14-.47-.02-1.74-1.24-1.62-.28-.7-.65-1.38-.81-2.1-.14-.61-.03-1.27-.03-1.95-1.5-.99-1.02-3.03-2.57-4.26,.67-.29,1.03-.44,1.62-.69-.43-.16-.7-.25-1.03-.37-.04-.07-.19-.21-.19-.36-.02-1.27-.01-2.55-.01-3.82,0-.45,.19-1.09-.03-1.33-.86-.93-.42-1.69,0-2.59,.32-.68,.54-1.47,.53-2.22,0-.83,.31-1.51,.58-2.23,.44-1.18,.84-2.38,1.24-3.58,.21-.65,.37-1.32,.71-2.57,.14-.14,.73-.69,1.28-1.22,.31-1.87,1.36-3.3,2.7-4.62v-3.5c.39-.14,.71-.25,1.12-.39v-2.34c.08,.02,.16,.04,.24,.06,.37-.94,.73-1.88,1.13-2.89,.2-.07,.51-.18,.76-.27,.4-1.15-.3-2.3,.57-3.43,.63-.81,.92-2.04,.97-3.1,.06-1.28,1.8-1.19,1.84-2.53-.57,.23-.99,.39-1.52,.6,.03-.31,0-.46,.06-.56,.56-.89,.92-1.8,.93-2.9,0-.93,.32-1.85,.51-2.77,.19-.93-.26-1.87,.42-2.84,.55-.78,.06-3.37-.41-4.37,.36-.38,.72-.76,1.18-1.25-.21-.34-.44-.69-.59-.93,.98-3.62-.1-7.3,.59-10.77,.55-2.79,.15-5.51,.53-8.39,.25-.26,.62-.65,.98-1.04-.66-1.35-.71-2.16-.26-4.08-.18,0-.36,0-.52,0,.5-2.3,.09-4.65,.28-6.94,.35-.09,.59-.15,.84-.22,.07-.15,.21-.32,.2-.46-.11-.85-.03-1.64-.43-2.55-.55-1.23,.43-2.58,.88-3.84-.29-.12-.6-.24-.91-.37,.6-2.65,.8-3.66-.05-7.17-.12-.51-.03-1.08-.03-1.63,0-2.18,.09-4.37-.03-6.54-.08-1.47-.77-2.89-.5-4.41,.07-.4,.31-.78,.54-1.34-.35-.74-1.11-1.68,.04-2.62-1.33-1.92-.31-4.13-.85-6.21-.51-1.95-.23-4.1-.29-6.17-1.51-1.83,.42-4.27-1.07-6.08,.21-.72,.43-1.43,.66-2.23-.47-.1-.72-.15-1.09-.22,.3-.96,.89-1.96-.1-2.97-.27-.28-.27-1.28,0-1.55,.87-.88,.33-1.88,.51-2.76l-1.06-1.06v-3.2c-.41-.47-.81-.93-1.28-1.46,.25-.33,.46-.6,.71-.93-.17-.49-.48-1.04-.55-1.61-.24-1.92,.47-3.93-.56-5.77,.71-1.12-.27-2.23-.04-3.37,.08-.43-.29-.94-.49-1.51,.85-.89,.84-2.27,.44-3.18-.7-1.6-.31-3.16-.44-4.72-.08-.9-.06-1.82,0-2.72,.03-.4,.31-.77,.42-1.02-1.1-5.04-.15-9.87,.38-14.88-.1-.05-.47-.22-.97-.46,.25-.4,.47-.76,.78-1.25-.18-.29-.4-.64-.66-1.05,.8-1.39,.82-2.85,.18-4.34,.25-.06,.49-.13,.76-.2,0-.12,.05-.28,0-.38-.72-1.2-1.28-2.27-.45-3.82,.38-.71,.47-2.06-.34-3.05-.27-.34-.1-1.04-.14-1.7,.38-.29,.8-.62,1.36-1.05-.53-.18-.84-.29-1.36-.46,.31-1.94-.46-3.99,.46-5.96-.67-1.94-.67-3.86,.12-6.02-.08-.1-.43-.34-.47-.63-.1-.71,.02-1.45-.08-2.16-.09-.66-.25-1.35-.55-1.95-.34-.68,.9-1.04,.2-1.84-.32-.37-.15-1.2-.17-1.81-.02-.73,.04-1.46-.02-2.18-.09-1.12,.26-2.24-.46-3.37-.31-.48,.17-1.46,.34-2.52-.03-.06-.23-.42-.49-.9,.19-.25,.39-.52,.62-.82-.25-.76-.51-1.56-.78-2.36-.11-.32-.37-.69-.29-.95,.37-1.23,.78-2.29,.13-3.71-.51-1.13-.1-2.67-.18-4.02-.02-.39-.34-.76-.5-1.09,.19-.61,.54-1.19,.5-1.73-.2-2.31-.52-4.61-.81-7,.07-.01,.31-.06,.73-.15,.03-.24,.19-.61,.1-.9-.63-2.08-1.26-4.18-1.04-6.37,.14-1.38-.3-2.64-.7-3.83-.23-.68-.42-1.31-.42-2,0-2.4-.81-5.9-2.16-8.65-.44-.89-1.25-1.67-1.14-2.81,.01-.14-.3-.34-.49-.46-.91-.54-1.15-1.38-1.13-2.11-1.02-1.54-1.74-3.08-2.86-4.22-1.12-1.14-2.31-2.21-3.39-3.42-1.09-1.21-3.02-1.41-4.06-3.26,0-.09-.04-.52-.07-.95-.37-.19-.74-.54-1.12-.55-1.56-.05-2.64-1.14-3.95-1.68-.74-.31-.78-1.29-1.33-1.22-1.02,.14-1.02-.85-1.46-1.04-1.01-.43-1.73-1.34-2.94-1.49-.86-.11-1.79-.4-2.51-1.23-.47-.54-1.56-.53-2.34-.83-2.19-.85-4.37-1.72-6.47-2.56-.16-.45-.27-.77-.39-1.12-.99,1.18-2.28,.16-3.34,.75-.14-.41-.23-.65-.4-1.13-.23-.03-.65-.03-1.02-.16-.39-.13-.75-.38-1.09-.57-.34,.22-.63,.4-1.04,.67-2.83-2.19-6.23-1.67-9.53-1.72-.85-.94-1.93-1.24-3.11-1.07-1.1,.16-2.05-.33-3.05-.58-2.27-.56-4.67-.48-6.89-1.14-1.49-.45-2.94-.41-4.41-.5-.33-.33-.65-.65-.98-.98-.35,.17-.7,.34-1.19,.58-.14-.38-.25-.67-.45-1.22-.37,0-.91,.08-1.39-.02-.48-.11-.91-.41-1.32-.6-.28,.27-.48,.45-.78,.72-1.32-.72-2.66-1.58-4.36-1.13-.08-.39-.13-.64-.19-.91-1.57-.75-3.43-.7-5-1.67-.61-.37-1.55-.21-2.43-.3-.05-.17-.12-.41-.27-.89-.81-.05-1.75-.1-2.78-.16-1.02-.58-2.11-1.2-3.6-2.04,.05,.1-.13-.27-.35-.75-.48,.24-.93,.46-1.49,.74-.67-.6-1.31-1.18-2.43-1.26-1.19-.08-2.32-.92-3.5-1.35-.79-.29-1.44-.88-2.42-.78-1.06,.11-1.47-1.49-2.78-1.21-.49,.1-1.09-.36-1.67-.57-.05-.2-.12-.45-.21-.8h-1.78c-.12-1.14-1.12-1.56-1.75-1.67-2.37-.41-4.1-2.09-6.18-2.88-2.31-.88-3.27-3.45-5.78-3.86-.34-.05-.35-.97-1.11-1.15-.29-.07-.42-1.02-1.14-1.04-.27-1.25-1.41-1.61-2.22-2.34-1.05-.95-1.69-2.34-1.81-3.97h-1.24c-.22-.46-.4-.84-.57-1.2h-.84c-.25-1.17-.44-2.24-1.86-2.79-1.16-.45-1.7-1.83-1.96-3.53-1.39-1.07-2.28-2.55-3.1-4.11-.19-.37,.06-1.15-.88-1.09-.24,.02-.5-.79-.81-1.17-.35-.42-.76-.78-1.15-1.16-.16-1.21,.15-2.65-1.51-3.14-.27-.98-1.49-1.88-.24-2.9-.56-.34-1.06-.65-1.53-.94-.04-.72-.07-1.33-.11-1.96-.31-.07-.56-.12-.78-.16-.53-1.43-1.06-2.85-1.59-4.27-.23-.05-.48-.1-.78-.17v-2.58c-.61-.89-1.14-1.67-1.7-2.5,0-1.04,.43-2.44-.09-3.15-1.24-1.7-1.47-3.79-2.46-5.45-.3-1.6-.28-3.28-.97-4.6-.75-1.43,.52-3.11-.91-4.35,.52-1.16,1.05-2.32,.2-3.65-.29-.46-.19-1.23-.12-1.84,.09-.75,.48-1.49,.48-2.23,0-.74-.38-1.48-.47-2.23-.03-.28,.28-.6,.42-.87-.13-.25-.38-.54-.44-.85-.19-1.07,.61-2.16,.41-3.02-.23-1.03-.68-2.12-.37-3.05,.7-2.1,.34-4.23,.51-6.33,.09-1.1,.42-2.18,.68-3.25,.08-.32,.4-.64,.37-.93-.39-3.5,.86-6.91,.54-10.46,.53-.37,1.06-.73,1.68-1.16-.34-.07-.58-.12-1.03-.21,.02-.92-.31-1.84,.35-2.91,.5-.82-.2-2.11,.67-2.97-.9-1.39-.61-2.86-.35-4.33,.11-.59,.26-1.17,.33-1.77,.12-1.03-.3-2.12,.53-3.07,.18-.21,.11-.73,.01-1.06-.89-3.04,.29-6.05,.06-9.09-.23-3.07-.15-6.18,0-9.26,.07-1.6,.58-3.17,.93-4.94-1.08-1.94-.3-3.96,.43-5.92-.11-.76-.25-1.49-.3-2.23-.05-.72-.3-1.69,.05-2.13,.69-.84-.27-1.35-.1-2.06,.17-.69,.04-1.44,.04-2.17v-2.52c.29-.1,.61-.21,.92-.31-.74-1.86-.2-3.79-.39-5.61,.39-.39,.71-.71,1.15-1.16-.34-.12-.62-.21-.97-.33-.85-1.27,.52-2.39,.43-3.7-.08-1.27,.3-2.57,.49-3.86,.18-1.2,.36-2.39,.55-3.59,.2-1.28,.42-2.55,.63-3.83,.32-.32,.64-.64,1.03-1.03-.4-2.81,1.16-5.23,1.87-7.85,.42-1.54,1.01-3.04,1.72-5.12,.15-.12,.78-.63,1.31-1.06v-1.88c.25-.07,.5-.13,.79-.21,.32-.86,.66-1.79,.96-2.58,.43-.12,.68-.19,.9-.25,.04-.5,.08-.93,.11-1.33,.4-.14,.71-.25,1.02-.35v-1.26c.48-.09,.97-.18,1.58-.29,.02-.4,.02-.84,.09-1.26,.02-.15,.23-.27,.37-.39,.73-.59,1.47-1.17,2.28-1.81v-.88c.85-1.39,2.3-2.07,3.24-3.31,.89-1.17,2.13-2.06,3.37-3.22v-.9c1.02-.13,2.19-.13,2.23-1.57,1.07-.32,1.8-1,2.56-1.76,.68-.68,1.73-.98,2.77-1.53,0-.01,.07-.26,.16-.6h1.47c2.47-1.42,4.81-1.86,7.27-1.73,.98-.71,1.95-1.42,2.93-2.13,.16,.32,.32,.66,.58,1.19,.1-.45,.16-.69,.23-.98,.09-.06,.22-.23,.36-.25,1.29-.14,2.59,.19,3.89-.49,.72-.37,1.82-.21,2.67,.32,.07-.25,.13-.5,.24-.94h1.51c.28,.35,.56,.71,.82,1.02,.36-.54,.73-1.1,.97-1.45,7.47-.66,14.49,.83,21.57,1.7,.06,.25,.13,.49,.24,.9,1.11,0,2.36-.28,3.4,.07,1.12,.38,2.2,.44,2.99,.46,2.12,1.03,3.84,2.15,5.98,2.21,.47,.01,1.23,.24,1.35,.56,.74,2.02,2.47,1.48,3.61,1.59,.98,.67,1.76,1.62,2.39,1.54,1.19-.16,.59,1.79,2,1.3,.61-.21,1.53,.71,1.97,1.54,1.13-.42,1.47,.81,2.27,1.1,.73,.27,1.42,.66,2.05,.95,.26-.18,.39-.27,.72-.5-.13,1.07,.5,1.37,1.25,1.76,.99,.51,1.93,1.22,2.68,2.04,.92,1,2.24,1.57,2.91,2.81,.06,.11,.52,.02,.79,.02,.24,.63,.49,1.26,.71,1.84,1.05,.59,2.39,1,3.17,1.9,.81,.94,2.03,1.46,2.59,2.61-.13,.13-.26,.26-.47,.47,.86,.3,1.68,.59,2.48,.87,.48,.92,.95,1.82,1.4,2.66h1.32c1.1,1.51,2.86,2.41,3.98,3.98,.27,.38,.87,.51,1.29,.79,.7,.48,1.88,.3,2.08,1.5,.16,.95,1.79,.43,1.72,1.71-.01,.24,.5,.75,.73,.72,1.22-.13,1.64,.56,2.12,1.52,.23,.45,1.17,.55,1.79,.81,1.06,2.62,3.36,4.01,5.54,5.48,.05,.48,.1,.91,.14,1.3,.41,.22,.87,.33,1.14,.63,.82,.91,1.39,2.16,2.38,2.77,1.02,.63,1.28,1.77,2.21,2.39,.25,.17,.19,.81,.3,1.43,.32,.03,.74,.07,1.38,.12-.11,1.44,2.13,1.69,1.79,3.47,.93,.44,2.03,.79,1.58,2.22,1.17,.35,1.97,.93,1.73,2.04,.67,.52,1.28,.88,1.73,1.38,.64,.7,1.38,1.43,1.71,2.28,.94,2.38,2.91,4.19,3.61,6.69,1.91,1.74,1.9,4.54,3.52,6.47,.38,.46,.22,1.34,.44,1.99,.61,1.85,1.28,3.67,2.51,5.26-.15,.26-.31,.54-.46,.81,1,1.17,1.91,2.32,2.24,3.95,.26,1.29,.95,2.52,1.6,3.68,.62,1.11,.29,2.66,1.87,3.18-.36,.49-.51,.7-.69,.94,.04,.08,.06,.26,.16,.32,.42,.28,1.28,.61,1.25,.77-.27,1.27,1.01,1.59,1.46,2.38,.5,.88,1.08,1.71,1.49,2.67,.17,.39,.58,.87,.95,.94,1.3,.24,1.14,2.19,2.68,2.07,.05,.48,.09,.91,.14,1.34,.8,.26,1.6,.52,2.52,.82,.08,.43,.17,.93,.29,1.57,.74,.4,1.56,.85,2.49,1.35,.21,.47,.48,1.08,.8,1.82h.84c.75,.73,1.2,1.36,1.81,1.71,.59,.34,.46,1.58,1.68,1.19,.42-.13,.43,1.25,1.34,1.13,.23,1.25,1.44,1.21,2.28,1.72,.04,.41,.09,.84,.14,1.26,1.65,.37,3.21,.82,3.87,2.73,.68,.49,1.93,.35,2.19,1.64,.06,.28,.49,.68,.76,.69,1.79,.05,2.57,1.68,3.9,2.44,.66,.38,1.06,1.22,1.57,1.86,.12-.12,.25-.25,.38-.38,2.31,1.69,4.11,3.98,6.62,5.47,.75,.44,1.08,1.54,1.75,2.18,1.26,1.21,2.54,2.47,4,3.4,.92,.58,1.49,1.26,2.09,2.12,.87,1.24,1.73,2.45,3.12,3.4,1.34,.92,2.26,2.62,3.5,3.84v1.16c1.34,.45,2.35,1.39,3.47,2.2,1.08,.78,2.14,1.43,2.67,2.86,.37,.02,.8,.04,1.28,.07,1.32,1.78,2.68,3.59,3.99,5.42,.13,.18,.02,.53,.02,.63,.75,.62,1.61,1.06,2.02,1.76,.48,.8,.11,2.21,1.31,2.48,1.1,.25,.71,1.87,1.95,1.79,.3,.79,.59,1.57,.94,2.49,.44,.21,1.04,.5,1.8,.85,.7,1.09,.85,2.9,2.57,3.17,1.28,1.85,1.76,4.1,4.05,5.09,.04,.32,.09,.75,.12,.98,.97,1.15,2.1,2.05,2.61,3.22,.51,1.17,1.95,1.87,1.71,3.38,1.91,.66,1.39,3.31,3.26,4.03,.14,.05,.14,.46,.21,.68h.89Zm-92.86-99.27h-.18v.55h.18v-.55Z"/>
  <path class="cls-2" d="M514.65,118.36c-.92,.11-1.81,.26-2.18,1.3-1.62,.26-2.62,1.79-4.32,2.01-1.41,.19-2.8,.67-4.16,1.12-.39,.13-.65,.61-.97,.93-4.59,.45-9.17,1.04-13.6,1.85-.45-.45-.77-.77-.96-.96-.94,.11-1.76,.28-2.59,.28-3.12,0-6.17,.79-9.32,.65-.83-.04-1.8,.56-2.77,.44-.31-.04-.59-.31-.71-.37-1.37,.17-2.47,1.21-3.87,.47-1.22,.77-2.42,.68-3.53-.11-2.01,.88-3.95,.73-6.32,.17-.7,.2-1.83,.52-3.13,.88-2.22-.73-4.68-1.24-7.31-.98-.12-.34-.22-.66-.41-1.21-.69,.18-1.4,.37-2.34,.62-.14-.34-.36-.86-.49-1.19-3.96,.55-6.58-1.65-9.53-2.84v-1.35c-.41-.03-.84-.07-1.25-.1-.85-.69-1.7-1.39-2.55-2.09-.88-.73-1.31-1.76-1.9-2.7-.6-.96-1.05-1.91-1.48-2.94-.4-.95-1.06-1.9-1.26-3.05,.05-.02,.37-.13,.71-.25-.05-.13-.08-.36-.14-.36-1.91-.18-1.24-2.03-1.87-3.02-.33-.52-.06-1.42-.06-2.16-.36-.38-.88-.72-1.06-1.18-.31-.79-.49-1.65-.56-2.49-.09-1.17,.01-2.36-.04-3.54-.03-.68,.05-1.31-.35-2.04-.41-.75-.48-1.84,.27-2.74,.41-.49,.54-1.22,.8-1.84,.32-.11,.63-.22,1.07-.36-.18-.61-.34-1.17-.56-1.96,1.55-2.52,3.23-5.27,4.94-8.01,.1-.16,.47-.15,.81-.24,.09-1.38,.72-2.42,2.27-2.81,.02-.33,.04-.67,.07-1.14,1.24-.86,2.55-1.76,4.08-2.82,2.13-2.59,5.04-4.28,8.9-4.8,.2-.18,.55-.76,1.01-.85,2.75-.55,5.3-1.82,8.24-2.39,.16-.16,.48-.48,.86-.86h2.27c.24-.37,.54-.82,.64-.98,1.1-.34,2.03,.2,2.56-.66,.36,.2,.72,.4,1.15,.64,.16-.46,.27-.78,.41-1.17h1.82c.2-.35,.47-.82,.74-1.29,2.39,.78,3.32-2.05,5.36-1.54,.11-.43,.17-.67,.2-.82,1.22-.53,2.37-1.03,3.68-1.59,.02-.27,.05-.7,.08-1.14,1.11-.6,2.92-2.11,3.59-3.05,.85-1.19,1.62-2.44,2.53-3.58,.5-.64,.76-1.27,1.03-2.04,.44-1.25,1.38-2.36,2.24-3.42,1.25-1.55,2.49-3.12,2.81-5.1,.16-1.01,1.34-.81,1.46-1.84,.1-.86,.64-1.88,1.32-2.38,.7-.52,.39-1.9,1.65-1.77,.54-.97,.93-1.99,1.68-2.87,.44-.51,.24-1.53,1.02-2.01,.58-.36,1.15-.73,1.8-1.15v-1.44c.76-.07,1.44-.14,2.1-.2,.53-1.77,.78-3.72,3.33-3.8v-1.41c.58-.09,1.07-.17,1.55-.25,.9-1.06,1.8-2.12,2.72-3.2h.93c1.06-.66,1.49-2.01,2.76-2.14,1.18-.13,1.31-1.53,2.53-1.75,1-.18,1.86-1.1,2.77-1.68,.33,.29,.53,.46,.72,.64,.52-.64,1.04-1.29,1.75-2.18h2.53c-.35-.4-.52-.59-.81-.91,.76-.08,1.44-.16,2.17-.24,.05-.25,.1-.49,.16-.76,.86-.22,1.76-.45,2.84-.72,.19,.11,.55,.32,.92,.53,.81-.55,1.57-1.12,2.38-1.58,.73-.42,1.53-.72,2.58-1.2,1.55-.1,3.58,.47,5.3-1.22,.92,.97,1.95,.95,2.87,0,.33,.28,.53,.45,.73,.62,1.04-.86,2.25-1.06,3.6-1.07,1.47,0,2.93-.4,4.41-.47,.74-.04,1.5,.25,2.37,.42,.14-.09,.43-.27,.89-.57,.41,.37,.85,.77,1.36,1.22,.1-.31,.21-.62,.31-.93,1.15-.79,2.45,1.36,3.59-.24,.68,.35,1.36,.7,1.81,.93,.72-.12,1.3-.36,1.85-.29,1.54,.18,3.06,.48,4.59,.75,.24,.04,.48,.33,.68,.3,1.8-.31,3.45,.54,5.19,.66,.32,.32,.64,.64,.98,.98h2.14c.49,1.63,2.51,1.34,3.23,2.65,1.65-.25,1.87,2.16,3.54,1.7,.07,.62,.12,1.05,.12,1.09,2.29,2.29,4.35,4.35,6.52,6.52v.94c.3,.1,.61,.21,1.02,.35v1.89c.58,.1,1.08,.18,1.72,.28-.19,.25-.32,.42-.52,.69,2.09,.46,1.66,2.97,3.39,3.85-.22,.41-.38,.7-.55,1,1.03,.81,2.05,1.72,2.63,3.13-.18,.25-.37,.51-.61,.83,.42,.28,.84,.57,1.63,1.09,.11,.4,.09,1.64,.61,1.92,1.38,.77,1.49,2.5,2.88,3.2,.92,.46,1.71,1.19,2.49,1.88,.37,.32,.57,.84,.89,1.33h1.1c.1,.29,.21,.59,.34,.93,1.35,.72,3.55,.12,3.96,2.53,.6-.3,1.05-.52,1.64-.81,.31,.44,.63,.88,.85,1.2,2.58-.19,4.48,1.11,6.52,1.92,1.33,.53,2.62,1.12,3.92,1.73,1.29,.61,2.71,1.15,3.81,1.92,1.47,1.03,3.77,1.2,4.16,3.58,.79,.08,1.47,.14,1.83,.18,1.61,1.78,3.96,2.29,5.07,4.28h.95c.14,.08,.28,.11,.28,.16,.04,1.17,1.53,1.21,1.73,1.96,.39,1.45,1.47,2.37,2.3,3.4,1.46,1.8,1.88,3.98,2.62,6.02,.37,1.01,.95,2.09,.61,3.3-.26,.92,.42,1.78,.07,2.84-.36,1.06-.07,2.34-.08,3.52-.01,1.52-.97,4.64-1.85,6.05-.09,.15-.32,.27-.32,.41,.02,2.18-1.55,3.55-2.55,5.22-.21,.35-.17,.84-.28,1.42-2.29,1.57-3.57,4.32-5.89,6.08-.36,.27-.45,.88-.76,1.54-.61,.48-1.93,.46-2.24,1.74-1.31,.18-1.7,1.5-2.8,2.14-.35,.05-.84,.12-1.28,.19-.03,.37-.04,.55-.06,.76-.69,.57-1.85-.29-2.41,.74-.94-.23-1.5,.35-2.04,.96-1.2,.14-2.39,.28-4.13,.49,.02,0-.65-.47-1.08-.31-2.43,.94-4.81,.55-7.2-.05-1.35-.08-1.58-1.54-2.47-2.17-.21,.21-.34,.34-.57,.57-.37-.58-.72-1.12-.97-1.51-1.27-.3-2.43-.57-3.55-.84-.07-.34-.12-.59-.17-.82-1.43-.38-2.97-.51-3.41-2.31-.2,.18-.39,.35-.62,.56-.55-1.45-2.23-1.09-3.24-2.05-.87-.83-2.55-.59-3.81-1.2-1.12-.54-2.42-.69-3.63-1.01-.58,.16-1.21,.33-1.82,.5-.23-.53-.38-.89-.64-1.5-.63,.57-1.08,.98-1.46,1.32-.41-.15-.79-.33-1.18-.44-1.36-.39-2.54,.51-3.85,.57-1.23,.05-2.55,.11-3.65,.59-.78,.35-1.49,.38-2.26,.49-.75,.11-1.48,.47-2.23,.5-1.98,.09-3.77,.75-5.59,1.58-.08-.51-.15-1.01-.27-1.81-.41,1.46-1.73,1.57-2.3,2.41-1.44,.12-2.79,.04-4.21,.47-1.4,.43-3.04,.09-4.56,.09-1.08,1.55-3.02,.57-4.3,1.57-.28,.22-.88,.11-1.32,.04-.35-.06-.68-.29-1.03-.45-.09,.36-.15,.61-.23,.85-.02,.07-.13,.11-.2,.16-3.27-.3-5.86,1.55-9.29,2.72h-1.8c-.22,.3-.54,.74-.88,1.22h-1.8c-.38,1.68-1.98,1.15-2.76,1.76-.09,.33-.16,.57-.25,.88-2.06-.31-3.43,.95-4.45,2.3-.49,.64-1.13,.9-1.61,1.43-.54,.6-1.07,1.3-1.76,1.65-.9,.46-1.62,1.09-2.36,1.72-.84,.71-1.69,1.41-2.55,2.12-.4,.02-.83,.05-1.05,.06-.33,.69-.55,1.14-.76,1.59Z"/>
  <path class="cls-1" d="M514.65,118.36c.22-.45,.43-.91,.76-1.59,.22-.01,.65-.04,1.05-.06,.85-.71,1.71-1.41,2.55-2.12,.75-.63,1.46-1.26,2.36-1.72,.69-.35,1.23-1.05,1.76-1.65,.48-.53,1.12-.79,1.61-1.43,1.02-1.35,2.39-2.61,4.45-2.3,.09-.3,.15-.55,.25-.88,.78-.61,2.38-.08,2.76-1.76h1.8c.34-.47,.66-.91,.88-1.22h1.8c3.42-1.17,6.02-3.02,9.29-2.72,.07-.05,.17-.1,.2-.16,.08-.24,.13-.49,.23-.85,.35,.16,.68,.39,1.03,.45,.44,.07,1.04,.18,1.32-.04,1.28-1,3.22-.02,4.3-1.57,1.52,0,3.16,.34,4.56-.09,1.42-.43,2.77-.36,4.21-.47,.57-.84,1.89-.95,2.3-2.41,.12,.79,.2,1.29,.27,1.81,1.82-.83,3.61-1.49,5.59-1.58,.75-.03,1.48-.4,2.23-.5,.77-.11,1.48-.14,2.26-.49,1.09-.49,2.41-.54,3.65-.59,1.32-.05,2.49-.96,3.85-.57,.4,.11,.78,.29,1.18,.44,.38-.34,.83-.75,1.46-1.32,.26,.61,.42,.97,.64,1.5,.61-.17,1.24-.34,1.82-.5,1.21,.32,2.51,.47,3.63,1.01,1.26,.61,2.94,.37,3.81,1.2,1.01,.96,2.69,.6,3.24,2.05,.23-.21,.42-.38,.62-.56,.44,1.8,1.98,1.94,3.41,2.31,.05,.23,.1,.48,.17,.82,1.12,.26,2.28,.54,3.55,.84,.25,.39,.6,.94,.97,1.51,.24-.24,.36-.36,.57-.57,.89,.63,1.11,2.09,2.47,2.17,0,.91,.01,1.82,0,2.72-.03,1.67,.26,3.37-.82,5.16,.53,.28,1.02,.53,1.74,.9-.9,.61-1.42,.96-2.06,1.39,.61,.12,1.15,.23,1.68,.33v.69c-.36,.17-.73,.34-1.13,.53,.23,1.06,1.25,2.04,.18,3.19-.24,.25-.18,.86-.12,1.29,.12,.84,.71,1.83,.44,2.46-.34,.78-.3,1.52-.48,2.26-.57,2.32-.53,4.76-1.43,7.03-.21,.52,.05,1.23,.1,2.07-.28,.17-.79,.47-1.46,.87,.39,.1,.68,.18,1.03,.28-.13,.43-.31,.86-.38,1.31-.07,.42-.01,.85-.01,1.22-.45,.12-.7,.18-1.14,.3,.13,.62,.26,1.25,.39,1.88,.13,1.65-1.57,2.68-1.52,4.47-.86,.45-1.68,.89-2.63,1.39,.17,1.11-.39,1.86-1.61,2.11-.03,.62-.07,1.23-.11,1.88-.5,.06-.93,.1-1.47,.16v1.39c-1.26,.74-2.49,1.46-3.74,2.19,.05,.09,.21,.36,.37,.63q-.94,1.2-3.45,1.72c-1,1.56-2.11,3.03-3.67,4.08-.33,.23-.81,.24-1.5,.43-.86,.79-1.77,1.96-3.46,2.11-.65,.06-1.23,.96-1.91,1.54h-1.61c-.31,.44-.64,.93-1,1.45-1.79,.65-3.69,1.33-5.68,2.06-.03,.15-.08,.39-.18,.84h-1.91c-.11,.44-.18,.68-.32,1.21-.29-.26-.49-.44-.71-.63-.79,.26-1.59,.53-2.36,.79-.05,.27-.11,.51-.14,.69-.67,.52-1.72-.44-2.09,.71-.27,0-.73,.1-.79-.02-.68-1.25-2-1.81-2.91-2.81-.75-.82-1.7-1.53-2.68-2.04-.76-.39-1.39-.69-1.25-1.76-.33,.23-.46,.32-.72,.5-.63-.3-1.32-.68-2.05-.95-.8-.3-1.14-1.52-2.27-1.1-.43-.83-1.35-1.75-1.97-1.54-1.41,.49-.81-1.45-2-1.3-.64,.08-1.41-.87-2.39-1.54-1.13-.1-2.87,.43-3.61-1.59-.12-.32-.88-.55-1.35-.56-2.15-.06-3.87-1.18-5.98-2.21-.79-.03-1.87-.09-2.99-.46-1.04-.35-2.3-.07-3.4-.07-.11-.41-.17-.66-.24-.9-7.08-.87-14.11-2.37-21.57-1.7-.23,.35-.6,.9-.97,1.45-.25-.31-.53-.67-.82-1.02,.25-.81,.5-1.61,.81-2.62,.05-.02,.37-.13,.75-.26,.04-.4,.08-.83,.13-1.31,.29-.11,.61-.22,1.02-.37v-1.67c2.42-1.2,2.12-4.65,4.7-5.23,.28-1.44,.31-2.8,.81-3.95,.96-2.24,1.12-4.54,1.05-6.9-.03-.95-.21-1.95,.47-2.67-.17-.73-.44-1.38-.46-2.04-.06-2.26-.02-4.53-.02-6.79Z"/>
</svg>