<?xml version="1.0" encoding="utf-8"?>
<!-- Generator: Adobe Illustrator 26.4.1, SVG Export Plug-In . SVG Version: 6.00 Build 0)  -->
<svg version="1.1" id="Layer_1" xmlns="http://www.w3.org/2000/svg" xmlns:xlink="http://www.w3.org/1999/xlink" x="0px" y="0px"
	 viewBox="0 0 1620 1080" style="enable-background:new 0 0 1620 1080;" xml:space="preserve">
<style type="text/css">
	.st0{fill:#E9C59D;}
	.st1{fill:#F9F4F0;}
	.st2{fill:#E8DCCE;}
	.st3{fill:#E8D7C5;}
	.st4{fill:#E8D8C7;}
	.st5{fill:#E8D7C4;}
	.st6{fill:#E8D9C9;}
	.st7{fill:#E8D9C8;}
	.st8{fill:#E8DACA;}
	.st9{fill:#E8D8C6;}
	.st10{fill:#806072;}
</style>
<g id="Layer_2_00000035516252989270100350000013815533959809867451_">
	<g id="_4FQ88t.tif">
		<g>
			<path class="st0" d="M691.7,280.6c12-7.4,16.1-17.3,26.6-24c6.2-8.1,24.2-14.6,32.6-20.6c8.4-1.3,15.2-8.4,24.1-7.9
				c0.1-6.4,10.7-2.3,12.8-7.3c3.9-0.1,6.5,1.3,5.6-3.8c3.7,1.9,6.5-0.9,10.6-1.2c9-5.7,23.3-7.7,36.1-14.3
				c7.4-5.6,24.2-6.3,30.4-12.7c11.8,1.4,29.2-11.4,42-10.6c15.2-7.9,35.3-11.2,52.6-16.3c11.5-5.9,26.1-6.5,37.7-12.6
				c-0.9-0.9,6-0.2,6-0.4c2-4.9,9.7-1.3,13-6.1c1.4,0,5.1,0.6,4.7-2c4.5,0.1,12.1-0.7,13.9-3.8c3.8-0.2,10.4-1.2,12-4.1
				c3.8,0.3,10.8,0.4,12.5-4.1c5.7,2.2,10.4-1.6,15.2-2.4c21-6.3,42.1-9.5,64.3-18.9c20.6-6.8,30.7-21.1,48.7-29.8
				c0.1-1.9,1.4-2.4,3.1-2.1c0-2.8,1.9-3.5,3.2-4.9c2.3,2.8,2.2-0.9,2-2.6c7.1,2.2,9.1-12,17.1-11.4c-1.2-3,2.8-2.8,1.9-5.5
				c3.8-1,2.7-7.1,8-6.6c-2-3.7,5.9-4.9,0.9-6.1c9.4-3.8,10.8-14.8,17-21.2c0.3-3.5,3.9-7,6.1-8.7c-1.5-5.4,9.4-8.6,4.6-8.6
				c68.3,0,175.4,0,228.6,0c2.7,0,13,29.7,17.2,27.9c0.1,1.5,0.2,3.6-1.8,3.4c3.9,14.5,4.5,33.7,9.1,46.3c-3.2,0.1-0.5,7.3,1.1,7.9
				c0.3,3,0.1,18.6,3.6,15.5c-1.4,16.2,7.7,31.3,8.7,48.1c5.2,20.2,13,38.9,15.7,62.7c4.9,8-2.3,21.2,5.5,30.2
				c-5.3,6.4,1.4,19.9-0.1,28.1c-0.6,14.9,0,30.2-1.5,45.1c3.5,9,0.8,19.1,2,28.6c0.6,2.4,1.1,5,1.5,7.4c1.5,0.1,2.2,0.6,1.2,2
				c-3.2-0.1-0.8,3.6-0.7,5.6c-1.9,2.7,3.8,5.6,0,9.6c1.7,4.1,0.9,5.9,3.1,10.6c-0.9,8.7,0.1,20.9,3.9,29.7
				c-1.4,4.1-1.3,12.1,2.9,14c-0.8,4.3-2,8.2,1.1,11.3c0.2,6.4,6.6,13.1,5.6,17.8c4.5,2.5,1.4,9.2,7.1,10.9c-2,2.4,2.1,3.5,2.2,6.1
				c0.4,1.9-0.7,4.7,2.1,2.4c-0.4,5.7,5.5,9,6.2,14.7c6.7,7.8,9.9,17.7,13.4,27.4c9.7,22.7,14,46.2,17,68c1.6,3.5-2.2,8.7,2.1,10.3
				c-1.7,3.9,0.8,8.9,2,12.3c-0.5,6.2-2.4,14,1.3,18.6c0,0,0,3,0,3s-2,0-2,0c0.8,7.7-1.8,14.9,0.7,21.5c-0.3,4.3-3.2,6.4-1.6,10.8
				c-3.1,2.4-1.6,2.9,1.8,3.1c-4.9,4.5-1.4,9.5-4.2,14.7c4.2,3.7-1.6,8.1,0.3,14.7c0.1,5.7-0.6,11.3,1,16.1
				c-0.7,1.8-3.2,4.1-0.1,4.1c0,0,0,8.5,0,8.5c-2.9,0.4-1,1.7,0.4,3.1c-2,12.9,1.8,23.3-0.2,35.5c-0.3,12.8-6,28.5-5.2,39.7
				c-7.6,17.6-11.8,36.9-19.2,54.8c2.5,5.7-8.2,11.2-2,13.8c-7.9,7.3-8.9,19.6-12.8,28.6c-1,4.1-7.7,6.8-1.3,8.6
				c-6.5,0.3-7.8,9.9-8.7,14.9c-3.5,0.9-5.8,5.2-1.7,6.1c-9.3,1-5.4,16.9-14.4,18.5c-0.3,1.8,0.7,1.7,2.4,2.5
				c-11.6,9.1-18.9,27.9-25.4,35.8c-9.1,10.6-19.5,24.6-26.2,34.8c-4.4,2.8-7.1,6.6-10.7,9.5c-0.7,3.1-7.3,1.5-4.1,4.9
				c0,0-2.5,0-2.5,0c-1.2,4-4.3,2.3-6.5,6.1c-4.8,2.3-11,5.8-13.5,11.2c-19.4,7.7-34.5,21.7-53.4,32.9c-48.7,0.4-321.1,3-357.8-10
				c-32.8-2.1-63.2-1.1-91.5-2.1c-4.8,3.1-10-1.1-11,3.1c-9.7-3.9-21,0.3-30.5-0.7c-3.2,2.1-5.2-1.5-8.1,0.2
				c-2.8,0.8-5.5-1.1-8.5,0.4c-26.4-0.5-55-2.3-81.5-1c-13-3.1-24.1,3.6-38.2,1c-20.2,4.3-39.9,0.8-60.4,1.9
				c-52.5-1-97.7-14.6-149.7-17.7c-16.7-0.8-35.7,0.4-51.9-4.1c-7.1,1.7-14.2-4.8-20.6-0.2c-20.2-3.2-41-4.9-58.8-8
				c-12.1,0.1-24.1-5.1-36.1-5.9c-1.9-1.3-5.9-4.7-9.1-1.8c-5.1-3.2-11.3-2.7-15.8-3.3c-2.3-4.9-17.4-0.7-17.5-6.8
				c-6.7-0.5-17.3,0.3-21.1-4.2c-4.3,2-3.6-7.1-6.2-0.8c-2.1-5.9-5.4-0.6-8.2-4.4c0-4.7-3.8-0.6-7-3c-4.2-3.6-9-6.4-14-8
				c-0.8-3.3-5.9,0-6.8-4.7c-3.6-0.1-5.4-3.2-8.8-2.8c-1-1.4-1-3.4-3.3-3.2c-6-2.3-9.3-8.9-16.1-8.1c-9.1-10.3-21.9-14.4-33-26.1
				c-4.4-0.1-3.9-8.4-9.6-4.7c-0.4-5.5-2.4-14.3,4.8-16.3c7.2-0.1,9.5-11.2,14.9-14.6c4.2-0.5,2-5.8,5.1-6.3c2.7-4.7,6.1-7.2,9.4-12
				c12.4-12,20.6-24.4,33.7-35.6c7.2-6.4,13.5-21,21.4-20.2c3.2-10.4,14.2-17.2,21.8-24.7c7.9-11.5,19.3-19.1,28-27
				c18.5-20.5,41.3-39.5,57-58.4c4.8-7.2,13-9.7,16.1-18c6.5,2,7.4-9.6,11.4-7c12.4-14.4,26.3-27.1,42.5-36.8
				c3.1-1.7,2.9-7.4,7.9-6.2c3-6.3,9.3-8.2,12.6-12.9c3-6.2,11.8-7.8,14.6-13.5c4.6-1.7,5.7-9.1,11.2-8.7c-0.5-1.8,0.3-2.8,1.7-3.3
				c20.3-28.3-17-40.2-10.9-67c1.6-18,22.7-42.5,36.8-55.8c-0.2-3.2,2.6-3.5,4.4-5.9c3-4.9,6.8-9,11.6-12.3c0.1-3.1,3.6-3.3,5.2-4.7
				c0,0,0-3.1,0-3.1c3.2-0.1,3.6-4.3,7-5.3c1.3-4.2,7.3-6.2,9.7-9.2c2.6-4.8,6.9-8.3,12-11c-3.1-3.3,5.5-5,4.3-9.5
				c8.4-4,12.4-16.2,16.9-24.3c6.6-6.5,6.9-17.4,13.9-24.3c-0.7-3.7,6.2-9.1,2.8-11.9c8.6-8.1,7.7-24.9,11.4-39.1
				c0.7-11.8,6.1-21.1,6.7-32.7c2.1-1.1,2.4-4.2,2.1-6.2c1.9-1.7,3.1-3.5,2.9-6C682,298.2,689.6,290,691.7,280.6z"/>
			<path class="st1" d="M1617,648h-2c0.2-0.4,0.4-0.8,0.7-1.5c-0.2-3.1-2.9-6.1-0.8-9.8c0.8-1.4,0.8-3.5,0.2-5.5
				c-0.5-1.8-0.1-3.9-0.1-6.2h2L1617,648L1617,648z"/>
			<path class="st2" d="M687,291c0.3-0.9,0.9-1.7,1-2.6c0.1-1.9,1.5-2.2,2.9-2.7c0.1-0.8,0.2-1.5,0.3-2.3c1-0.5,1.9-0.9,2.9-1.4
				c0.5,2,3.5,0.2,3.7,2.3c0.2,1.7,1.6,1.8,2.5,2.4c3.2,2,5.8,4.8,8.4,7.5c2.2,2.3,4.7,4.4,7.6,5.8c1.6,0.8,2,2,1.8,3.6
				c1,0.4,2.5,0.4,3,1.1c3.3,4.4,8.2,7,12,10.8c1.5,1.6,3.4,2.8,5,4.4c1.5,1.6,3.4,2.7,4.8,4.4c0.7,0.8,1.8,1.1,2.9,1.8
				c0.2,0.9,0.3,1.8,0.5,2.9c0.8,0.1,1.6,0.1,2.5,0.2c0.1,0.4,0.2,0.9,0.4,1.6c0.7,0.1,1.6,0.2,2.5,0.4c1.2,1.7,2.5,3.3,3.6,4.9h2.4
				c2.5,5.3,7.9,7.7,12.2,12c0,0.1,0.1,0.9,0.2,1.8h2.4c1.4,1.7,2.8,3.3,4.3,5.1h1.4c0.3,0.2,0.7,0.4,0.8,0.7c1.7,3,5.2,3.9,7.2,6.9
				c1.8,2.6,5.2,4.1,7.8,6.2c1.7,1.3,2.9,3.1,4.5,4.6c2,2,4.6,3.1,6.3,5.6c1,1.5,2.2,2.7,2.2,5c1.1,0,2.2,0.1,3,0.1
				c2.4,1.9,4.8,3.7,7,5.5c2.2,1.9,3.8,4.5,6.8,6v2.8c0.5,0.5,0.9,0.9,1.2,1.2c1.5-0.2,2.9-0.5,4.4-0.8c2.4,3.5,4.6,6.8,8.4,8.6
				c1.7,3.6,5.4,4.9,8.1,7.5c2.8,2.7,5.6,5.2,8.6,8h1.9c0.2,0.5,0.4,1.1,0.6,1.7c1.3,0.4,2.8,1,4.3,1.4s3.1-0.4,4.8,0.6
				c1.2,0.8,3,0.7,4.7,1.1c1.2-0.2,3.1-1.2,4.2-0.5c2.1,1.2,4.2,0.9,6.2,0.8c2.5-0.2,4.7,0.9,7.1,1.1c2.4,0.2,5-1,7.1,1
				c0.1,0.1,0.3,0,0.5,0c6.2-0.7,12.4,1.1,18.6,1c0.7,0,1.4-0.6,1.9-0.8c4.9,0.8,9.7,1.6,15.2,2.5c-0.1,0.1,0.4-0.3,0.9-0.7
				c4.5,2,9.3,0.5,13.5,1c3.2,1.9,5.8,4.3,9.5,2c0.4-0.2,1.1-0.3,1.4,0c1.7,1.2,3.7,1,5.6,1c2,0,4,0,6.1,0c0.2,0.6,0.4,1.1,0.6,1.7
				c1-0.2,2-0.7,3-0.7c4,0.3,8.1-0.6,12.1,0.8c1.9,0.7,4.5,0.8,6.5-0.9c2.8,1.1,5.5,2.4,8.7,2c3.3-0.4,6.2,1.1,10,1.7
				c0,0,1-0.8,1.7-0.6c3.2,0.6,6.3,0.7,9.5,1.4c1,0.2,2.1,0.5,3.2,0.6c1.8,0.1,3.4,0.2,5.1,0.9c2.9,1.2,5.8,2.1,9.1,2.3
				c2.8,0.2,5.7,1.6,8.7,1.9c2.1,0.2,4.2,1.2,6.2,1.9c3.4,1.3,7,1.8,10.6,2.1c1.3,0.9,2.6,1.8,4.2,2.8h5c3.6,2.1,6.7,3.9,9.8,5.7
				c0.2-0.4,0.5-1.1,0.9-1.9c2.8,0.8,4.9,2.7,7.5,3.8c2.4,1,4.7,2.3,6.8,4.2c1.8,1.6,4.3,2.8,6.4,3.6c3,1.1,5.4,4,9.2,3.4
				c2,2.6,4.9,3.8,7.8,5.1c3.9,1.8,7.7,3.9,11.7,5.6c3.8,1.6,7.3,4.1,10.8,6.4c1.6,1,3.1,2.4,5,3.9c1.7-0.3,3.1,0.7,3.5,3h2.2
				c0.2,0.5,0.4,1.1,0.5,1.3c2.1,1.1,4.3,1.8,5.8,3.2c1.6,1.5,3.4,2.2,5.2,3.1c4.1,2,8.2,4,11.4,7.3c3.7,0,5.6,2.8,8.2,4.6
				c2.2,1.1,4.3,2.8,6.6,3.3c2.9,0.5,4.4,2.5,6.3,4.2h2.1c0.2,0.6,0.4,1.2,0.5,1.5c2.2,0.7,4.2,1.3,6.3,1.9c2.7,1,5.8-0.3,8.6,1.7
				c0.4-0.3,0.9-0.7,1.5-1.1c1.7,0.4,3.7,0.6,5.3,1.4c2.1,1.1,3.7,0.2,5-0.4c1.8,0.9,3.3,1.7,5.3,2.7c-0.2,1.9-0.5,4.2-0.9,6.9
				c0.1,0.2,0.5,0.8,1.1,1.7c-1.4,0.9-2.6,1.7-4.1,2.7c-1.5-0.2-3.3-0.5-5.9-0.9c-0.1,0.1-0.8,0.8-1.5,1.4c-2.4-0.7-5.1-0.8-7-3.2
				c-0.5,1.1-0.8,1.8-1.1,2.3c-3.1-0.8-6.1-1.5-9.8-2.5c-0.9-0.8-2.7-1.1-4.6-1.5c-2.7-0.5-5.4-0.9-7.9-2.7
				c-2.4-1.7-5.3-3.2-8.6-3.2c-2.9,0-4.4-2.4-6.2-4h-1.9c-0.8-1-1.7-2.2-2.4-3h-3.7c-0.7-2.5-2.8-3.6-4.8-4.9c-2-1.3-3.7-3-6.4-3.4
				c-1.8-1.6-3.4-3.7-6.3-4.5c-2-0.6-3.7-2.5-5.9-4.2h-2.4c-0.9-3.1-4.4-3-6.3-5.1c-1.7-1.9-4.3-3-7.1-3.3c-1.3-3-4.3-3.1-7.1-4.1
				c-1-1-2.3-2.3-3.6-3.6c-3.4,0.4-5.1-4.2-8.8-2.9c-1-1.2-1.9-2.3-2.6-3.2h-3.6c-2-3.1-5.6-4-8.7-5.5c-2.1-1-3.8-2.2-5.7-3.2
				c-1.8-0.8-3.6-1.8-5.6-2.2c-3-0.6-4.7-4-8.2-3.2c-1.9-2.4-5.2-2.1-7.4-3.9c-1.7-1.4-3.7-0.8-5.8-1.1c-0.5-0.8-1.1-1.8-1.5-2.5
				c-3.4-0.8-6.8-1.5-10.3-2.3c-0.2,0.2-0.5,0.5-1.1,1c-1.8-0.9-3.8-1.9-5.7-2.9c-6.6-1-13.4-1.6-19.8-4c-2.2-0.8-4.6-0.9-7-1.3
				c-3.9-0.6-7.8-1.3-11.4-1.9c-0.3-1-0.5-1.6-0.8-2.2c-0.7,0.7-1.2,1.3-1.8,1.9c-3.3,0.9-6.5,0.1-9.5-0.9c-2.6-0.9-5.1-0.8-7.6-0.9
				c-1.2-0.1-2.4-0.5-4.1-0.8c-0.1,0.1-0.6,0.4-0.9,0.7c-2-0.3-3.9-0.5-5.7-0.8c-2.5-0.3-5-0.8-7.6-1c-2.7-0.2-5.4,0.3-8-0.1
				c-3.2-0.5-6.2-1.8-9.8-2.9c-0.5,0.5-1.3,1.2-2.1,2c-3-0.8-6-1.6-9-2.4c0-0.2,0.1-0.4,0.1-0.6c-1.7,0-3.3-0.2-5,0
				c-2.5,0.4-4.9-0.4-7-1.2c-2.5-1-4.5-1.1-6.9-0.1c-0.4,0.2-1,0.4-1.4,0.3c-2.4-1.3-5.2-0.4-7.5-1.1c-1.8-0.6-3.4-0.6-5.1-0.9
				c-1.5-0.3-2.9-1-4.5-1.7c-0.4,0.4-1.2,1.1-1.9,1.8c-3.7,0.1-7.5-2.7-11.2,0c-1-0.3-2-0.9-3.1-1c-2.5-0.1-5,0.1-7.5-0.1
				c-2-0.2-4.1,0.6-6.2-0.8c-1.6-1.1-4.2,0.8-6-1.1h-11c-3.2,3.2-6.3,6.5-9.6,9.5c-3.1,2.9-5.5,6.5-9.4,8.2
				c-0.7-0.3-1.4-0.6-2.9-1.4c0.7,1.8,1,2.7,1.4,3.8c-1.3,1.5-2.7,3.1-4.1,4.7c-1.2,1.5-2.3,3.1-3.8,4.3c-1.6,1.2-3.1,2.4-4.2,4.1
				c-1,1.7-3,2.5-4.2,4.1c-1,1.3-2.6,2.5-3.8,3.8c-1.4,1.5-2.9,2.9-4.5,4.2c-1.5,3-3.8,5.8-6.7,7.6c-2,1.2-2.8,3.6-4.7,4.8
				c-0.3,0.2-0.3,1.1-0.6,1.1c-4.6,1-6.3,5-8.3,8.5c-0.8,1.4-2.9,1-3.3,3.1c-0.2,1.2-1.9,2.3-3,3.2c-1.9,1.4-3.9,2.8-5.5,4.6
				s-3.2,3.6-4.8,5.4c-1.5,1.7-2.7,4.2-5.3,4.7c-0.1,0.8-0.2,1.6-0.3,2.6c-1.4,0.8-2.9,1.6-3.8,2.1c-1.8,2-3.2,3.5-4.6,5.1
				c-1.3,1.6-2.6,3.2-3.9,4.9h-2c-0.8,3.3-4.5,4.5-5.8,7.6c-0.7,1.7-2.6,3-4.1,4.3c-1.4,1.3-3.6,2.1-4.4,3.6
				c-0.9,1.9-2.6,2.9-3.7,4.5c-0.4,0.6-0.7,1.4-1,2h-3.3c-0.1,0.8-0.1,1.5-0.2,2.3c-0.6,0.5-1.4,0.9-1.9,1.6
				c-2.4,2.8-4.3,6.1-7.1,8.4c-1.8,1.5-3.5,3.5-5.5,4.6c-1.9,1.1-2.7,2.9-4.1,4.3c-1.4,1.3-2.4,3.2-3.7,4.4c-3,2.9-5.3,6.5-8.7,8.8
				c-1.5,1-2.1,2.6-3.4,3.6c-0.7,0.5-0.8,1.8-1.5,2.3c-1.8,1.5-3.8,2.7-5.9,4.1c0.2,0.3,0.5,0.6,0.8,1c-2.4,1.8-5.5,2.7-6.8,5.9
				c-0.4,1-1.6,1.7-2.4,2.5c-3.2,3.5-7.2,6.3-9.5,10.6c-1.2,2.3-4.2,2.2-5.3,4.7c-0.9,2-2.8,3.8-4.7,5c-2.4,1.6-3.8,4.2-5.8,6.1
				c-2.1,2-4.2,4-5.9,6.5c-1.9,2.9-5.4,4.2-8.2,5.6c-0.3,0.8-0.6,1.3-0.8,1.9c-0.7-0.3-1.1-0.5-1.8-0.8c-0.5,0.2-1.3,0.5-2.1,0.6
				c-1,0.1-2,0-1.9,0c-3-1.4-5.1-2.3-7.3-3.4c-1.7-4.7-7.1-5.3-10.2-8.8c-3-3.4-7.1-6-10.6-8.8c-2.4-0.1-3.6,1-5,2.8
				c-2.3,3-5.3,5.5-8,8.2h-2c-0.7,1.1-1.4,2.1-1.9,3c-3.7,0.1-5.4-2.4-7.6-4.4v-5c2.2-2.3,3.3-5.9,6.8-7c1.2-3.5,5.5-3.9,7-7
				c1.6-3.4,5.8-2.8,7.7-5.7c1,0.4,2,1,3,1c0.8,0,1.7-0.6,2.8-1c7.7,8.2,16.7,15,25.6,22.1c0.3,0.2,1,0,1.5,0c0-2,2.5-1.9,2.9-3.7
				c0.3-1.4,2.9-1.2,3-3.1c2.1,0.2,2-1.8,2.5-2.9c1-2.1,2.3-3.4,4.9-3.4V629c2.9-2.4,4.8-5.5,8.2-7.2c1.1-0.6,2.3-1.7,2.8-2.8
				c0.6-1.5,1.3-2.3,2.8-2.8c1-0.4,1.3-2.2,2.3-2.7c4.1-2.1,5.4-6.8,9-9.5c0.5-2.9,4-3.1,4.7-6.1c1,0.7,1.5,1.1,2.2,1.6
				c0.1-1.3,0.3-2.5,0.4-3.9c2.3-1.3,4.4-2.8,5.7-5.4c0.6-1.2,2.2-1.8,3.3-2.8c1-0.8,2.5-1.5,2.8-2.6c1.2-3.7,5.2-3.9,7.5-6.2
				c0.4-0.4,1.5-0.2,2.7-0.4c-0.4-1.1-0.8-2.1-1.3-3.2c2.2-2.1,4.5-4.2,7-6.6c1.1,0.3,2.6,0.6,4.1,1c0,0-0.1,0.1-0.2,0.1
				c0.2,0.3,0.5,0.5,0.7,0.8c0.1-0.1,0.2-0.2,0.3-0.3c-0.3-0.2-0.5-0.5-0.9-0.6c-0.4-1.3-0.8-2.7-1.1-3.9c0.2-0.5,0.3-0.8,0.5-1
				c3-2.5,6.4-4.7,7.8-8.7c0.1-0.4,1.2-0.4,1.6-0.8c1.4-1.2,2.9-2.4,4.2-3.7s2.3-2.7,3.6-4c1.4-1.5,2.8-2.8,4.2-4.3
				c0.3-0.3,0.3-0.9,0.4-1.4c3.5-0.8,5-3.8,6.9-6.4c0.7-0.9,1.3-2.2,2.2-2.5c2.8-0.8,3.1-3.3,4.2-5.3h1.8c0.3-0.3,0.6-0.4,0.8-0.7
				c0.4-0.7,0.7-1.5,1.2-2c4.2-4.5,8.5-8.9,12.8-13.4c0.4-0.4,1.2-0.6,1.5-1c0.8-1.3,1.2-2.8,3.1-3.2c1.4-0.3,2.1-2.2,3.8-2.9
				c1.3-0.6,2-2.6,3.5-4.8c2-1.3,4.2-3.7,6.3-6.4c2-2.5,5.1-4.2,7.7-6.3c-0.2-0.3-0.6-0.8-0.9-1.3c1.9-1.7,3.6-3.2,5.7-5.1
				c0.4,0,1.2-0.1,2-0.1c0.7-2,2.8-2.8,3.5-5c0.7-2.1,2.7-3.5,4.8-4.4c1.8-4,7-5,8.4-9.4c2.8-0.9,3.1-4.7,6.2-5.3
				c0.6-0.1,1-1.2,1.4-1.8c0.6-0.8,1-1.9,1.8-2.2c2.6-1,3.6-3.4,5.3-5.3c4.2-4.8,8.6-9.4,13-14.2v-2c0.5-0.2,1.1-0.4,1.8-0.6v-2.4
				c-0.2-0.1-0.5-0.4-0.7-0.4c-1.5-0.1-2.8,0.1-4-1.3c-1.3-1.5-4-1.6-4.1-4.2c-1.9-0.9-3.7-1.9-4.2-4.2c0-0.1-0.2-0.3-0.3-0.4
				c-3.5-1.4-5.2-5-8.1-6.8c-3.1-1.9-5.1-4.7-8.1-6.6c-2-1.3-3.9-2.9-5.4-4.7c-1.6-1.9-3.6-3.4-5.5-4.9c-2-1.6-3.8-3.5-5.9-5
				c-3.4-2.5-6.8-4.9-8.7-8.8c-3.5-1.4-5.2-4.9-8.2-7.1c-0.6-0.1-1.4-0.2-2.1-0.2c-0.6-1.4-1.2-2.6-1.8-4c-3-1.4-5.7-3.3-8.1-5.8
				c-1-1.1-2.6-1.6-4.3-2.6c-0.8-1.6-1.1-4-3.9-4.8c-1.7-0.5-2.2-2.4-3.3-3.7c-1.6-1.9-4.2-2.2-5.8-3.9c-0.7-0.7-1.6-1.1-2.2-1.8
				c-0.7-0.8-1.2-1.8-1.8-2.7c-0.5-0.9-2.6-0.2-2.1-2.1c-3.3-1.4-5.1-4.5-7.8-6.7c-0.2-0.9-0.3-1.8-0.5-2.9
				c-0.7,0.5-1.2,0.9-1.7,1.3c-1.7-1.4-3.3-2.6-5.1-4v-1.7c-0.3-0.2-0.6-0.5-0.8-0.5c-2.5,0.1-4.7-1.2-5.6-3.2c-0.9-2-2.6-2.5-4-3.8
				c-1.1-1-2.4-1.5-3.3-3c-1.6-2.9-4.5-4.9-7-6.9c-2.6-2-4.6-4.3-6.5-7h-3.3c-2.1-3-3.8-6.1-7.4-7.5c-1.7-0.7-0.8-2.4-1.4-3.5
				c-0.8-0.1-1.6-0.2-2.7-0.3L687,291L687,291z M843.9,417c-2.2-0.1-2.2,0.7-1.5,2.1c0.5-0.1,1-0.2,1.5-0.3V417z"/>
			<path class="st3" d="M1400.7,500h3.1v4.5c-1.6,2.3-5.7,1.7-7.3,5.3c-1.3,0.6-3.2,1.4-5,2.2c-0.2,2.7-3.2,1.4-4,2.9
				c-1.9-0.5-3.7-0.9-6.2-1.5c2.1-1.7,3.7-3.5,5.7-4.3c2.8-1.1,5.1-2.9,7.6-4.4C1396.8,503.5,1398.7,501.6,1400.7,500L1400.7,500z"
				/>
			<path class="st4" d="M1450.9,471.1v2.8c-0.8,0.4-1.8,0.6-2.5,1.2c-0.9,0.9-2.6,0.9-2.9,2.7c-0.1,0.6-1.7,1-2.8,1.3
				c-3.1,3-6.3,5.7-10.6,7c-1.3-1.2-2-2.6-2.1-4.1c4.4-2.9,8.9-5.5,12.9-8.6C1445.3,471.6,1447.7,470.7,1450.9,471.1L1450.9,471.1z"
				/>
			<path class="st4" d="M1460.9,467.7c-1,1-2.5,2.3-4.4,4.1c-0.3-1.5-0.5-2.3-0.7-3.3c-0.6-0.3-1.3-0.8-2.5-1.4
				c3.4-2.3,6.5-4,9.3-6.2c2.7-2.2,6.5-2.7,8.7-5.7h3.5c0.1,0.5,0.3,1,0.2,1.4c-0.3,1-0.7,2-1.2,3.3h-3
				C1468.7,463.7,1465.6,465.9,1460.9,467.7L1460.9,467.7z"/>
			<path class="st4" d="M576.3,651h4.5c0.1,0.7,0.2,1.5,0.2,2.4c-2.7,2.7-5.2,5.6-8.1,8c-2.8,2.3-4.7,5.5-7.7,7.6h-1.7
				c-0.5-1-1.1-2-1.8-3.4C567,661,571.8,656.1,576.3,651L576.3,651z"/>
			<path class="st4" d="M535,699v1c-3,2.8-5.9,5.4-8.7,8c-1.4-0.5-2.9-1-4.6-1.6c1.2-1.4,2.4-2.7,3.4-4s2.7-1.6,3.6-3.4
				c0.8-1.7,2.7-2.8,4.1-4.3c1.2-1.3,2.4-2.7,3.8-4.1c1.7,0.7,3.1,1.2,5.2,2C539.3,694.8,537.3,696.7,535,699L535,699z"/>
			<path class="st5" d="M1410.4,501c-0.8,0-1.6-0.1-2.8-0.1c0.6-1.4,1.1-2.3,1.5-3.2c-0.4-0.4-0.6-0.6-1.1-1.1
				c4.2-4.5,10.7-5.9,14.8-10.8c0.7,0.5,1.4,1,2.1,1.6v4.6c-2.4,1.4-5,2.9-7.6,4.1C1414.4,497.1,1412.5,499.2,1410.4,501L1410.4,501
				z"/>
			<path class="st6" d="M506.6,728.2c-3-1-2.5-3-2.6-4.8c2.3-2.3,4.4-5,7.1-6.9c2.6-1.9,3.8-5,7-6.7c0.4,0.3,1,0.7,1.6,1.1
				c-0.3,1.5-0.6,3-0.9,4.7c-1.2,1.2-2.8,2.5-3.9,4c-1.2,1.6-3.2,2.2-4.3,4.1C509.6,725.5,507.9,726.8,506.6,728.2L506.6,728.2z"/>
			<path class="st4" d="M1527.1,426.5c-1.1-1-1.7-1.8-2.4-2.4c-0.5-0.4-1.2-0.5-2.2-1c1.7-1.3,2.9-2.2,4.5-3.4h4
				c-0.4-0.7-0.7-1.2-1.1-1.9c1.8-3.7,6.6-3.2,8.8-6.2c1.3,0.6,2.3,1.1,3.3,1.6v3c-3.3,2-6.7,4.2-10.1,6.2c-0.9,0.5-2.2,0.5-3,1.1
				C1528.2,424.2,1527.8,425.2,1527.1,426.5L1527.1,426.5z"/>
			<path class="st7" d="M1482.5,454.4c-0.3-0.8-0.7-1.5-1.2-2.8c0.1-0.5,0.6-1.8,0.9-3c4.6-3,9.2-6,14.4-9.3
				c0.7,2.5,1.2,4.3,1.7,6.2C1492,447,1487.8,451.1,1482.5,454.4L1482.5,454.4z"/>
			<path class="st4" d="M546.2,688.3c-1.1-0.5-2.2-1-3.3-1.5c0.5-1.6,1-3,1.4-4.5c2.3-0.8,3.8-3.1,5.6-4.8s3.5-3.5,5.4-5.4h3.2
				c-0.2,0.1-0.3,0.3-0.5,0.4c0.8,0.3,1.6,0.6,2.1,0.9c-0.3,0.8-0.4,1.2-0.6,1.4c-2.8,2.5-5.4,5.1-8.4,7.3
				C549.1,683.8,547.7,685.8,546.2,688.3L546.2,688.3z"/>
			<path class="st8" d="M1514.7,429c0.3-0.9,0.5-1.4,0.7-2.1c0.5,0.1,1,0.1,1.5,0.2c-0.3,0.6-0.5,1-0.8,1.6c1,0.1,1.9,0.3,3,0.5
				c-0.8,3.9-5.8,3.2-6.6,6.7c-3.5,0.1-5.5,3.5-9.1,4.1c-0.2-0.5-0.4-1-0.8-1.8c-0.6-0.1-1.5-0.3-2.5-0.5c0.1-0.2,0.1-0.7,0.2-0.7
				c1.7-0.1,2.5-1.2,2.8-3c2.8,0.8,3.6-2.9,5.5-2.9C1511.3,431.2,1512.1,427.6,1514.7,429L1514.7,429z"/>
			<path class="st9" d="M1342.9,543.5c-1.9,0.7-3,1.1-4.4,1.6c-0.5-1-1.1-2.1-1.7-3.2c1.1-0.9,2.2-1.7,3.3-2.5
				c1.1-0.8,2.3-1.6,3.5-2.3c1.2-0.8,2.8-0.5,3.5-2.5c0.3-0.8,2.4-1,3.7-1.5c1.3-0.5,2.4-1.6,4-0.8c-0.3,1.5-0.5,2.8-1,4.1
				c-0.3,0.7-1.1,1.7-1.6,1.6c-2.9-0.3-4,2.9-6.7,3.2C1344.4,541.3,1343.4,543,1342.9,543.5L1342.9,543.5z"/>
			<path class="st9" d="M1368.4,527.1c-0.6-1.6-1.1-3-1.7-4.7c3.6-2.3,7-4.4,10.3-6.5c2.1-0.1,3.1,0.8,3,3.1
				c-0.8,2.6-3.9,2.9-5.5,4.8C1373,525.8,1370,525,1368.4,527.1L1368.4,527.1z"/>
			<path class="st4" d="M489,739c1.1-1.7,2.2-3.4,3.3-5h1.9c1.1-1.5,2.2-2.8,3.1-4c1.9-0.3,3.1,0.3,3.7,1.9c0,1.4-3.2,3.8-5.9,4.4
				c0.2,2.3-1.1,3.8-3.1,4.7C491,740.3,490,739.7,489,739L489,739z"/>
			<path class="st5" d="M489,739c1,0.7,2,1.3,3,2c-1.6,2.3-3.3,4.6-4.9,6.9h-3.7c-0.5-1-1-2.1-1.5-3
				C484.4,742.8,486.7,740.9,489,739L489,739z"/>
			<path class="st9" d="M1360.2,526.4c1.9-0.9,3.5-1.7,5.6-2.7c0.1,1.7,0.2,3.2,0.3,4.5c-1.3,2.4-3.5,3.1-5.9,4.2V526.4z"/>
			<path class="st0" d="M843.9,417v1.8c-0.5,0.1-1,0.2-1.5,0.3C841.7,417.7,841.7,416.9,843.9,417z"/>
			<path class="st0" d="M713.1,569.9c0.3,0.2,0.5,0.5,0.8,0.7c-0.1,0.1-0.2,0.2-0.3,0.3c-0.2-0.3-0.5-0.5-0.7-0.8
				C713,570,713,570,713.1,569.9z"/>
		</g>
	</g>
</g>
<g id="Layer_1_00000052813115178088134000000004748818521319791245_">
	<g>
		<path class="st10" d="M990.7,442c0.2-0.9,0.3-1.6,0.5-2.2l1.1,0.3l-0.3,1.4h0.1c0.5-0.9,1.5-1.3,2.4-1.1c0.2,0,0.2,0.1,0.4,0.1
			l-0.3,1.2c-0.1-0.1-0.3-0.1-0.4-0.1c-0.9-0.2-1.7,0.3-2.1,1.3c-0.1,0.2-0.2,0.4-0.2,0.6l-0.9,3.8l-1.3-0.3L990.7,442L990.7,442z"
			/>
		<path class="st10" d="M1000.8,447.5c-0.2,0.7-0.3,1.4-0.4,2l-1.2-0.3l0.2-1.2l0,0c-0.5,0.5-1.4,1.1-2.7,0.8
			c-1.1-0.3-2.3-1.2-1.8-3.7l1-4.2l1.3,0.3l-0.9,4c-0.3,1.4-0.1,2.4,1.1,2.7c0.9,0.2,1.6-0.3,2-0.8c0.1-0.2,0.2-0.4,0.3-0.6l1-4.4
			l1.3,0.3L1000.8,447.5L1000.8,447.5z"/>
		<path class="st10" d="M1006.5,450.9l0.1-0.9l0,0c-0.5,0.5-1.4,0.8-2.5,0.5c-1.5-0.3-2-1.5-1.7-2.6c0.4-1.7,2.2-2.3,4.9-1.7v-0.1
			c0.1-0.6,0.2-1.7-1.2-2c-0.7-0.2-1.4-0.1-2,0.1l-0.1-0.9c0.7-0.2,1.6-0.3,2.5-0.1c2.2,0.5,2.4,2.1,2,3.6l-0.6,2.7
			c-0.1,0.6-0.3,1.2-0.3,1.8L1006.5,450.9L1006.5,450.9z M1007.2,447.2c-1.4-0.4-3.1-0.5-3.4,0.9c-0.2,0.9,0.3,1.4,0.9,1.5
			c0.9,0.2,1.7-0.2,2-0.8c0.1-0.1,0.1-0.3,0.2-0.4L1007.2,447.2L1007.2,447.2z"/>
		<path class="st10" d="M1021.5,443.3l-2,8.7c-0.2,0.6-0.3,1.4-0.4,1.9l-1.2-0.3l0.2-1.3l0,0c-0.6,0.7-1.6,1.1-2.8,0.8
			c-1.7-0.4-2.7-2.2-2.2-4.4c0.5-2.4,2.4-3.5,4.1-3.1c1.1,0.3,1.7,1,1.9,1.6l0,0l1-4.3L1021.5,443.3L1021.5,443.3z M1018.7,449.3
			c0-0.2,0.1-0.4,0.1-0.6c0-0.9-0.5-1.7-1.5-2c-1.3-0.3-2.4,0.7-2.8,2.3c-0.3,1.5,0.1,2.8,1.5,3.1c0.9,0.2,1.8-0.2,2.3-1.1
			c0.1-0.2,0.1-0.3,0.2-0.5L1018.7,449.3z"/>
		<path class="st10" d="M1025.2,455.3l0.1-0.9l0,0c-0.5,0.5-1.4,0.8-2.5,0.5c-1.5-0.3-2-1.5-1.7-2.6c0.4-1.7,2.2-2.3,4.9-1.7v-0.1
			c0.1-0.6,0.2-1.7-1.2-2c-0.7-0.2-1.4-0.1-2,0.1l-0.1-0.9c0.7-0.2,1.6-0.3,2.5-0.1c2.2,0.5,2.4,2.1,2.1,3.6l-0.6,2.7
			c-0.1,0.6-0.3,1.2-0.3,1.8L1025.2,455.3L1025.2,455.3z M1025.8,451.6c-1.4-0.4-3.1-0.5-3.4,0.9c-0.2,0.9,0.3,1.4,0.9,1.5
			c0.9,0.2,1.7-0.2,2-0.8c0.1-0.1,0.1-0.3,0.2-0.4L1025.8,451.6L1025.8,451.6z"/>
		<path class="st10" d="M1032.6,451.9c0.2-0.9,0.4-1.7,0.5-2.4l1.2,0.3l-0.2,1.2l0,0c0.7-0.7,1.7-1.1,2.9-0.8
			c1.7,0.4,2.7,2.2,2.2,4.4c-0.6,2.6-2.5,3.5-4.2,3.1c-0.9-0.2-1.7-0.8-1.9-1.6l0,0l-0.9,3.9l-1.3-0.3L1032.6,451.9L1032.6,451.9z
			 M1033.5,454.1c-0.1,0.2-0.1,0.4-0.1,0.5c0,1,0.7,1.8,1.6,2c1.4,0.3,2.4-0.6,2.8-2.3c0.3-1.4-0.1-2.9-1.5-3.2
			c-0.9-0.2-1.9,0.2-2.3,1.2c-0.1,0.1-0.2,0.3-0.2,0.5L1033.5,454.1z"/>
		<path class="st10" d="M1047.3,456.6c-0.6,2.7-2.7,3.4-4.5,3c-1.9-0.5-3.1-2.2-2.6-4.5c0.6-2.4,2.5-3.5,4.4-3
			C1046.8,452.6,1047.8,454.4,1047.3,456.6z M1041.6,455.3c-0.4,1.6,0.3,3,1.5,3.3s2.5-0.7,2.8-2.3c0.3-1.2,0-2.9-1.5-3.3
			S1041.9,454,1041.6,455.3L1041.6,455.3z"/>
		<path class="st10" d="M1049.3,455.4c0.2-0.7,0.3-1.4,0.4-2l1.2,0.3l-0.2,1.2l0,0c0.5-0.6,1.5-1.1,2.7-0.8c1,0.2,2.4,1.2,1.8,3.6
			l-1,4.3l-1.3-0.3l1-4.1c0.3-1.2,0.1-2.2-1.2-2.5c-0.9-0.2-1.7,0.2-2.1,0.9c-0.1,0.1-0.2,0.4-0.2,0.6l-1,4.3l-1.3-0.3L1049.3,455.4
			L1049.3,455.4z"/>
		<path class="st10" d="M1060,453.6l-0.5,2.1l1.9,0.4l-0.2,1l-1.9-0.4l-0.9,3.9c-0.2,0.9-0.1,1.5,0.7,1.6c0.3,0.1,0.6,0.1,0.8,0.1
			l-0.2,1c-0.3,0-0.7,0-1.2-0.1c-0.6-0.1-1.1-0.5-1.3-0.9c-0.3-0.5-0.3-1.1-0.1-2l0.9-3.9l-1.1-0.3l0.2-1l1.1,0.3l0.4-1.7
			L1060,453.6L1060,453.6z"/>
		<path class="st10" d="M1062.6,460.5c-0.4,1.8,0.6,2.8,1.9,3.1c0.9,0.2,1.5,0.2,2.1,0.1v1c-0.5,0.1-1.3,0.1-2.5-0.1
			c-2.2-0.5-3.2-2.3-2.7-4.5s2.2-3.6,4.3-3.1c2.3,0.5,2.5,2.8,2.2,4.1c-0.1,0.3-0.1,0.5-0.2,0.6L1062.6,460.5L1062.6,460.5z
			 M1066.7,460.4c0.2-0.8,0.2-2.2-1.3-2.5c-1.3-0.3-2.2,0.8-2.5,1.7L1066.7,460.4L1066.7,460.4z"/>
	</g>
	<g>
		<path class="st10" d="M701.6,582.9c-0.6-0.6-1.2-1.1-1.7-1.5l0.8-0.8l1.1,1l0,0c-0.5-0.9-0.4-1.9,0.2-2.6c0.1-0.1,0.2-0.2,0.3-0.2
			l0.9,0.9c-0.1,0.1-0.2,0.2-0.3,0.3c-0.7,0.7-0.6,1.7,0,2.5c0.1,0.2,0.2,0.3,0.4,0.5l2.8,2.7l-0.9,1L701.6,582.9L701.6,582.9z"/>
		<path class="st10" d="M711.5,577c0.5,0.5,1,1,1.5,1.3l-0.8,0.9l-0.9-0.8l0,0c0.2,0.7,0.2,1.8-0.7,2.7c-0.8,0.8-2.2,1.4-4.1-0.4
			l-3.1-3l0.9-1l3,2.8c1,1,2,1.3,2.8,0.4c0.6-0.7,0.6-1.5,0.3-2.1c-0.1-0.2-0.2-0.4-0.4-0.6l-3.3-3.1l0.9-1L711.5,577L711.5,577z"/>
		<path class="st10" d="M717.4,573.8l-0.8-0.6l0,0c0.1,0.7,0,1.6-0.8,2.4c-1,1.1-2.3,0.9-3.1,0.2c-1.3-1.2-0.9-3,1.1-5.1l-0.1-0.1
			c-0.4-0.4-1.3-1.1-2.4,0c-0.5,0.5-0.8,1.2-0.9,1.8l-0.8-0.4c0.1-0.7,0.6-1.5,1.2-2.2c1.6-1.6,3-1,4.1,0.1l2,1.9
			c0.5,0.4,0.9,0.8,1.4,1.1L717.4,573.8L717.4,573.8z M714.5,571.4c-1,1-2,2.4-1,3.4c0.6,0.6,1.3,0.5,1.8,0c0.7-0.7,0.7-1.5,0.3-2.1
			c-0.1-0.1-0.2-0.2-0.3-0.3L714.5,571.4L714.5,571.4z"/>
		<path class="st10" d="M718.5,557.1l6.4,6.2c0.5,0.5,1,1,1.4,1.3l-0.8,0.9l-1-0.8l0,0c0.3,0.9,0.1,2-0.7,2.8
			c-1.2,1.3-3.3,1.2-4.9-0.3c-1.8-1.7-1.8-3.8-0.6-5.1c0.8-0.8,1.7-1,2.4-0.8l0,0l-3.2-3L718.5,557.1L718.5,557.1z M722.2,562.5
			c-0.1-0.1-0.3-0.3-0.5-0.3c-0.8-0.5-1.8-0.4-2.5,0.3c-1,1-0.7,2.4,0.5,3.6c1.1,1,2.5,1.4,3.5,0.3c0.6-0.7,0.8-1.7,0.2-2.5
			c-0.1-0.2-0.2-0.3-0.4-0.5L722.2,562.5L722.2,562.5z"/>
		<path class="st10" d="M730.6,560l-0.8-0.6l0,0c0.1,0.7,0,1.6-0.8,2.4c-1,1.1-2.3,0.9-3.1,0.2c-1.3-1.2-0.9-3,1.1-5.1l-0.1-0.1
			c-0.4-0.4-1.3-1.1-2.4,0c-0.5,0.5-0.8,1.2-0.9,1.8l-0.8-0.4c0.1-0.7,0.6-1.5,1.2-2.2c1.6-1.6,3-1,4.1,0.1l2,1.9
			c0.5,0.4,0.9,0.8,1.4,1.1L730.6,560L730.6,560z M727.8,557.5c-1,1-2,2.4-1,3.4c0.6,0.6,1.3,0.5,1.8,0c0.7-0.7,0.7-1.5,0.3-2.1
			c-0.1-0.1-0.2-0.3-0.3-0.3L727.8,557.5L727.8,557.5z"/>
		<path class="st10" d="M738.6,551.3c-0.1,0.4-0.5,1.1-1.2,1.8c-1.5,1.6-3.6,1.6-5.3,0c-1.6-1.6-1.8-3.8-0.1-5.6
			c0.5-0.6,1.2-0.9,1.6-1.1l0.5,0.9c-0.3,0.1-0.8,0.3-1.3,0.9c-1.2,1.2-0.9,2.8,0.2,3.8c1.2,1.2,2.8,1.1,3.8,0.1
			c0.5-0.5,0.7-1,0.9-1.4L738.6,551.3L738.6,551.3z"/>
		<path class="st10" d="M734.3,541l2.6,0.5l-0.7,0.7l-1.7-0.4l0,0l0.4,1.6l-0.7,0.7l-0.6-2.5L734.3,541L734.3,541z M742.7,547.4
			l-0.7-0.6l0,0c0.1,0.7,0,1.6-0.8,2.4c-1,1.1-2.3,0.9-3.1,0.2c-1.3-1.2-0.9-3.1,1.1-5.1l-0.1-0.1c-0.4-0.4-1.3-1.1-2.4,0
			c-0.5,0.5-0.8,1.2-0.9,1.8l-0.8-0.4c0.1-0.7,0.6-1.5,1.2-2.2c1.6-1.6,3-1,4.1,0.1l2,1.9c0.5,0.4,0.9,0.8,1.4,1.1L742.7,547.4
			L742.7,547.4z M739.8,545c-1,1-2,2.4-1,3.4c0.6,0.6,1.3,0.5,1.8,0c0.7-0.7,0.7-1.5,0.3-2.1c-0.1-0.1-0.2-0.3-0.3-0.3L739.8,545
			L739.8,545z"/>
		<path class="st10" d="M741.1,541.4c-0.5-0.5-1-1-1.5-1.3l0.8-0.8l0.9,0.8l0,0c-0.2-0.8-0.2-1.7,0.6-2.6c0.7-0.7,1.7-0.8,2.5-0.5
			l0,0c-0.1-0.5-0.2-0.9-0.1-1.3c0.1-0.5,0.3-1,0.8-1.5c0.7-0.7,2.1-1.3,4,0.5l3.1,3l-0.9,1l-3-2.9c-1-1-2-1.2-2.8-0.4
			c-0.5,0.5-0.5,1.4-0.2,2c0.1,0.2,0.2,0.4,0.4,0.5l3.3,3.2l-0.9,1l-3.2-3.1c-0.8-0.8-1.8-1-2.5-0.3c-0.6,0.6-0.5,1.5-0.2,2.1
			c0.1,0.2,0.2,0.4,0.4,0.5l3.2,3.1l-0.9,1L741.1,541.4L741.1,541.4z"/>
		<path class="st10" d="M756.6,533l-0.7-0.6l0,0c0.1,0.7,0,1.6-0.8,2.4c-1,1.1-2.3,0.9-3.1,0.2c-1.3-1.2-0.9-3,1.1-5.1l-0.1-0.1
			c-0.4-0.4-1.3-1.1-2.4,0c-0.5,0.5-0.8,1.2-0.9,1.8l-0.8-0.4c0.1-0.7,0.6-1.5,1.2-2.2c1.6-1.6,3-1,4.1,0.1l2,1.9
			c0.5,0.4,0.9,0.8,1.4,1.1L756.6,533L756.6,533z M753.7,530.5c-1,1-2,2.4-1,3.4c0.6,0.6,1.3,0.5,1.8,0c0.7-0.7,0.7-1.5,0.3-2.1
			c-0.1-0.1-0.2-0.3-0.2-0.3L753.7,530.5L753.7,530.5z"/>
		<path class="st10" d="M755.2,527.1c-0.6-0.6-1.2-1.1-1.7-1.5l0.8-0.8l1.1,1l0,0c-0.5-0.9-0.4-1.9,0.2-2.6c0.1-0.1,0.2-0.2,0.3-0.2
			l0.9,0.9c-0.1,0.1-0.2,0.2-0.3,0.3c-0.7,0.7-0.6,1.7,0,2.5c0.1,0.2,0.2,0.3,0.4,0.5l2.8,2.7l-0.9,1L755.2,527.1L755.2,527.1z"/>
		<path class="st10" d="M765.1,524.1l-0.8-0.6l0,0c0.1,0.7,0,1.6-0.8,2.4c-1,1.1-2.3,0.9-3.1,0.2c-1.3-1.2-0.9-3.1,1.1-5.1l-0.1-0.1
			c-0.4-0.4-1.3-1.1-2.4,0c-0.5,0.5-0.8,1.2-0.9,1.8l-0.8-0.4c0.1-0.7,0.6-1.5,1.2-2.2c1.6-1.6,3-1,4.1,0.1l2,1.9
			c0.5,0.4,0.9,0.8,1.4,1.1L765.1,524.1L765.1,524.1z M762.2,521.7c-1,1-2,2.4-1,3.4c0.6,0.6,1.3,0.5,1.8,0c0.7-0.7,0.7-1.5,0.3-2.1
			c-0.1-0.1-0.2-0.3-0.3-0.3L762.2,521.7L762.2,521.7z"/>
	</g>
	<g>
		<path class="st10" d="M1396,504.5c1,1.5,2.4,1.5,3.5,0.7c0.8-0.5,1.2-1,1.5-1.4l0.7,0.7c-0.3,0.4-0.8,1.1-1.8,1.7
			c-1.9,1.2-3.8,0.8-5.1-1.1c-1.2-1.9-1.1-4,0.7-5.2c2-1.3,3.7,0.1,4.5,1.2c0.2,0.2,0.2,0.4,0.3,0.5L1396,504.5L1396,504.5z
			 M1398.7,501.5c-0.5-0.7-1.5-1.6-2.8-0.8c-1.1,0.8-0.9,2.1-0.5,3L1398.7,501.5L1398.7,501.5z"/>
		<path class="st10" d="M1402.7,502.5c0.5,0,1.2-0.2,1.8-0.5c0.8-0.5,0.9-1.2,0.6-1.7s-0.9-0.6-1.9-0.4c-1.4,0.3-2.3,0.1-2.8-0.7
			c-0.7-1-0.4-2.3,0.9-3.2c0.6-0.4,1.3-0.6,1.8-0.6l0.3,1c-0.3,0-0.9,0.1-1.5,0.5c-0.7,0.4-0.8,1.1-0.5,1.5c0.3,0.5,0.9,0.5,1.9,0.3
			c1.3-0.3,2.2-0.1,2.8,0.8c0.7,1.1,0.4,2.4-1.1,3.4c-0.7,0.5-1.4,0.7-2,0.7L1402.7,502.5L1402.7,502.5z"/>
		<path class="st10" d="M1404.8,491.4l1.2,1.8l1.6-1.1l0.6,0.9l-1.6,1.1l2.2,3.3c0.5,0.8,1,1,1.6,0.6c0.3-0.2,0.5-0.4,0.6-0.5
			l0.6,0.8c-0.2,0.2-0.5,0.5-0.9,0.8c-0.5,0.4-1.1,0.5-1.5,0.3c-0.5-0.1-1-0.6-1.5-1.3l-2.2-3.4l-0.9,0.6l-0.6-0.9l0.9-0.6l-1-1.5
			L1404.8,491.4L1404.8,491.4z"/>
		<path class="st10" d="M1410.1,493.2c-0.5-0.7-0.9-1.3-1.3-1.9l1-0.6l0.8,1.2h0.1c-0.3-1,0.1-2,0.8-2.5c0.1-0.1,0.2-0.1,0.3-0.2
			l0.7,1.1c-0.1,0-0.2,0.1-0.4,0.2c-0.8,0.5-0.9,1.5-0.6,2.4c0.1,0.2,0.2,0.4,0.3,0.5l2.2,3.3l-1.1,0.7L1410.1,493.2L1410.1,493.2z"
			/>
		<path class="st10" d="M1420.4,492.5l-0.6-0.7l0,0c0,0.7-0.4,1.6-1.3,2.2c-1.2,0.8-2.5,0.4-3.1-0.5c-1-1.5-0.2-3.2,2.2-4.7
			l-0.1-0.1c-0.3-0.5-1.1-1.3-2.3-0.5c-0.6,0.4-1.1,1-1.3,1.5l-0.7-0.6c0.3-0.7,0.9-1.4,1.7-1.9c1.9-1.2,3.2-0.3,4,1l1.5,2.3
			c0.3,0.5,0.7,1,1.1,1.4L1420.4,492.5z M1418.1,489.5c-1.2,0.8-2.5,1.9-1.7,3.1c0.5,0.7,1.2,0.8,1.8,0.4c0.8-0.5,1-1.4,0.8-2
			c0-0.1-0.1-0.3-0.2-0.4L1418.1,489.5L1418.1,489.5z"/>
		<path class="st10" d="M1422.4,478.1l4.9,7.4c0.4,0.5,0.8,1.2,1.1,1.5l-1,0.7l-0.8-1l0,0c0.1,0.9-0.3,1.9-1.3,2.6
			c-1.5,1-3.5,0.5-4.7-1.4c-1.4-2-0.9-4.1,0.6-5.1c0.9-0.6,1.9-0.6,2.5-0.3l0,0l-2.4-3.7L1422.4,478.1L1422.4,478.1z M1424.9,484.3
			c-0.1-0.1-0.2-0.3-0.4-0.4c-0.6-0.6-1.6-0.8-2.5-0.2c-1.2,0.8-1.2,2.2-0.3,3.6c0.8,1.2,2.1,1.9,3.3,1.1c0.8-0.5,1.1-1.5,0.8-2.4
			c-0.1-0.2-0.2-0.3-0.3-0.5L1424.9,484.3L1424.9,484.3z"/>
		<path class="st10" d="M1433.7,483.7l-0.6-0.7l0,0c0,0.7-0.4,1.6-1.3,2.2c-1.2,0.8-2.5,0.4-3.1-0.5c-1-1.5-0.2-3.2,2.2-4.7
			l-0.1-0.1c-0.3-0.5-1.1-1.3-2.3-0.5c-0.6,0.4-1.1,1-1.3,1.5l-0.7-0.6c0.3-0.7,0.9-1.4,1.7-1.9c1.9-1.2,3.2-0.3,4,1l1.5,2.3
			c0.3,0.5,0.7,1,1.1,1.4L1433.7,483.7z M1431.4,480.6c-1.2,0.8-2.5,1.9-1.7,3.1c0.5,0.7,1.2,0.8,1.8,0.4c0.8-0.5,1-1.4,0.8-2
			c0-0.1-0.1-0.3-0.2-0.4L1431.4,480.6L1431.4,480.6z"/>
		<path class="st10" d="M1436.3,476c-0.5-0.8-1-1.4-1.4-2l1-0.7l0.8,1l0,0c0-1,0.4-2,1.4-2.6c1.5-1,3.4-0.5,4.7,1.4
			c1.5,2.2,0.8,4.2-0.6,5.2c-0.8,0.5-1.8,0.6-2.5,0.3l0,0l2.2,3.3l-1.1,0.7L1436.3,476L1436.3,476z M1438.5,476.9
			c0.1,0.2,0.2,0.3,0.3,0.4c0.7,0.6,1.7,0.7,2.5,0.2c1.2-0.8,1.2-2.2,0.3-3.6c-0.8-1.2-2.2-1.9-3.3-1.1c-0.8,0.5-1.1,1.5-0.8,2.5
			c0.1,0.2,0.1,0.4,0.2,0.5L1438.5,476.9L1438.5,476.9z"/>
		<path class="st10" d="M1449.7,473l-0.6-0.7l0,0c0,0.7-0.4,1.6-1.3,2.2c-1.2,0.8-2.5,0.4-3.1-0.5c-1-1.5-0.2-3.2,2.2-4.7l-0.1-0.1
			c-0.3-0.5-1.1-1.3-2.3-0.5c-0.6,0.4-1.1,1-1.3,1.5l-0.7-0.6c0.3-0.7,0.9-1.4,1.7-1.9c1.9-1.2,3.2-0.3,4,1l1.5,2.3
			c0.3,0.5,0.7,1,1.1,1.4L1449.7,473L1449.7,473z M1447.5,470c-1.2,0.8-2.5,1.9-1.7,3.1c0.5,0.7,1.2,0.8,1.8,0.4
			c0.8-0.5,1-1.4,0.8-2c0-0.1-0.1-0.3-0.2-0.4L1447.5,470L1447.5,470z"/>
		<path class="st10" d="M1449.6,467c-0.5-0.7-0.9-1.3-1.3-1.9l1-0.6l0.8,1.2h0.1c-0.3-1,0.1-2,0.8-2.5c0.1-0.1,0.2-0.1,0.3-0.2
			l0.7,1.1c-0.1,0-0.2,0.1-0.4,0.2c-0.8,0.5-0.9,1.5-0.6,2.4c0.1,0.2,0.2,0.4,0.3,0.5l2.2,3.3l-1.1,0.7L1449.6,467L1449.6,467z"/>
		<path class="st10" d="M1459.9,466.3l-0.6-0.7l0,0c0,0.7-0.4,1.6-1.3,2.2c-1.2,0.8-2.5,0.4-3.1-0.5c-1-1.5-0.2-3.2,2.2-4.7
			l-0.1-0.1c-0.3-0.5-1.1-1.3-2.3-0.5c-0.6,0.4-1.1,1-1.3,1.5l-0.7-0.6c0.3-0.7,0.9-1.4,1.7-1.9c1.9-1.2,3.2-0.3,4,1l1.5,2.3
			c0.3,0.5,0.7,1,1.1,1.4L1459.9,466.3L1459.9,466.3z M1457.7,463.2c-1.2,0.8-2.5,1.9-1.7,3.1c0.5,0.7,1.2,0.8,1.8,0.4
			c0.8-0.5,1-1.4,0.8-2c0-0.1-0.1-0.3-0.2-0.4L1457.7,463.2L1457.7,463.2z"/>
		<path class="st10" d="M1464.4,461.7c0.5,0,1.2-0.2,1.8-0.5c0.8-0.5,0.9-1.2,0.6-1.7s-0.9-0.6-1.9-0.4c-1.4,0.3-2.3,0.1-2.8-0.7
			c-0.7-1-0.4-2.3,0.9-3.2c0.6-0.4,1.3-0.6,1.8-0.6l0.3,1c-0.3,0-0.9,0.1-1.5,0.5c-0.7,0.4-0.8,1.1-0.5,1.5c0.3,0.5,0.9,0.5,1.9,0.3
			c1.3-0.3,2.2-0.1,2.8,0.8c0.7,1.1,0.4,2.4-1.1,3.4c-0.7,0.5-1.4,0.7-2,0.7L1464.4,461.7L1464.4,461.7z"/>
		<path class="st10" d="M1466.1,451.8c-0.6-0.8-0.6-1.5,0-1.9c0.3-0.2,0.6-0.2,1-0.2c0.3,0,0.5,0,0.7-0.1s0.2-0.3,0-0.8l0.6-0.4
			c0.6,0.8,0.6,1.5,0,1.9c-0.3,0.2-0.6,0.2-0.9,0.3c-0.3,0-0.5,0-0.7,0.1s-0.2,0.4,0.1,0.8L1466.1,451.8L1466.1,451.8z
			 M1473.8,457.1l-0.6-0.7l0,0c0,0.7-0.4,1.6-1.3,2.2c-1.2,0.8-2.5,0.4-3.1-0.5c-1-1.5-0.2-3.2,2.2-4.7l-0.1-0.1
			c-0.3-0.5-1.1-1.3-2.3-0.5c-0.6,0.4-1.1,1-1.3,1.5l-0.7-0.6c0.3-0.7,0.9-1.4,1.7-1.9c1.9-1.2,3.2-0.3,4,1l1.5,2.3
			c0.3,0.5,0.7,1,1.1,1.4L1473.8,457.1z M1471.5,454.1c-1.2,0.8-2.5,1.9-1.7,3.1c0.5,0.7,1.2,0.8,1.8,0.4c0.8-0.5,1-1.4,0.8-2
			c0-0.1-0.1-0.3-0.2-0.4L1471.5,454.1L1471.5,454.1z"/>
		<path class="st10" d="M1480,448.5c1.5,2.3,0.6,4.3-0.9,5.3c-1.7,1.1-3.8,0.7-5-1.2c-1.4-2.1-0.8-4.2,0.9-5.3
			C1476.7,446.1,1478.8,446.6,1480,448.5L1480,448.5z M1475.2,451.8c0.9,1.4,2.3,1.9,3.4,1.1c1.1-0.7,1.2-2.2,0.3-3.6
			c-0.7-1-2.1-2-3.4-1.1C1474.1,449,1474.4,450.6,1475.2,451.8z"/>
		<path class="st10" d="M1483.4,444.8c-0.5-0.8-1-1.4-1.4-2l1-0.7l0.8,1l0,0c0-1,0.4-2,1.4-2.6c1.5-1,3.4-0.5,4.7,1.4
			c1.5,2.2,0.8,4.2-0.6,5.2c-0.8,0.5-1.8,0.6-2.5,0.3l0,0l2.2,3.3l-1.1,0.7L1483.4,444.8L1483.4,444.8z M1485.6,445.7
			c0.1,0.2,0.2,0.3,0.3,0.4c0.7,0.6,1.7,0.7,2.5,0.2c1.2-0.8,1.2-2.2,0.3-3.6c-0.8-1.2-2.2-1.9-3.3-1.1c-0.8,0.5-1.1,1.5-0.8,2.5
			c0.1,0.2,0.1,0.4,0.2,0.5L1485.6,445.7L1485.6,445.7z"/>
		<path class="st10" d="M1496.8,441.9l-0.6-0.7l0,0c0,0.7-0.4,1.6-1.3,2.2c-1.2,0.8-2.5,0.4-3.1-0.5c-1-1.5-0.2-3.2,2.2-4.7
			l-0.1-0.1c-0.3-0.5-1.1-1.3-2.3-0.5c-0.6,0.4-1.1,1-1.3,1.5l-0.7-0.6c0.3-0.7,0.9-1.4,1.7-1.9c1.9-1.2,3.2-0.3,4,1l1.5,2.3
			c0.3,0.5,0.7,1,1.1,1.4L1496.8,441.9L1496.8,441.9z M1494.6,438.8c-1.2,0.8-2.5,1.9-1.7,3.1c0.5,0.7,1.2,0.8,1.8,0.4
			c0.8-0.5,1-1.4,0.8-2c0-0.1-0.1-0.3-0.2-0.4L1494.6,438.8L1494.6,438.8z"/>
		<path class="st10" d="M1503.6,435c0.4,0.6,0.8,1.2,1.2,1.6l-1,0.7l-0.7-1l0,0c0,0.7-0.2,1.8-1.3,2.5c-1,0.6-2.5,0.9-3.9-1.3
			l-2.4-3.6l1.1-0.7l2.3,3.4c0.8,1.2,1.7,1.7,2.7,1c0.8-0.5,0.9-1.4,0.8-2c0-0.2-0.1-0.4-0.3-0.6l-2.5-3.8l1.1-0.7L1503.6,435
			L1503.6,435z"/>
		<path class="st10" d="M1500.6,426.4l1.1-0.7l6,9l-1.1,0.7L1500.6,426.4z"/>
		<path class="st10" d="M1513,426.6c1.5,2.3,0.6,4.3-0.9,5.3c-1.7,1.1-3.8,0.7-5-1.2c-1.4-2.1-0.8-4.2,0.9-5.3
			C1509.7,424.2,1511.8,424.7,1513,426.6L1513,426.6z M1508.2,429.9c0.9,1.4,2.3,1.9,3.4,1.1c1.1-0.7,1.2-2.2,0.3-3.6
			c-0.7-1-2.1-2-3.4-1.1C1507.2,427.2,1507.4,428.8,1508.2,429.9z"/>
	</g>
</g>
</svg>
